EESchema Schematic File Version 2
LIBS:power
LIBS:device
LIBS:transistors
LIBS:conn
LIBS:linear
LIBS:regul
LIBS:74xx
LIBS:cmos4000
LIBS:adc-dac
LIBS:memory
LIBS:xilinx
LIBS:microcontrollers
LIBS:dsp
LIBS:microchip
LIBS:analog_switches
LIBS:motorola
LIBS:texas
LIBS:intel
LIBS:audio
LIBS:interface
LIBS:digital-audio
LIBS:philips
LIBS:display
LIBS:cypress
LIBS:siliconi
LIBS:opto
LIBS:atmel
LIBS:contrib
LIBS:valves
LIBS:eeschema_symbols
LIBS:MPS
LIBS:lightboard_96well-cache
EELAYER 25 0
EELAYER END
$Descr A3 16535 11693
encoding utf-8
Sheet 1 1
Title "Light Board - 96 well"
Date "5/26/18"
Rev "B"
Comp ""
Comment1 ""
Comment2 ""
Comment3 ""
Comment4 ""
$EndDescr
$Comp
L LED-PLCC2 D1
U 1 1 57371FD1
P 5650 2400
F 0 "D1" H 5650 2500 50  0000 C CNN
F 1 "LED" H 5650 2300 50  0000 C CNN
F 2 "footprints:PLCC-2" H 5650 2400 50  0001 C CNN
F 3 "" H 5650 2400 50  0000 C CNN
	1    5650 2400
	1    0    0    -1  
$EndComp
$Comp
L LED-PLCC2 D2
U 1 1 573727EF
P 5650 2750
F 0 "D2" H 5650 2850 50  0000 C CNN
F 1 "LED" H 5650 2650 50  0000 C CNN
F 2 "footprints:PLCC-2" H 5650 2750 50  0001 C CNN
F 3 "" H 5650 2750 50  0000 C CNN
	1    5650 2750
	1    0    0    -1  
$EndComp
$Comp
L LED-RESCUE-helike D3
U 1 1 5737285A
P 5650 3100
F 0 "D3" H 5650 3200 50  0000 C CNN
F 1 "LED" H 5650 3000 50  0000 C CNN
F 2 "footprints:PLCC-2" H 5650 3100 50  0001 C CNN
F 3 "" H 5650 3100 50  0000 C CNN
	1    5650 3100
	1    0    0    -1  
$EndComp
$Comp
L LED-RESCUE-helike D4
U 1 1 5737294F
P 5650 3450
F 0 "D4" H 5650 3550 50  0000 C CNN
F 1 "LED" H 5650 3350 50  0000 C CNN
F 2 "footprints:PLCC-2" H 5650 3450 50  0001 C CNN
F 3 "" H 5650 3450 50  0000 C CNN
	1    5650 3450
	1    0    0    -1  
$EndComp
$Comp
L LED-RESCUE-helike D5
U 1 1 57372955
P 5650 3800
F 0 "D5" H 5650 3900 50  0000 C CNN
F 1 "LED" H 5650 3700 50  0000 C CNN
F 2 "footprints:PLCC-2" H 5650 3800 50  0001 C CNN
F 3 "" H 5650 3800 50  0000 C CNN
	1    5650 3800
	1    0    0    -1  
$EndComp
$Comp
L LED-RESCUE-helike D6
U 1 1 5737295B
P 5650 4150
F 0 "D6" H 5650 4250 50  0000 C CNN
F 1 "LED" H 5650 4050 50  0000 C CNN
F 2 "footprints:PLCC-2" H 5650 4150 50  0001 C CNN
F 3 "" H 5650 4150 50  0000 C CNN
	1    5650 4150
	1    0    0    -1  
$EndComp
$Comp
L LED-RESCUE-helike D7
U 1 1 57372B80
P 5650 4500
F 0 "D7" H 5650 4600 50  0000 C CNN
F 1 "LED" H 5650 4400 50  0000 C CNN
F 2 "footprints:PLCC-2" H 5650 4500 50  0001 C CNN
F 3 "" H 5650 4500 50  0000 C CNN
	1    5650 4500
	1    0    0    -1  
$EndComp
$Comp
L LED-RESCUE-helike D8
U 1 1 57372B86
P 5650 4850
F 0 "D8" H 5650 4950 50  0000 C CNN
F 1 "LED" H 5650 4750 50  0000 C CNN
F 2 "footprints:PLCC-2" H 5650 4850 50  0001 C CNN
F 3 "" H 5650 4850 50  0000 C CNN
	1    5650 4850
	1    0    0    -1  
$EndComp
$Comp
L LED-RESCUE-helike D9
U 1 1 57372B8C
P 5650 5200
F 0 "D9" H 5650 5300 50  0000 C CNN
F 1 "LED" H 5650 5100 50  0000 C CNN
F 2 "footprints:PLCC-2" H 5650 5200 50  0001 C CNN
F 3 "" H 5650 5200 50  0000 C CNN
	1    5650 5200
	1    0    0    -1  
$EndComp
$Comp
L LED-RESCUE-helike D10
U 1 1 57372B92
P 5650 5550
F 0 "D10" H 5650 5650 50  0000 C CNN
F 1 "LED" H 5650 5450 50  0000 C CNN
F 2 "footprints:PLCC-2" H 5650 5550 50  0001 C CNN
F 3 "" H 5650 5550 50  0000 C CNN
	1    5650 5550
	1    0    0    -1  
$EndComp
$Comp
L LED-RESCUE-helike D11
U 1 1 57372B98
P 5650 5900
F 0 "D11" H 5650 6000 50  0000 C CNN
F 1 "LED" H 5650 5800 50  0000 C CNN
F 2 "footprints:PLCC-2" H 5650 5900 50  0001 C CNN
F 3 "" H 5650 5900 50  0000 C CNN
	1    5650 5900
	1    0    0    -1  
$EndComp
$Comp
L LED-RESCUE-helike D12
U 1 1 57372B9E
P 5650 6250
F 0 "D12" H 5650 6350 50  0000 C CNN
F 1 "LED" H 5650 6150 50  0000 C CNN
F 2 "footprints:PLCC-2" H 5650 6250 50  0001 C CNN
F 3 "" H 5650 6250 50  0000 C CNN
	1    5650 6250
	1    0    0    -1  
$EndComp
Text Label 5250 2400 0    60   ~ 0
DA1
Text Label 5250 2750 0    60   ~ 0
DA2
Text Label 5250 3100 0    60   ~ 0
DA3
Text Label 5250 3450 0    60   ~ 0
DA4
Text Label 5250 3800 0    60   ~ 0
DA5
Text Label 5250 4150 0    60   ~ 0
DA6
Text Label 5250 4500 0    60   ~ 0
DA7
Text Label 5250 4850 0    60   ~ 0
DA8
Text Label 5250 5200 0    60   ~ 0
DA9
Text Label 5250 5550 0    60   ~ 0
DA10
Text Label 5250 5900 0    60   ~ 0
DA11
Text Label 5250 6250 0    60   ~ 0
DA12
$Comp
L LED-RESCUE-helike D13
U 1 1 5737CD00
P 6550 2400
F 0 "D13" H 6550 2500 50  0000 C CNN
F 1 "LED" H 6550 2300 50  0000 C CNN
F 2 "footprints:PLCC-2" H 6550 2400 50  0001 C CNN
F 3 "" H 6550 2400 50  0000 C CNN
	1    6550 2400
	1    0    0    -1  
$EndComp
$Comp
L LED-RESCUE-helike D14
U 1 1 5737CD06
P 6550 2750
F 0 "D14" H 6550 2850 50  0000 C CNN
F 1 "LED" H 6550 2650 50  0000 C CNN
F 2 "footprints:PLCC-2" H 6550 2750 50  0001 C CNN
F 3 "" H 6550 2750 50  0000 C CNN
	1    6550 2750
	1    0    0    -1  
$EndComp
$Comp
L LED-RESCUE-helike D15
U 1 1 5737CD0C
P 6550 3100
F 0 "D15" H 6550 3200 50  0000 C CNN
F 1 "LED" H 6550 3000 50  0000 C CNN
F 2 "footprints:PLCC-2" H 6550 3100 50  0001 C CNN
F 3 "" H 6550 3100 50  0000 C CNN
	1    6550 3100
	1    0    0    -1  
$EndComp
$Comp
L LED-RESCUE-helike D16
U 1 1 5737CD12
P 6550 3450
F 0 "D16" H 6550 3550 50  0000 C CNN
F 1 "LED" H 6550 3350 50  0000 C CNN
F 2 "footprints:PLCC-2" H 6550 3450 50  0001 C CNN
F 3 "" H 6550 3450 50  0000 C CNN
	1    6550 3450
	1    0    0    -1  
$EndComp
$Comp
L LED-RESCUE-helike D17
U 1 1 5737CD18
P 6550 3800
F 0 "D17" H 6550 3900 50  0000 C CNN
F 1 "LED" H 6550 3700 50  0000 C CNN
F 2 "footprints:PLCC-2" H 6550 3800 50  0001 C CNN
F 3 "" H 6550 3800 50  0000 C CNN
	1    6550 3800
	1    0    0    -1  
$EndComp
$Comp
L LED-RESCUE-helike D18
U 1 1 5737CD1E
P 6550 4150
F 0 "D18" H 6550 4250 50  0000 C CNN
F 1 "LED" H 6550 4050 50  0000 C CNN
F 2 "footprints:PLCC-2" H 6550 4150 50  0001 C CNN
F 3 "" H 6550 4150 50  0000 C CNN
	1    6550 4150
	1    0    0    -1  
$EndComp
$Comp
L LED-RESCUE-helike D19
U 1 1 5737CD24
P 6550 4500
F 0 "D19" H 6550 4600 50  0000 C CNN
F 1 "LED" H 6550 4400 50  0000 C CNN
F 2 "footprints:PLCC-2" H 6550 4500 50  0001 C CNN
F 3 "" H 6550 4500 50  0000 C CNN
	1    6550 4500
	1    0    0    -1  
$EndComp
$Comp
L LED-RESCUE-helike D20
U 1 1 5737CD2A
P 6550 4850
F 0 "D20" H 6550 4950 50  0000 C CNN
F 1 "LED" H 6550 4750 50  0000 C CNN
F 2 "footprints:PLCC-2" H 6550 4850 50  0001 C CNN
F 3 "" H 6550 4850 50  0000 C CNN
	1    6550 4850
	1    0    0    -1  
$EndComp
$Comp
L LED-RESCUE-helike D21
U 1 1 5737CD30
P 6550 5200
F 0 "D21" H 6550 5300 50  0000 C CNN
F 1 "LED" H 6550 5100 50  0000 C CNN
F 2 "footprints:PLCC-2" H 6550 5200 50  0001 C CNN
F 3 "" H 6550 5200 50  0000 C CNN
	1    6550 5200
	1    0    0    -1  
$EndComp
$Comp
L LED-RESCUE-helike D22
U 1 1 5737CD36
P 6550 5550
F 0 "D22" H 6550 5650 50  0000 C CNN
F 1 "LED" H 6550 5450 50  0000 C CNN
F 2 "footprints:PLCC-2" H 6550 5550 50  0001 C CNN
F 3 "" H 6550 5550 50  0000 C CNN
	1    6550 5550
	1    0    0    -1  
$EndComp
$Comp
L LED-RESCUE-helike D23
U 1 1 5737CD3C
P 6550 5900
F 0 "D23" H 6550 6000 50  0000 C CNN
F 1 "LED" H 6550 5800 50  0000 C CNN
F 2 "footprints:PLCC-2" H 6550 5900 50  0001 C CNN
F 3 "" H 6550 5900 50  0000 C CNN
	1    6550 5900
	1    0    0    -1  
$EndComp
$Comp
L LED-RESCUE-helike D24
U 1 1 5737CD42
P 6550 6250
F 0 "D24" H 6550 6350 50  0000 C CNN
F 1 "LED" H 6550 6150 50  0000 C CNN
F 2 "footprints:PLCC-2" H 6550 6250 50  0001 C CNN
F 3 "" H 6550 6250 50  0000 C CNN
	1    6550 6250
	1    0    0    -1  
$EndComp
Text Label 6150 2400 0    60   ~ 0
DB1
Text Label 6150 2750 0    60   ~ 0
DB2
Text Label 6150 3100 0    60   ~ 0
DB3
Text Label 6150 3450 0    60   ~ 0
DB4
Text Label 6150 3800 0    60   ~ 0
DB5
Text Label 6150 4150 0    60   ~ 0
DB6
Text Label 6150 4500 0    60   ~ 0
DB7
Text Label 6150 4850 0    60   ~ 0
DB8
Text Label 6150 5200 0    60   ~ 0
DB9
Text Label 6150 5550 0    60   ~ 0
DB10
Text Label 6150 5900 0    60   ~ 0
DB11
Text Label 6150 6250 0    60   ~ 0
DB12
$Comp
L LED-RESCUE-helike D25
U 1 1 5737D5FE
P 7450 2400
F 0 "D25" H 7450 2500 50  0000 C CNN
F 1 "LED" H 7450 2300 50  0000 C CNN
F 2 "footprints:PLCC-2" H 7450 2400 50  0001 C CNN
F 3 "" H 7450 2400 50  0000 C CNN
	1    7450 2400
	1    0    0    -1  
$EndComp
$Comp
L LED-RESCUE-helike D26
U 1 1 5737D604
P 7450 2750
F 0 "D26" H 7450 2850 50  0000 C CNN
F 1 "LED" H 7450 2650 50  0000 C CNN
F 2 "footprints:PLCC-2" H 7450 2750 50  0001 C CNN
F 3 "" H 7450 2750 50  0000 C CNN
	1    7450 2750
	1    0    0    -1  
$EndComp
$Comp
L LED-RESCUE-helike D27
U 1 1 5737D60A
P 7450 3100
F 0 "D27" H 7450 3200 50  0000 C CNN
F 1 "LED" H 7450 3000 50  0000 C CNN
F 2 "footprints:PLCC-2" H 7450 3100 50  0001 C CNN
F 3 "" H 7450 3100 50  0000 C CNN
	1    7450 3100
	1    0    0    -1  
$EndComp
$Comp
L LED-RESCUE-helike D28
U 1 1 5737D610
P 7450 3450
F 0 "D28" H 7450 3550 50  0000 C CNN
F 1 "LED" H 7450 3350 50  0000 C CNN
F 2 "footprints:PLCC-2" H 7450 3450 50  0001 C CNN
F 3 "" H 7450 3450 50  0000 C CNN
	1    7450 3450
	1    0    0    -1  
$EndComp
$Comp
L LED-RESCUE-helike D29
U 1 1 5737D616
P 7450 3800
F 0 "D29" H 7450 3900 50  0000 C CNN
F 1 "LED" H 7450 3700 50  0000 C CNN
F 2 "footprints:PLCC-2" H 7450 3800 50  0001 C CNN
F 3 "" H 7450 3800 50  0000 C CNN
	1    7450 3800
	1    0    0    -1  
$EndComp
$Comp
L LED-RESCUE-helike D30
U 1 1 5737D61C
P 7450 4150
F 0 "D30" H 7450 4250 50  0000 C CNN
F 1 "LED" H 7450 4050 50  0000 C CNN
F 2 "footprints:PLCC-2" H 7450 4150 50  0001 C CNN
F 3 "" H 7450 4150 50  0000 C CNN
	1    7450 4150
	1    0    0    -1  
$EndComp
$Comp
L LED-RESCUE-helike D31
U 1 1 5737D622
P 7450 4500
F 0 "D31" H 7450 4600 50  0000 C CNN
F 1 "LED" H 7450 4400 50  0000 C CNN
F 2 "footprints:PLCC-2" H 7450 4500 50  0001 C CNN
F 3 "" H 7450 4500 50  0000 C CNN
	1    7450 4500
	1    0    0    -1  
$EndComp
$Comp
L LED-RESCUE-helike D32
U 1 1 5737D628
P 7450 4850
F 0 "D32" H 7450 4950 50  0000 C CNN
F 1 "LED" H 7450 4750 50  0000 C CNN
F 2 "footprints:PLCC-2" H 7450 4850 50  0001 C CNN
F 3 "" H 7450 4850 50  0000 C CNN
	1    7450 4850
	1    0    0    -1  
$EndComp
$Comp
L LED-RESCUE-helike D33
U 1 1 5737D62E
P 7450 5200
F 0 "D33" H 7450 5300 50  0000 C CNN
F 1 "LED" H 7450 5100 50  0000 C CNN
F 2 "footprints:PLCC-2" H 7450 5200 50  0001 C CNN
F 3 "" H 7450 5200 50  0000 C CNN
	1    7450 5200
	1    0    0    -1  
$EndComp
$Comp
L LED-RESCUE-helike D34
U 1 1 5737D634
P 7450 5550
F 0 "D34" H 7450 5650 50  0000 C CNN
F 1 "LED" H 7450 5450 50  0000 C CNN
F 2 "footprints:PLCC-2" H 7450 5550 50  0001 C CNN
F 3 "" H 7450 5550 50  0000 C CNN
	1    7450 5550
	1    0    0    -1  
$EndComp
$Comp
L LED-RESCUE-helike D35
U 1 1 5737D63A
P 7450 5900
F 0 "D35" H 7450 6000 50  0000 C CNN
F 1 "LED" H 7450 5800 50  0000 C CNN
F 2 "footprints:PLCC-2" H 7450 5900 50  0001 C CNN
F 3 "" H 7450 5900 50  0000 C CNN
	1    7450 5900
	1    0    0    -1  
$EndComp
$Comp
L LED-RESCUE-helike D36
U 1 1 5737D640
P 7450 6250
F 0 "D36" H 7450 6350 50  0000 C CNN
F 1 "LED" H 7450 6150 50  0000 C CNN
F 2 "footprints:PLCC-2" H 7450 6250 50  0001 C CNN
F 3 "" H 7450 6250 50  0000 C CNN
	1    7450 6250
	1    0    0    -1  
$EndComp
Text Label 7050 2400 0    60   ~ 0
DC1
Text Label 7050 2750 0    60   ~ 0
DC2
Text Label 7050 3100 0    60   ~ 0
DC3
Text Label 7050 3450 0    60   ~ 0
DC4
Text Label 7050 3800 0    60   ~ 0
DC5
Text Label 7050 4150 0    60   ~ 0
DC6
Text Label 7050 4500 0    60   ~ 0
DC7
Text Label 7050 4850 0    60   ~ 0
DC8
Text Label 7050 5200 0    60   ~ 0
DC9
Text Label 7050 5550 0    60   ~ 0
DC10
Text Label 7050 5900 0    60   ~ 0
DC11
Text Label 7050 6250 0    60   ~ 0
DC12
$Comp
L LED-RESCUE-helike D37
U 1 1 5737D676
P 8350 2400
F 0 "D37" H 8350 2500 50  0000 C CNN
F 1 "LED" H 8350 2300 50  0000 C CNN
F 2 "footprints:PLCC-2" H 8350 2400 50  0001 C CNN
F 3 "" H 8350 2400 50  0000 C CNN
	1    8350 2400
	1    0    0    -1  
$EndComp
$Comp
L LED-RESCUE-helike D38
U 1 1 5737D67C
P 8350 2750
F 0 "D38" H 8350 2850 50  0000 C CNN
F 1 "LED" H 8350 2650 50  0000 C CNN
F 2 "footprints:PLCC-2" H 8350 2750 50  0001 C CNN
F 3 "" H 8350 2750 50  0000 C CNN
	1    8350 2750
	1    0    0    -1  
$EndComp
$Comp
L LED-RESCUE-helike D39
U 1 1 5737D682
P 8350 3100
F 0 "D39" H 8350 3200 50  0000 C CNN
F 1 "LED" H 8350 3000 50  0000 C CNN
F 2 "footprints:PLCC-2" H 8350 3100 50  0001 C CNN
F 3 "" H 8350 3100 50  0000 C CNN
	1    8350 3100
	1    0    0    -1  
$EndComp
$Comp
L LED-RESCUE-helike D40
U 1 1 5737D688
P 8350 3450
F 0 "D40" H 8350 3550 50  0000 C CNN
F 1 "LED" H 8350 3350 50  0000 C CNN
F 2 "footprints:PLCC-2" H 8350 3450 50  0001 C CNN
F 3 "" H 8350 3450 50  0000 C CNN
	1    8350 3450
	1    0    0    -1  
$EndComp
$Comp
L LED-RESCUE-helike D41
U 1 1 5737D68E
P 8350 3800
F 0 "D41" H 8350 3900 50  0000 C CNN
F 1 "LED" H 8350 3700 50  0000 C CNN
F 2 "footprints:PLCC-2" H 8350 3800 50  0001 C CNN
F 3 "" H 8350 3800 50  0000 C CNN
	1    8350 3800
	1    0    0    -1  
$EndComp
$Comp
L LED-RESCUE-helike D42
U 1 1 5737D694
P 8350 4150
F 0 "D42" H 8350 4250 50  0000 C CNN
F 1 "LED" H 8350 4050 50  0000 C CNN
F 2 "footprints:PLCC-2" H 8350 4150 50  0001 C CNN
F 3 "" H 8350 4150 50  0000 C CNN
	1    8350 4150
	1    0    0    -1  
$EndComp
$Comp
L LED-RESCUE-helike D43
U 1 1 5737D69A
P 8350 4500
F 0 "D43" H 8350 4600 50  0000 C CNN
F 1 "LED" H 8350 4400 50  0000 C CNN
F 2 "footprints:PLCC-2" H 8350 4500 50  0001 C CNN
F 3 "" H 8350 4500 50  0000 C CNN
	1    8350 4500
	1    0    0    -1  
$EndComp
$Comp
L LED-RESCUE-helike D44
U 1 1 5737D6A0
P 8350 4850
F 0 "D44" H 8350 4950 50  0000 C CNN
F 1 "LED" H 8350 4750 50  0000 C CNN
F 2 "footprints:PLCC-2" H 8350 4850 50  0001 C CNN
F 3 "" H 8350 4850 50  0000 C CNN
	1    8350 4850
	1    0    0    -1  
$EndComp
$Comp
L LED-RESCUE-helike D45
U 1 1 5737D6A6
P 8350 5200
F 0 "D45" H 8350 5300 50  0000 C CNN
F 1 "LED" H 8350 5100 50  0000 C CNN
F 2 "footprints:PLCC-2" H 8350 5200 50  0001 C CNN
F 3 "" H 8350 5200 50  0000 C CNN
	1    8350 5200
	1    0    0    -1  
$EndComp
$Comp
L LED-RESCUE-helike D46
U 1 1 5737D6AC
P 8350 5550
F 0 "D46" H 8350 5650 50  0000 C CNN
F 1 "LED" H 8350 5450 50  0000 C CNN
F 2 "footprints:PLCC-2" H 8350 5550 50  0001 C CNN
F 3 "" H 8350 5550 50  0000 C CNN
	1    8350 5550
	1    0    0    -1  
$EndComp
$Comp
L LED-RESCUE-helike D47
U 1 1 5737D6B2
P 8350 5900
F 0 "D47" H 8350 6000 50  0000 C CNN
F 1 "LED" H 8350 5800 50  0000 C CNN
F 2 "footprints:PLCC-2" H 8350 5900 50  0001 C CNN
F 3 "" H 8350 5900 50  0000 C CNN
	1    8350 5900
	1    0    0    -1  
$EndComp
$Comp
L LED-RESCUE-helike D48
U 1 1 5737D6B8
P 8350 6250
F 0 "D48" H 8350 6350 50  0000 C CNN
F 1 "LED" H 8350 6150 50  0000 C CNN
F 2 "footprints:PLCC-2" H 8350 6250 50  0001 C CNN
F 3 "" H 8350 6250 50  0000 C CNN
	1    8350 6250
	1    0    0    -1  
$EndComp
Text Label 7950 2400 0    60   ~ 0
DD1
Text Label 7950 2750 0    60   ~ 0
DD2
Text Label 7950 3100 0    60   ~ 0
DD3
Text Label 7950 3450 0    60   ~ 0
DD4
Text Label 7950 3800 0    60   ~ 0
DD5
Text Label 7950 4150 0    60   ~ 0
DD6
Text Label 7950 4500 0    60   ~ 0
DD7
Text Label 7950 4850 0    60   ~ 0
DD8
Text Label 7950 5200 0    60   ~ 0
DD9
Text Label 7950 5550 0    60   ~ 0
DD10
Text Label 7950 5900 0    60   ~ 0
DD11
Text Label 7950 6250 0    60   ~ 0
DD12
$Comp
L LED-RESCUE-helike D49
U 1 1 5737DC60
P 9200 2400
F 0 "D49" H 9200 2500 50  0000 C CNN
F 1 "LED" H 9200 2300 50  0000 C CNN
F 2 "footprints:PLCC-2" H 9200 2400 50  0001 C CNN
F 3 "" H 9200 2400 50  0000 C CNN
	1    9200 2400
	1    0    0    -1  
$EndComp
$Comp
L LED-RESCUE-helike D50
U 1 1 5737DC66
P 9200 2750
F 0 "D50" H 9200 2850 50  0000 C CNN
F 1 "LED" H 9200 2650 50  0000 C CNN
F 2 "footprints:PLCC-2" H 9200 2750 50  0001 C CNN
F 3 "" H 9200 2750 50  0000 C CNN
	1    9200 2750
	1    0    0    -1  
$EndComp
$Comp
L LED-RESCUE-helike D51
U 1 1 5737DC6C
P 9200 3100
F 0 "D51" H 9200 3200 50  0000 C CNN
F 1 "LED" H 9200 3000 50  0000 C CNN
F 2 "footprints:PLCC-2" H 9200 3100 50  0001 C CNN
F 3 "" H 9200 3100 50  0000 C CNN
	1    9200 3100
	1    0    0    -1  
$EndComp
$Comp
L LED-RESCUE-helike D52
U 1 1 5737DC72
P 9200 3450
F 0 "D52" H 9200 3550 50  0000 C CNN
F 1 "LED" H 9200 3350 50  0000 C CNN
F 2 "footprints:PLCC-2" H 9200 3450 50  0001 C CNN
F 3 "" H 9200 3450 50  0000 C CNN
	1    9200 3450
	1    0    0    -1  
$EndComp
$Comp
L LED-RESCUE-helike D53
U 1 1 5737DC78
P 9200 3800
F 0 "D53" H 9200 3900 50  0000 C CNN
F 1 "LED" H 9200 3700 50  0000 C CNN
F 2 "footprints:PLCC-2" H 9200 3800 50  0001 C CNN
F 3 "" H 9200 3800 50  0000 C CNN
	1    9200 3800
	1    0    0    -1  
$EndComp
$Comp
L LED-RESCUE-helike D54
U 1 1 5737DC7E
P 9200 4150
F 0 "D54" H 9200 4250 50  0000 C CNN
F 1 "LED" H 9200 4050 50  0000 C CNN
F 2 "footprints:PLCC-2" H 9200 4150 50  0001 C CNN
F 3 "" H 9200 4150 50  0000 C CNN
	1    9200 4150
	1    0    0    -1  
$EndComp
$Comp
L LED-RESCUE-helike D55
U 1 1 5737DC84
P 9200 4500
F 0 "D55" H 9200 4600 50  0000 C CNN
F 1 "LED" H 9200 4400 50  0000 C CNN
F 2 "footprints:PLCC-2" H 9200 4500 50  0001 C CNN
F 3 "" H 9200 4500 50  0000 C CNN
	1    9200 4500
	1    0    0    -1  
$EndComp
$Comp
L LED-RESCUE-helike D56
U 1 1 5737DC8A
P 9200 4850
F 0 "D56" H 9200 4950 50  0000 C CNN
F 1 "LED" H 9200 4750 50  0000 C CNN
F 2 "footprints:PLCC-2" H 9200 4850 50  0001 C CNN
F 3 "" H 9200 4850 50  0000 C CNN
	1    9200 4850
	1    0    0    -1  
$EndComp
$Comp
L LED-RESCUE-helike D57
U 1 1 5737DC90
P 9200 5200
F 0 "D57" H 9200 5300 50  0000 C CNN
F 1 "LED" H 9200 5100 50  0000 C CNN
F 2 "footprints:PLCC-2" H 9200 5200 50  0001 C CNN
F 3 "" H 9200 5200 50  0000 C CNN
	1    9200 5200
	1    0    0    -1  
$EndComp
$Comp
L LED-RESCUE-helike D58
U 1 1 5737DC96
P 9200 5550
F 0 "D58" H 9200 5650 50  0000 C CNN
F 1 "LED" H 9200 5450 50  0000 C CNN
F 2 "footprints:PLCC-2" H 9200 5550 50  0001 C CNN
F 3 "" H 9200 5550 50  0000 C CNN
	1    9200 5550
	1    0    0    -1  
$EndComp
$Comp
L LED-RESCUE-helike D59
U 1 1 5737DC9C
P 9200 5900
F 0 "D59" H 9200 6000 50  0000 C CNN
F 1 "LED" H 9200 5800 50  0000 C CNN
F 2 "footprints:PLCC-2" H 9200 5900 50  0001 C CNN
F 3 "" H 9200 5900 50  0000 C CNN
	1    9200 5900
	1    0    0    -1  
$EndComp
$Comp
L LED-RESCUE-helike D60
U 1 1 5737DCA2
P 9200 6250
F 0 "D60" H 9200 6350 50  0000 C CNN
F 1 "LED" H 9200 6150 50  0000 C CNN
F 2 "footprints:PLCC-2" H 9200 6250 50  0001 C CNN
F 3 "" H 9200 6250 50  0000 C CNN
	1    9200 6250
	1    0    0    -1  
$EndComp
Text Label 8800 2400 0    60   ~ 0
DE1
Text Label 8800 2750 0    60   ~ 0
DE2
Text Label 8800 3100 0    60   ~ 0
DE3
Text Label 8800 3450 0    60   ~ 0
DE4
Text Label 8800 3800 0    60   ~ 0
DE5
Text Label 8800 4150 0    60   ~ 0
DE6
Text Label 8800 4500 0    60   ~ 0
DE7
Text Label 8800 4850 0    60   ~ 0
DE8
Text Label 8800 5200 0    60   ~ 0
DE9
Text Label 8800 5550 0    60   ~ 0
DE10
Text Label 8800 5900 0    60   ~ 0
DE11
Text Label 8800 6250 0    60   ~ 0
DE12
$Comp
L LED-RESCUE-helike D61
U 1 1 5737DCD8
P 10100 2400
F 0 "D61" H 10100 2500 50  0000 C CNN
F 1 "LED" H 10100 2300 50  0000 C CNN
F 2 "footprints:PLCC-2" H 10100 2400 50  0001 C CNN
F 3 "" H 10100 2400 50  0000 C CNN
	1    10100 2400
	1    0    0    -1  
$EndComp
$Comp
L LED-RESCUE-helike D62
U 1 1 5737DCDE
P 10100 2750
F 0 "D62" H 10100 2850 50  0000 C CNN
F 1 "LED" H 10100 2650 50  0000 C CNN
F 2 "footprints:PLCC-2" H 10100 2750 50  0001 C CNN
F 3 "" H 10100 2750 50  0000 C CNN
	1    10100 2750
	1    0    0    -1  
$EndComp
$Comp
L LED-RESCUE-helike D63
U 1 1 5737DCE4
P 10100 3100
F 0 "D63" H 10100 3200 50  0000 C CNN
F 1 "LED" H 10100 3000 50  0000 C CNN
F 2 "footprints:PLCC-2" H 10100 3100 50  0001 C CNN
F 3 "" H 10100 3100 50  0000 C CNN
	1    10100 3100
	1    0    0    -1  
$EndComp
$Comp
L LED-RESCUE-helike D64
U 1 1 5737DCEA
P 10100 3450
F 0 "D64" H 10100 3550 50  0000 C CNN
F 1 "LED" H 10100 3350 50  0000 C CNN
F 2 "footprints:PLCC-2" H 10100 3450 50  0001 C CNN
F 3 "" H 10100 3450 50  0000 C CNN
	1    10100 3450
	1    0    0    -1  
$EndComp
$Comp
L LED-RESCUE-helike D65
U 1 1 5737DCF0
P 10100 3800
F 0 "D65" H 10100 3900 50  0000 C CNN
F 1 "LED" H 10100 3700 50  0000 C CNN
F 2 "footprints:PLCC-2" H 10100 3800 50  0001 C CNN
F 3 "" H 10100 3800 50  0000 C CNN
	1    10100 3800
	1    0    0    -1  
$EndComp
$Comp
L LED-RESCUE-helike D66
U 1 1 5737DCF6
P 10100 4150
F 0 "D66" H 10100 4250 50  0000 C CNN
F 1 "LED" H 10100 4050 50  0000 C CNN
F 2 "footprints:PLCC-2" H 10100 4150 50  0001 C CNN
F 3 "" H 10100 4150 50  0000 C CNN
	1    10100 4150
	1    0    0    -1  
$EndComp
$Comp
L LED-RESCUE-helike D67
U 1 1 5737DCFC
P 10100 4500
F 0 "D67" H 10100 4600 50  0000 C CNN
F 1 "LED" H 10100 4400 50  0000 C CNN
F 2 "footprints:PLCC-2" H 10100 4500 50  0001 C CNN
F 3 "" H 10100 4500 50  0000 C CNN
	1    10100 4500
	1    0    0    -1  
$EndComp
$Comp
L LED-RESCUE-helike D68
U 1 1 5737DD02
P 10100 4850
F 0 "D68" H 10100 4950 50  0000 C CNN
F 1 "LED" H 10100 4750 50  0000 C CNN
F 2 "footprints:PLCC-2" H 10100 4850 50  0001 C CNN
F 3 "" H 10100 4850 50  0000 C CNN
	1    10100 4850
	1    0    0    -1  
$EndComp
$Comp
L LED-RESCUE-helike D69
U 1 1 5737DD08
P 10100 5200
F 0 "D69" H 10100 5300 50  0000 C CNN
F 1 "LED" H 10100 5100 50  0000 C CNN
F 2 "footprints:PLCC-2" H 10100 5200 50  0001 C CNN
F 3 "" H 10100 5200 50  0000 C CNN
	1    10100 5200
	1    0    0    -1  
$EndComp
$Comp
L LED-RESCUE-helike D70
U 1 1 5737DD0E
P 10100 5550
F 0 "D70" H 10100 5650 50  0000 C CNN
F 1 "LED" H 10100 5450 50  0000 C CNN
F 2 "footprints:PLCC-2" H 10100 5550 50  0001 C CNN
F 3 "" H 10100 5550 50  0000 C CNN
	1    10100 5550
	1    0    0    -1  
$EndComp
$Comp
L LED-RESCUE-helike D71
U 1 1 5737DD14
P 10100 5900
F 0 "D71" H 10100 6000 50  0000 C CNN
F 1 "LED" H 10100 5800 50  0000 C CNN
F 2 "footprints:PLCC-2" H 10100 5900 50  0001 C CNN
F 3 "" H 10100 5900 50  0000 C CNN
	1    10100 5900
	1    0    0    -1  
$EndComp
$Comp
L LED-RESCUE-helike D72
U 1 1 5737DD1A
P 10100 6250
F 0 "D72" H 10100 6350 50  0000 C CNN
F 1 "LED" H 10100 6150 50  0000 C CNN
F 2 "footprints:PLCC-2" H 10100 6250 50  0001 C CNN
F 3 "" H 10100 6250 50  0000 C CNN
	1    10100 6250
	1    0    0    -1  
$EndComp
Text Label 9700 2400 0    60   ~ 0
DF1
Text Label 9700 2750 0    60   ~ 0
DF2
Text Label 9700 3100 0    60   ~ 0
DF3
Text Label 9700 3450 0    60   ~ 0
DF4
Text Label 9700 3800 0    60   ~ 0
DF5
Text Label 9700 4150 0    60   ~ 0
DF6
Text Label 9700 4500 0    60   ~ 0
DF7
Text Label 9700 4850 0    60   ~ 0
DF8
Text Label 9700 5200 0    60   ~ 0
DF9
Text Label 9700 5550 0    60   ~ 0
DF10
Text Label 9700 5900 0    60   ~ 0
DF11
Text Label 9700 6250 0    60   ~ 0
DF12
$Comp
L LED-RESCUE-helike D73
U 1 1 5737DD50
P 11000 2400
F 0 "D73" H 11000 2500 50  0000 C CNN
F 1 "LED" H 11000 2300 50  0000 C CNN
F 2 "footprints:PLCC-2" H 11000 2400 50  0001 C CNN
F 3 "" H 11000 2400 50  0000 C CNN
	1    11000 2400
	1    0    0    -1  
$EndComp
$Comp
L LED-RESCUE-helike D74
U 1 1 5737DD56
P 11000 2750
F 0 "D74" H 11000 2850 50  0000 C CNN
F 1 "LED" H 11000 2650 50  0000 C CNN
F 2 "footprints:PLCC-2" H 11000 2750 50  0001 C CNN
F 3 "" H 11000 2750 50  0000 C CNN
	1    11000 2750
	1    0    0    -1  
$EndComp
$Comp
L LED-RESCUE-helike D75
U 1 1 5737DD5C
P 11000 3100
F 0 "D75" H 11000 3200 50  0000 C CNN
F 1 "LED" H 11000 3000 50  0000 C CNN
F 2 "footprints:PLCC-2" H 11000 3100 50  0001 C CNN
F 3 "" H 11000 3100 50  0000 C CNN
	1    11000 3100
	1    0    0    -1  
$EndComp
$Comp
L LED-RESCUE-helike D76
U 1 1 5737DD62
P 11000 3450
F 0 "D76" H 11000 3550 50  0000 C CNN
F 1 "LED" H 11000 3350 50  0000 C CNN
F 2 "footprints:PLCC-2" H 11000 3450 50  0001 C CNN
F 3 "" H 11000 3450 50  0000 C CNN
	1    11000 3450
	1    0    0    -1  
$EndComp
$Comp
L LED-RESCUE-helike D77
U 1 1 5737DD68
P 11000 3800
F 0 "D77" H 11000 3900 50  0000 C CNN
F 1 "LED" H 11000 3700 50  0000 C CNN
F 2 "footprints:PLCC-2" H 11000 3800 50  0001 C CNN
F 3 "" H 11000 3800 50  0000 C CNN
	1    11000 3800
	1    0    0    -1  
$EndComp
$Comp
L LED-RESCUE-helike D78
U 1 1 5737DD6E
P 11000 4150
F 0 "D78" H 11000 4250 50  0000 C CNN
F 1 "LED" H 11000 4050 50  0000 C CNN
F 2 "footprints:PLCC-2" H 11000 4150 50  0001 C CNN
F 3 "" H 11000 4150 50  0000 C CNN
	1    11000 4150
	1    0    0    -1  
$EndComp
$Comp
L LED-RESCUE-helike D79
U 1 1 5737DD74
P 11000 4500
F 0 "D79" H 11000 4600 50  0000 C CNN
F 1 "LED" H 11000 4400 50  0000 C CNN
F 2 "footprints:PLCC-2" H 11000 4500 50  0001 C CNN
F 3 "" H 11000 4500 50  0000 C CNN
	1    11000 4500
	1    0    0    -1  
$EndComp
$Comp
L LED-RESCUE-helike D80
U 1 1 5737DD7A
P 11000 4850
F 0 "D80" H 11000 4950 50  0000 C CNN
F 1 "LED" H 11000 4750 50  0000 C CNN
F 2 "footprints:PLCC-2" H 11000 4850 50  0001 C CNN
F 3 "" H 11000 4850 50  0000 C CNN
	1    11000 4850
	1    0    0    -1  
$EndComp
$Comp
L LED-RESCUE-helike D81
U 1 1 5737DD80
P 11000 5200
F 0 "D81" H 11000 5300 50  0000 C CNN
F 1 "LED" H 11000 5100 50  0000 C CNN
F 2 "footprints:PLCC-2" H 11000 5200 50  0001 C CNN
F 3 "" H 11000 5200 50  0000 C CNN
	1    11000 5200
	1    0    0    -1  
$EndComp
$Comp
L LED-RESCUE-helike D82
U 1 1 5737DD86
P 11000 5550
F 0 "D82" H 11000 5650 50  0000 C CNN
F 1 "LED" H 11000 5450 50  0000 C CNN
F 2 "footprints:PLCC-2" H 11000 5550 50  0001 C CNN
F 3 "" H 11000 5550 50  0000 C CNN
	1    11000 5550
	1    0    0    -1  
$EndComp
$Comp
L LED-RESCUE-helike D83
U 1 1 5737DD8C
P 11000 5900
F 0 "D83" H 11000 6000 50  0000 C CNN
F 1 "LED" H 11000 5800 50  0000 C CNN
F 2 "footprints:PLCC-2" H 11000 5900 50  0001 C CNN
F 3 "" H 11000 5900 50  0000 C CNN
	1    11000 5900
	1    0    0    -1  
$EndComp
$Comp
L LED-RESCUE-helike D84
U 1 1 5737DD92
P 11000 6250
F 0 "D84" H 11000 6350 50  0000 C CNN
F 1 "LED" H 11000 6150 50  0000 C CNN
F 2 "footprints:PLCC-2" H 11000 6250 50  0001 C CNN
F 3 "" H 11000 6250 50  0000 C CNN
	1    11000 6250
	1    0    0    -1  
$EndComp
Text Label 10600 2400 0    60   ~ 0
DG1
Text Label 10600 2750 0    60   ~ 0
DG2
Text Label 10600 3100 0    60   ~ 0
DG3
Text Label 10600 3450 0    60   ~ 0
DG4
Text Label 10600 3800 0    60   ~ 0
DG5
Text Label 10600 4150 0    60   ~ 0
DG6
Text Label 10600 4500 0    60   ~ 0
DG7
Text Label 10600 4850 0    60   ~ 0
DG8
Text Label 10600 5200 0    60   ~ 0
DG9
Text Label 10600 5550 0    60   ~ 0
DG10
Text Label 10600 5900 0    60   ~ 0
DG11
Text Label 10600 6250 0    60   ~ 0
DG12
$Comp
L LED-RESCUE-helike D85
U 1 1 5737DDC8
P 11900 2400
F 0 "D85" H 11900 2500 50  0000 C CNN
F 1 "LED" H 11900 2300 50  0000 C CNN
F 2 "footprints:PLCC-2" H 11900 2400 50  0001 C CNN
F 3 "" H 11900 2400 50  0000 C CNN
	1    11900 2400
	1    0    0    -1  
$EndComp
$Comp
L LED-RESCUE-helike D86
U 1 1 5737DDCE
P 11900 2750
F 0 "D86" H 11900 2850 50  0000 C CNN
F 1 "LED" H 11900 2650 50  0000 C CNN
F 2 "footprints:PLCC-2" H 11900 2750 50  0001 C CNN
F 3 "" H 11900 2750 50  0000 C CNN
	1    11900 2750
	1    0    0    -1  
$EndComp
$Comp
L LED-RESCUE-helike D87
U 1 1 5737DDD4
P 11900 3100
F 0 "D87" H 11900 3200 50  0000 C CNN
F 1 "LED" H 11900 3000 50  0000 C CNN
F 2 "footprints:PLCC-2" H 11900 3100 50  0001 C CNN
F 3 "" H 11900 3100 50  0000 C CNN
	1    11900 3100
	1    0    0    -1  
$EndComp
$Comp
L LED-RESCUE-helike D88
U 1 1 5737DDDA
P 11900 3450
F 0 "D88" H 11900 3550 50  0000 C CNN
F 1 "LED" H 11900 3350 50  0000 C CNN
F 2 "footprints:PLCC-2" H 11900 3450 50  0001 C CNN
F 3 "" H 11900 3450 50  0000 C CNN
	1    11900 3450
	1    0    0    -1  
$EndComp
$Comp
L LED-RESCUE-helike D89
U 1 1 5737DDE0
P 11900 3800
F 0 "D89" H 11900 3900 50  0000 C CNN
F 1 "LED" H 11900 3700 50  0000 C CNN
F 2 "footprints:PLCC-2" H 11900 3800 50  0001 C CNN
F 3 "" H 11900 3800 50  0000 C CNN
	1    11900 3800
	1    0    0    -1  
$EndComp
$Comp
L LED-RESCUE-helike D90
U 1 1 5737DDE6
P 11900 4150
F 0 "D90" H 11900 4250 50  0000 C CNN
F 1 "LED" H 11900 4050 50  0000 C CNN
F 2 "footprints:PLCC-2" H 11900 4150 50  0001 C CNN
F 3 "" H 11900 4150 50  0000 C CNN
	1    11900 4150
	1    0    0    -1  
$EndComp
$Comp
L LED-RESCUE-helike D91
U 1 1 5737DDEC
P 11900 4500
F 0 "D91" H 11900 4600 50  0000 C CNN
F 1 "LED" H 11900 4400 50  0000 C CNN
F 2 "footprints:PLCC-2" H 11900 4500 50  0001 C CNN
F 3 "" H 11900 4500 50  0000 C CNN
	1    11900 4500
	1    0    0    -1  
$EndComp
$Comp
L LED-RESCUE-helike D92
U 1 1 5737DDF2
P 11900 4850
F 0 "D92" H 11900 4950 50  0000 C CNN
F 1 "LED" H 11900 4750 50  0000 C CNN
F 2 "footprints:PLCC-2" H 11900 4850 50  0001 C CNN
F 3 "" H 11900 4850 50  0000 C CNN
	1    11900 4850
	1    0    0    -1  
$EndComp
$Comp
L LED-RESCUE-helike D93
U 1 1 5737DDF8
P 11900 5200
F 0 "D93" H 11900 5300 50  0000 C CNN
F 1 "LED" H 11900 5100 50  0000 C CNN
F 2 "footprints:PLCC-2" H 11900 5200 50  0001 C CNN
F 3 "" H 11900 5200 50  0000 C CNN
	1    11900 5200
	1    0    0    -1  
$EndComp
$Comp
L LED-RESCUE-helike D94
U 1 1 5737DDFE
P 11900 5550
F 0 "D94" H 11900 5650 50  0000 C CNN
F 1 "LED" H 11900 5450 50  0000 C CNN
F 2 "footprints:PLCC-2" H 11900 5550 50  0001 C CNN
F 3 "" H 11900 5550 50  0000 C CNN
	1    11900 5550
	1    0    0    -1  
$EndComp
$Comp
L LED-RESCUE-helike D95
U 1 1 5737DE04
P 11900 5900
F 0 "D95" H 11900 6000 50  0000 C CNN
F 1 "LED" H 11900 5800 50  0000 C CNN
F 2 "footprints:PLCC-2" H 11900 5900 50  0001 C CNN
F 3 "" H 11900 5900 50  0000 C CNN
	1    11900 5900
	1    0    0    -1  
$EndComp
$Comp
L LED-RESCUE-helike D96
U 1 1 5737DE0A
P 11900 6250
F 0 "D96" H 11900 6350 50  0000 C CNN
F 1 "LED" H 11900 6150 50  0000 C CNN
F 2 "footprints:PLCC-2" H 11900 6250 50  0001 C CNN
F 3 "" H 11900 6250 50  0000 C CNN
	1    11900 6250
	1    0    0    -1  
$EndComp
Text Label 11500 2400 0    60   ~ 0
DH1
Text Label 11500 2750 0    60   ~ 0
DH2
Text Label 11500 3100 0    60   ~ 0
DH3
Text Label 11500 3450 0    60   ~ 0
DH4
Text Label 11500 3800 0    60   ~ 0
DH5
Text Label 11500 4150 0    60   ~ 0
DH6
Text Label 11500 4500 0    60   ~ 0
DH7
Text Label 11500 4850 0    60   ~ 0
DH8
Text Label 11500 5200 0    60   ~ 0
DH9
Text Label 11500 5550 0    60   ~ 0
DH10
Text Label 11500 5900 0    60   ~ 0
DH11
Text Label 11500 6250 0    60   ~ 0
DH12
Wire Wire Line
	5900 6250 5850 6250
Wire Wire Line
	5900 2000 5900 6250
Wire Wire Line
	5850 2400 5900 2400
Connection ~ 5900 2400
Wire Wire Line
	5900 2750 5850 2750
Connection ~ 5900 2750
Wire Wire Line
	5900 3100 5850 3100
Connection ~ 5900 3100
Wire Wire Line
	5850 3450 5900 3450
Connection ~ 5900 3450
Wire Wire Line
	5850 3800 5900 3800
Connection ~ 5900 3800
Wire Wire Line
	5850 4150 5900 4150
Connection ~ 5900 4150
Wire Wire Line
	5850 4500 5900 4500
Connection ~ 5900 4500
Wire Wire Line
	5850 4850 5900 4850
Connection ~ 5900 4850
Wire Wire Line
	5850 5200 5900 5200
Connection ~ 5900 5200
Wire Wire Line
	5850 5550 5900 5550
Connection ~ 5900 5550
Wire Wire Line
	5850 5900 5900 5900
Connection ~ 5900 5900
Wire Wire Line
	5450 2400 5250 2400
Wire Wire Line
	5450 2750 5250 2750
Wire Wire Line
	5450 3100 5250 3100
Wire Wire Line
	5450 3450 5250 3450
Wire Wire Line
	5450 3800 5250 3800
Wire Wire Line
	5450 4150 5250 4150
Wire Wire Line
	5450 4500 5250 4500
Wire Wire Line
	5450 4850 5250 4850
Wire Wire Line
	5450 5200 5250 5200
Wire Wire Line
	5450 5550 5250 5550
Wire Wire Line
	5450 5900 5250 5900
Wire Wire Line
	5450 6250 5250 6250
Wire Wire Line
	6800 6250 6750 6250
Wire Wire Line
	6800 2150 6800 6250
Wire Wire Line
	6750 2400 6800 2400
Connection ~ 6800 2400
Wire Wire Line
	6800 2750 6750 2750
Connection ~ 6800 2750
Wire Wire Line
	6800 3100 6750 3100
Connection ~ 6800 3100
Wire Wire Line
	6750 3450 6800 3450
Connection ~ 6800 3450
Wire Wire Line
	6750 3800 6800 3800
Connection ~ 6800 3800
Wire Wire Line
	6750 4150 6800 4150
Connection ~ 6800 4150
Wire Wire Line
	6750 4500 6800 4500
Connection ~ 6800 4500
Wire Wire Line
	6750 4850 6800 4850
Connection ~ 6800 4850
Wire Wire Line
	6750 5200 6800 5200
Connection ~ 6800 5200
Wire Wire Line
	6750 5550 6800 5550
Connection ~ 6800 5550
Wire Wire Line
	6750 5900 6800 5900
Connection ~ 6800 5900
Wire Wire Line
	6350 2400 6150 2400
Wire Wire Line
	6350 2750 6150 2750
Wire Wire Line
	6350 3100 6150 3100
Wire Wire Line
	6350 3450 6150 3450
Wire Wire Line
	6350 3800 6150 3800
Wire Wire Line
	6350 4150 6150 4150
Wire Wire Line
	6350 4500 6150 4500
Wire Wire Line
	6350 4850 6150 4850
Wire Wire Line
	6350 5200 6150 5200
Wire Wire Line
	6350 5550 6150 5550
Wire Wire Line
	6350 5900 6150 5900
Wire Wire Line
	6350 6250 6150 6250
Wire Wire Line
	7700 6250 7650 6250
Wire Wire Line
	7700 2150 7700 6250
Wire Wire Line
	7650 2400 7700 2400
Connection ~ 7700 2400
Wire Wire Line
	7700 2750 7650 2750
Connection ~ 7700 2750
Wire Wire Line
	7700 3100 7650 3100
Connection ~ 7700 3100
Wire Wire Line
	7650 3450 7700 3450
Connection ~ 7700 3450
Wire Wire Line
	7650 3800 7700 3800
Connection ~ 7700 3800
Wire Wire Line
	7650 4150 7700 4150
Connection ~ 7700 4150
Wire Wire Line
	7650 4500 7700 4500
Connection ~ 7700 4500
Wire Wire Line
	7650 4850 7700 4850
Connection ~ 7700 4850
Wire Wire Line
	7650 5200 7700 5200
Connection ~ 7700 5200
Wire Wire Line
	7650 5550 7700 5550
Connection ~ 7700 5550
Wire Wire Line
	7650 5900 7700 5900
Connection ~ 7700 5900
Wire Wire Line
	7250 2400 7050 2400
Wire Wire Line
	7250 2750 7050 2750
Wire Wire Line
	7250 3100 7050 3100
Wire Wire Line
	7250 3450 7050 3450
Wire Wire Line
	7250 3800 7050 3800
Wire Wire Line
	7250 4150 7050 4150
Wire Wire Line
	7250 4500 7050 4500
Wire Wire Line
	7250 4850 7050 4850
Wire Wire Line
	7250 5200 7050 5200
Wire Wire Line
	7250 5550 7050 5550
Wire Wire Line
	7250 5900 7050 5900
Wire Wire Line
	7250 6250 7050 6250
Wire Wire Line
	8600 6250 8550 6250
Wire Wire Line
	8600 2150 8600 6250
Wire Wire Line
	8550 2400 8600 2400
Connection ~ 8600 2400
Wire Wire Line
	8600 2750 8550 2750
Connection ~ 8600 2750
Wire Wire Line
	8600 3100 8550 3100
Connection ~ 8600 3100
Wire Wire Line
	8550 3450 8600 3450
Connection ~ 8600 3450
Wire Wire Line
	8550 3800 8600 3800
Connection ~ 8600 3800
Wire Wire Line
	8550 4150 8600 4150
Connection ~ 8600 4150
Wire Wire Line
	8550 4500 8600 4500
Connection ~ 8600 4500
Wire Wire Line
	8550 4850 8600 4850
Connection ~ 8600 4850
Wire Wire Line
	8550 5200 8600 5200
Connection ~ 8600 5200
Wire Wire Line
	8550 5550 8600 5550
Connection ~ 8600 5550
Wire Wire Line
	8550 5900 8600 5900
Connection ~ 8600 5900
Wire Wire Line
	8150 2400 7950 2400
Wire Wire Line
	8150 2750 7950 2750
Wire Wire Line
	8150 3100 7950 3100
Wire Wire Line
	8150 3450 7950 3450
Wire Wire Line
	8150 3800 7950 3800
Wire Wire Line
	8150 4150 7950 4150
Wire Wire Line
	8150 4500 7950 4500
Wire Wire Line
	8150 4850 7950 4850
Wire Wire Line
	8150 5200 7950 5200
Wire Wire Line
	8150 5550 7950 5550
Wire Wire Line
	8150 5900 7950 5900
Wire Wire Line
	8150 6250 7950 6250
Wire Wire Line
	9450 6250 9400 6250
Wire Wire Line
	9450 2150 9450 6250
Wire Wire Line
	9400 2400 9450 2400
Connection ~ 9450 2400
Wire Wire Line
	9450 2750 9400 2750
Connection ~ 9450 2750
Wire Wire Line
	9450 3100 9400 3100
Connection ~ 9450 3100
Wire Wire Line
	9400 3450 9450 3450
Connection ~ 9450 3450
Wire Wire Line
	9400 3800 9450 3800
Connection ~ 9450 3800
Wire Wire Line
	9400 4150 9450 4150
Connection ~ 9450 4150
Wire Wire Line
	9400 4500 9450 4500
Connection ~ 9450 4500
Wire Wire Line
	9400 4850 9450 4850
Connection ~ 9450 4850
Wire Wire Line
	9400 5200 9450 5200
Connection ~ 9450 5200
Wire Wire Line
	9400 5550 9450 5550
Connection ~ 9450 5550
Wire Wire Line
	9400 5900 9450 5900
Connection ~ 9450 5900
Wire Wire Line
	9000 2400 8800 2400
Wire Wire Line
	9000 2750 8800 2750
Wire Wire Line
	9000 3100 8800 3100
Wire Wire Line
	9000 3450 8800 3450
Wire Wire Line
	9000 3800 8800 3800
Wire Wire Line
	9000 4150 8800 4150
Wire Wire Line
	9000 4500 8800 4500
Wire Wire Line
	9000 4850 8800 4850
Wire Wire Line
	9000 5200 8800 5200
Wire Wire Line
	9000 5550 8800 5550
Wire Wire Line
	9000 5900 8800 5900
Wire Wire Line
	9000 6250 8800 6250
Wire Wire Line
	10350 6250 10300 6250
Wire Wire Line
	10350 2150 10350 6250
Wire Wire Line
	10300 2400 10350 2400
Connection ~ 10350 2400
Wire Wire Line
	10350 2750 10300 2750
Connection ~ 10350 2750
Wire Wire Line
	10350 3100 10300 3100
Connection ~ 10350 3100
Wire Wire Line
	10300 3450 10350 3450
Connection ~ 10350 3450
Wire Wire Line
	10300 3800 10350 3800
Connection ~ 10350 3800
Wire Wire Line
	10300 4150 10350 4150
Connection ~ 10350 4150
Wire Wire Line
	10300 4500 10350 4500
Connection ~ 10350 4500
Wire Wire Line
	10300 4850 10350 4850
Connection ~ 10350 4850
Wire Wire Line
	10300 5200 10350 5200
Connection ~ 10350 5200
Wire Wire Line
	10300 5550 10350 5550
Connection ~ 10350 5550
Wire Wire Line
	10300 5900 10350 5900
Connection ~ 10350 5900
Wire Wire Line
	9900 2400 9700 2400
Wire Wire Line
	9900 2750 9700 2750
Wire Wire Line
	9900 3100 9700 3100
Wire Wire Line
	9900 3450 9700 3450
Wire Wire Line
	9900 3800 9700 3800
Wire Wire Line
	9900 4150 9700 4150
Wire Wire Line
	9900 4500 9700 4500
Wire Wire Line
	9900 4850 9700 4850
Wire Wire Line
	9900 5200 9700 5200
Wire Wire Line
	9900 5550 9700 5550
Wire Wire Line
	9900 5900 9700 5900
Wire Wire Line
	9900 6250 9700 6250
Wire Wire Line
	11250 6250 11200 6250
Wire Wire Line
	11250 2150 11250 6250
Wire Wire Line
	11200 2400 11250 2400
Connection ~ 11250 2400
Wire Wire Line
	11250 2750 11200 2750
Connection ~ 11250 2750
Wire Wire Line
	11250 3100 11200 3100
Connection ~ 11250 3100
Wire Wire Line
	11200 3450 11250 3450
Connection ~ 11250 3450
Wire Wire Line
	11200 3800 11250 3800
Connection ~ 11250 3800
Wire Wire Line
	11200 4150 11250 4150
Connection ~ 11250 4150
Wire Wire Line
	11200 4500 11250 4500
Connection ~ 11250 4500
Wire Wire Line
	11200 4850 11250 4850
Connection ~ 11250 4850
Wire Wire Line
	11200 5200 11250 5200
Connection ~ 11250 5200
Wire Wire Line
	11200 5550 11250 5550
Connection ~ 11250 5550
Wire Wire Line
	11200 5900 11250 5900
Connection ~ 11250 5900
Wire Wire Line
	10800 2400 10600 2400
Wire Wire Line
	10800 2750 10600 2750
Wire Wire Line
	10800 3100 10600 3100
Wire Wire Line
	10800 3450 10600 3450
Wire Wire Line
	10800 3800 10600 3800
Wire Wire Line
	10800 4150 10600 4150
Wire Wire Line
	10800 4500 10600 4500
Wire Wire Line
	10800 4850 10600 4850
Wire Wire Line
	10800 5200 10600 5200
Wire Wire Line
	10800 5550 10600 5550
Wire Wire Line
	10800 5900 10600 5900
Wire Wire Line
	10800 6250 10600 6250
Wire Wire Line
	12150 6250 12100 6250
Wire Wire Line
	12150 2150 12150 6250
Wire Wire Line
	12100 2400 12150 2400
Connection ~ 12150 2400
Wire Wire Line
	12150 2750 12100 2750
Connection ~ 12150 2750
Wire Wire Line
	12150 3100 12100 3100
Connection ~ 12150 3100
Wire Wire Line
	12100 3450 12150 3450
Connection ~ 12150 3450
Wire Wire Line
	12100 3800 12150 3800
Connection ~ 12150 3800
Wire Wire Line
	12100 4150 12150 4150
Connection ~ 12150 4150
Wire Wire Line
	12100 4500 12150 4500
Connection ~ 12150 4500
Wire Wire Line
	12100 4850 12150 4850
Connection ~ 12150 4850
Wire Wire Line
	12100 5200 12150 5200
Connection ~ 12150 5200
Wire Wire Line
	12100 5550 12150 5550
Connection ~ 12150 5550
Wire Wire Line
	12100 5900 12150 5900
Connection ~ 12150 5900
Wire Wire Line
	11700 2400 11500 2400
Wire Wire Line
	11700 2750 11500 2750
Wire Wire Line
	11700 3100 11500 3100
Wire Wire Line
	11700 3450 11500 3450
Wire Wire Line
	11700 3800 11500 3800
Wire Wire Line
	11700 4150 11500 4150
Wire Wire Line
	11700 4500 11500 4500
Wire Wire Line
	11700 4850 11500 4850
Wire Wire Line
	11700 5200 11500 5200
Wire Wire Line
	11700 5550 11500 5550
Wire Wire Line
	11700 5900 11500 5900
Wire Wire Line
	11700 6250 11500 6250
Wire Wire Line
	5900 2150 12150 2150
Connection ~ 6800 2150
Connection ~ 7700 2150
Connection ~ 8600 2150
Connection ~ 9450 2150
Connection ~ 10350 2150
Connection ~ 11250 2150
Connection ~ 5900 2150
$Comp
L V_LED #PWR01
U 1 1 5738055F
P 5900 2000
F 0 "#PWR01" H 5900 1850 50  0001 C CNN
F 1 "V_LED" H 5900 2150 50  0000 C CNN
F 2 "" H 5900 2000 50  0000 C CNN
F 3 "" H 5900 2000 50  0000 C CNN
	1    5900 2000
	1    0    0    -1  
$EndComp
Text Notes 5600 2000 0    60   ~ 0
A
Text Notes 6500 2000 0    60   ~ 0
B
Text Notes 7350 2000 0    60   ~ 0
C
Text Notes 8250 2000 0    60   ~ 0
D
Text Notes 9150 2000 0    60   ~ 0
E
Text Notes 10000 2000 0    60   ~ 0
F
Text Notes 10900 2000 0    60   ~ 0
G
Text Notes 11800 2000 0    60   ~ 0
H
Text Notes 8800 1700 0    60   ~ 0
96 LED Array
Text Notes 11900 10450 0    79   ~ 0
Copyright (c) 2018 Suzanna Katz, Peter Backeris, Chris Merck\nAll Rights Reserved\nProprietary Information  -- Not for Release
$Comp
L Conn_01x16 P1
U 1 1 589C3C4D
P 1650 2250
F 0 "P1" H 1650 3100 50  0000 C CNN
F 1 "CONN_01X16" V 1750 2250 50  0000 C CNN
F 2 "Socket_Strips:Socket_Strip_Straight_2x08_Pitch2.54mm" H 1650 2250 50  0000 C CNN
F 3 "" H 1650 2250 50  0000 C CNN
	1    1650 2250
	-1   0    0    1   
$EndComp
Wire Wire Line
	1850 1450 2200 1450
Wire Wire Line
	1850 1550 2200 1550
Wire Wire Line
	1850 1650 2200 1650
Wire Wire Line
	1850 1750 2200 1750
Wire Wire Line
	1850 1850 2200 1850
Wire Wire Line
	1850 1950 2200 1950
Wire Wire Line
	1850 2050 2200 2050
Wire Wire Line
	1850 2150 2200 2150
Wire Wire Line
	1850 2250 2200 2250
Wire Wire Line
	1850 2350 2200 2350
Wire Wire Line
	1850 2450 2200 2450
Wire Wire Line
	1850 2550 2200 2550
Wire Wire Line
	1850 2650 2200 2650
Wire Wire Line
	1850 2850 2200 2850
Wire Wire Line
	1850 2950 2200 2950
Text Label 2200 2150 2    60   ~ 0
DA1
Text Label 2200 2050 2    60   ~ 0
DB1
Text Label 2200 1950 2    60   ~ 0
DC1
Text Label 2200 1850 2    60   ~ 0
DD1
Text Label 2200 1750 2    60   ~ 0
DE1
Text Label 2200 1650 2    60   ~ 0
DF1
Text Label 2200 1550 2    60   ~ 0
DG1
Text Label 2200 1450 2    60   ~ 0
DH1
Text Label 2200 2250 2    60   ~ 0
DH2
Text Label 2200 2350 2    60   ~ 0
DG2
Text Label 2200 2450 2    60   ~ 0
DF2
Text Label 2200 2550 2    60   ~ 0
DE2
Text Label 2200 2650 2    60   ~ 0
DD2
Wire Wire Line
	1850 2750 2200 2750
Text Label 2200 2750 2    60   ~ 0
DC2
Text Label 2200 2850 2    60   ~ 0
DB2
Text Label 2200 2950 2    60   ~ 0
DA2
$Comp
L Conn_01x16 P2
U 1 1 589E196E
P 2700 2200
F 0 "P2" H 2700 3050 50  0000 C CNN
F 1 "CONN_01X16" V 2800 2200 50  0000 C CNN
F 2 "Socket_Strips:Socket_Strip_Straight_2x08_Pitch2.54mm" H 2700 2200 50  0000 C CNN
F 3 "" H 2700 2200 50  0000 C CNN
	1    2700 2200
	-1   0    0    1   
$EndComp
Wire Wire Line
	2900 1400 3250 1400
Wire Wire Line
	2900 1500 3250 1500
Wire Wire Line
	2900 1600 3250 1600
Wire Wire Line
	2900 1700 3250 1700
Wire Wire Line
	2900 1800 3250 1800
Wire Wire Line
	2900 1900 3250 1900
Wire Wire Line
	2900 2000 3250 2000
Wire Wire Line
	2900 2100 3250 2100
Wire Wire Line
	2900 2200 3250 2200
Wire Wire Line
	2900 2300 3250 2300
Wire Wire Line
	2900 2400 3250 2400
Wire Wire Line
	2900 2500 3250 2500
Wire Wire Line
	2900 2600 3250 2600
Wire Wire Line
	2900 2800 3250 2800
Wire Wire Line
	2900 2900 3250 2900
Text Label 3250 2100 2    60   ~ 0
DA3
Text Label 3250 2000 2    60   ~ 0
DB3
Text Label 3250 1900 2    60   ~ 0
DC3
Text Label 3250 1800 2    60   ~ 0
DD3
Text Label 3250 1700 2    60   ~ 0
DE3
Text Label 3250 1600 2    60   ~ 0
DF3
Text Label 3250 1500 2    60   ~ 0
DG3
Text Label 3250 1400 2    60   ~ 0
DH3
Text Label 3250 2200 2    60   ~ 0
DH4
Text Label 3250 2300 2    60   ~ 0
DG4
Text Label 3250 2400 2    60   ~ 0
DF4
Text Label 3250 2500 2    60   ~ 0
DE4
Text Label 3250 2600 2    60   ~ 0
DD4
Wire Wire Line
	2900 2700 3250 2700
Text Label 3250 2700 2    60   ~ 0
DC4
Text Label 3250 2800 2    60   ~ 0
DB4
Text Label 3250 2900 2    60   ~ 0
DA4
$Comp
L Conn_01x16 P3
U 1 1 589E1ABE
P 1650 4550
F 0 "P3" H 1650 5400 50  0000 C CNN
F 1 "CONN_01X16" V 1750 4550 50  0000 C CNN
F 2 "Socket_Strips:Socket_Strip_Straight_2x08_Pitch2.54mm" H 1650 4550 50  0000 C CNN
F 3 "" H 1650 4550 50  0000 C CNN
	1    1650 4550
	-1   0    0    1   
$EndComp
Wire Wire Line
	1850 3750 2200 3750
Wire Wire Line
	1850 3850 2200 3850
Wire Wire Line
	1850 3950 2200 3950
Wire Wire Line
	1850 4050 2200 4050
Wire Wire Line
	1850 4150 2200 4150
Wire Wire Line
	1850 4250 2200 4250
Wire Wire Line
	1850 4350 2200 4350
Wire Wire Line
	1850 4450 2200 4450
Wire Wire Line
	1850 4550 2200 4550
Wire Wire Line
	1850 4650 2200 4650
Wire Wire Line
	1850 4750 2200 4750
Wire Wire Line
	1850 4850 2200 4850
Wire Wire Line
	1850 4950 2200 4950
Wire Wire Line
	1850 5150 2200 5150
Wire Wire Line
	1850 5250 2200 5250
Text Label 2200 4450 2    60   ~ 0
DA5
Text Label 2200 4350 2    60   ~ 0
DB5
Text Label 2200 4250 2    60   ~ 0
DC5
Text Label 2200 4150 2    60   ~ 0
DD5
Text Label 2200 4050 2    60   ~ 0
DE5
Text Label 2200 3950 2    60   ~ 0
DF5
Text Label 2200 3850 2    60   ~ 0
DG5
Text Label 2200 3750 2    60   ~ 0
DH5
Text Label 2200 4550 2    60   ~ 0
DH6
Text Label 2200 4650 2    60   ~ 0
DG6
Text Label 2200 4750 2    60   ~ 0
DF6
Text Label 2200 4850 2    60   ~ 0
DE6
Text Label 2200 4950 2    60   ~ 0
DD6
Wire Wire Line
	1850 5050 2200 5050
Text Label 2200 5050 2    60   ~ 0
DC6
Text Label 2200 5150 2    60   ~ 0
DB6
Text Label 2200 5250 2    60   ~ 0
DA6
$Comp
L Conn_01x16 P4
U 1 1 589E1AE4
P 2750 4550
F 0 "P4" H 2750 5400 50  0000 C CNN
F 1 "CONN_01X16" V 2850 4550 50  0000 C CNN
F 2 "Socket_Strips:Socket_Strip_Straight_2x08_Pitch2.54mm" H 2750 4550 50  0000 C CNN
F 3 "" H 2750 4550 50  0000 C CNN
	1    2750 4550
	-1   0    0    1   
$EndComp
Wire Wire Line
	2950 3750 3300 3750
Wire Wire Line
	2950 3850 3300 3850
Wire Wire Line
	2950 3950 3300 3950
Wire Wire Line
	2950 4050 3300 4050
Wire Wire Line
	2950 4150 3300 4150
Wire Wire Line
	2950 4250 3300 4250
Wire Wire Line
	2950 4350 3300 4350
Wire Wire Line
	2950 4450 3300 4450
Text Label 3300 4450 2    60   ~ 0
DA7
Text Label 3300 4350 2    60   ~ 0
DB7
Text Label 3300 4250 2    60   ~ 0
DC7
Text Label 3300 4150 2    60   ~ 0
DD7
Text Label 3300 4050 2    60   ~ 0
DE7
Text Label 3300 3950 2    60   ~ 0
DF7
Text Label 3300 3850 2    60   ~ 0
DG7
Text Label 3300 3750 2    60   ~ 0
DH7
$Comp
L Conn_01x16 P5
U 1 1 589E1CDE
P 1700 6650
F 0 "P5" H 1700 7500 50  0000 C CNN
F 1 "CONN_01X16" V 1800 6650 50  0000 C CNN
F 2 "Socket_Strips:Socket_Strip_Straight_2x08_Pitch2.54mm" H 1700 6650 50  0000 C CNN
F 3 "" H 1700 6650 50  0000 C CNN
	1    1700 6650
	-1   0    0    1   
$EndComp
Wire Wire Line
	1900 5850 2250 5850
Wire Wire Line
	1900 5950 2250 5950
Wire Wire Line
	1900 6050 2250 6050
Wire Wire Line
	1900 6150 2250 6150
Wire Wire Line
	1900 6250 2250 6250
Wire Wire Line
	1900 6350 2250 6350
Wire Wire Line
	1900 6450 2250 6450
Wire Wire Line
	1900 6550 2250 6550
Wire Wire Line
	1900 6650 2250 6650
Wire Wire Line
	1900 6750 2250 6750
Wire Wire Line
	1900 6850 2250 6850
Wire Wire Line
	1900 6950 2250 6950
Wire Wire Line
	1900 7050 2250 7050
Wire Wire Line
	1900 7250 2250 7250
Wire Wire Line
	1900 7350 2250 7350
Text Label 2250 6550 2    60   ~ 0
DA9
Text Label 2250 6450 2    60   ~ 0
DB9
Text Label 2250 6350 2    60   ~ 0
DC9
Text Label 2250 6250 2    60   ~ 0
DD9
Text Label 2250 6150 2    60   ~ 0
DE9
Text Label 2250 6050 2    60   ~ 0
DF9
Text Label 2250 5950 2    60   ~ 0
DG9
Text Label 2250 5850 2    60   ~ 0
DH9
Text Label 2250 6650 2    60   ~ 0
DH10
Text Label 2250 6750 2    60   ~ 0
DG10
Text Label 2250 6850 2    60   ~ 0
DF10
Text Label 2250 6950 2    60   ~ 0
DE10
Text Label 2250 7050 2    60   ~ 0
DD10
Wire Wire Line
	1900 7150 2250 7150
Text Label 2250 7150 2    60   ~ 0
DC10
Text Label 2250 7250 2    60   ~ 0
DB10
Text Label 2250 7350 2    60   ~ 0
DA10
$Comp
L Conn_01x16 P6
U 1 1 589E1D04
P 2750 6600
F 0 "P6" H 2750 7450 50  0000 C CNN
F 1 "CONN_01X16" V 2850 6600 50  0000 C CNN
F 2 "Socket_Strips:Socket_Strip_Straight_2x08_Pitch2.54mm" H 2750 6600 50  0000 C CNN
F 3 "" H 2750 6600 50  0000 C CNN
	1    2750 6600
	-1   0    0    1   
$EndComp
Wire Wire Line
	2950 5800 3300 5800
Wire Wire Line
	2950 5900 3300 5900
Wire Wire Line
	2950 6000 3300 6000
Wire Wire Line
	2950 6100 3300 6100
Wire Wire Line
	2950 6200 3300 6200
Wire Wire Line
	2950 6300 3300 6300
Wire Wire Line
	2950 6400 3300 6400
Wire Wire Line
	2950 6500 3300 6500
Wire Wire Line
	2950 6600 3300 6600
Wire Wire Line
	2950 6700 3300 6700
Wire Wire Line
	2950 6800 3300 6800
Wire Wire Line
	2950 6900 3300 6900
Wire Wire Line
	2950 7000 3300 7000
Wire Wire Line
	2950 7200 3300 7200
Wire Wire Line
	2950 7300 3300 7300
Text Label 3300 6500 2    60   ~ 0
DA11
Text Label 3300 6400 2    60   ~ 0
DB11
Text Label 3300 6300 2    60   ~ 0
DC11
Text Label 3300 6200 2    60   ~ 0
DD11
Text Label 3300 6100 2    60   ~ 0
DE11
Text Label 3300 6000 2    60   ~ 0
DF11
Text Label 3300 5900 2    60   ~ 0
DG11
Text Label 3300 5800 2    60   ~ 0
DH11
Text Label 3300 6600 2    60   ~ 0
DH12
Text Label 3300 6700 2    60   ~ 0
DG12
Text Label 3300 6800 2    60   ~ 0
DF12
Text Label 3300 6900 2    60   ~ 0
DE12
Text Label 3300 7000 2    60   ~ 0
DD12
Wire Wire Line
	2950 7100 3300 7100
Text Label 3300 7100 2    60   ~ 0
DC12
Text Label 3300 7200 2    60   ~ 0
DB12
Text Label 3300 7300 2    60   ~ 0
DA12
Text Label 3300 5250 2    60   ~ 0
DA8
Text Label 3300 5150 2    60   ~ 0
DB8
Text Label 3300 5050 2    60   ~ 0
DC8
Wire Wire Line
	2950 5050 3300 5050
Text Label 3300 4950 2    60   ~ 0
DD8
Text Label 3300 4850 2    60   ~ 0
DE8
Text Label 3300 4750 2    60   ~ 0
DF8
Text Label 3300 4650 2    60   ~ 0
DG8
Text Label 3300 4550 2    60   ~ 0
DH8
Wire Wire Line
	2950 5250 3300 5250
Wire Wire Line
	2950 5150 3300 5150
Wire Wire Line
	2950 4950 3300 4950
Wire Wire Line
	2950 4850 3300 4850
Wire Wire Line
	2950 4750 3300 4750
Wire Wire Line
	2950 4650 3300 4650
Wire Wire Line
	2950 4550 3300 4550
$Comp
L Conn_02x02_Top_Bottom J1
U 1 1 5B0CDC0A
P 5050 7250
F 0 "J1" H 5100 7350 50  0000 C CNN
F 1 "Conn_02x02_Top_Bottom" H 5100 7050 50  0000 C CNN
F 2 "Socket_Strips:Socket_Strip_Straight_2x02_Pitch2.54mm" H 5050 7250 50  0001 C CNN
F 3 "" H 5050 7250 50  0001 C CNN
	1    5050 7250
	1    0    0    -1  
$EndComp
Wire Wire Line
	4500 7250 4850 7250
Wire Wire Line
	4850 7350 4500 7350
Wire Wire Line
	5350 7250 5700 7250
Wire Wire Line
	5350 7350 5700 7350
Text Label 4500 7250 0    60   ~ 0
V_LED
Text Label 4500 7350 0    60   ~ 0
V_LED
Text Label 5700 7250 2    60   ~ 0
V_LED
Text Label 5700 7350 2    60   ~ 0
V_LED
$Comp
L Conn_02x02_Top_Bottom J2
U 1 1 5B0CF395
P 6600 7250
F 0 "J2" H 6650 7350 50  0000 C CNN
F 1 "Conn_02x02_Top_Bottom" H 6650 7050 50  0000 C CNN
F 2 "Socket_Strips:Socket_Strip_Straight_2x02_Pitch2.54mm" H 6600 7250 50  0001 C CNN
F 3 "" H 6600 7250 50  0001 C CNN
	1    6600 7250
	1    0    0    -1  
$EndComp
Wire Wire Line
	6050 7250 6400 7250
Wire Wire Line
	6400 7350 6050 7350
Wire Wire Line
	6900 7250 7250 7250
Wire Wire Line
	6900 7350 7250 7350
Text Label 6050 7250 0    60   ~ 0
V_LED
Text Label 6050 7350 0    60   ~ 0
V_LED
Text Label 7250 7250 2    60   ~ 0
V_LED
Text Label 7250 7350 2    60   ~ 0
V_LED
$EndSCHEMATC
