"Id";"Designator";"Package";"Quantity";"Designation";"Supplier and ref";
1;"REF**,REF**,REF**,REF**,REF**,REF**,REF**,REF**,REF**,REF**,REF**,REF**,REF**,REF**,REF**,REF**,REF**,REF**,REF**,REF**,REF**,REF**,REF**,REF**,REF**,REF**,REF**,REF**,REF**,REF**,REF**,REF**,REF**,REF**,REF**,REF**,REF**,REF**,REF**,REF**,REF**,REF**,REF**,REF**,REF**,REF**,REF**,REF**,REF**,REF**,REF**,REF**,REF**,REF**,REF**,REF**,REF**,REF**,REF**,REF**,REF**,REF**,REF**,REF**,REF**,REF**,REF**,REF**,REF**,REF**,REF**,REF**,REF**,REF**,REF**,REF**,REF**,REF**,REF**,REF**,REF**,REF**,REF**,REF**,REF**,REF**,REF**,REF**,REF**,REF**,REF**,REF**,REF**,REF**,REF**,REF**,REF**,REF**,REF**,REF**,REF**,REF**,REF**,REF**,REF**,REF**,REF**,REF**,REF**,REF**,REF**,REF**,REF**,REF**,REF**,REF**,REF**,REF**,REF**,REF**,REF**,REF**,REF**,REF**,REF**,REF**,REF**,REF**,REF**,REF**,REF**,REF**,REF**,REF**,REF**,REF**,REF**,REF**,REF**,REF**,REF**,REF**,REF**,REF**,REF**,REF**,REF**,REF**,REF**,REF**,REF**,REF**,REF**,REF**,REF**,REF**,REF**,REF**,REF**,REF**";"VIA-0.6mm";160;"VIA-0.6mm";;;
2;"TLC59401,TLC59401,TLC59401,TLC59401,TLC59401,TLC59401,TLC59401,TLC59401,TLC59401,TLC59401,TLC59401,TLC59401,TLC59401,TLC59401,TLC59401,TLC59401,TLC59401,TLC59401,TLC59401,TLC59401,TLC59401,TLC59401,TLC59401,TLC59401,TLC59401,TLC59401,TLC59401";"TexasInstruments_PWP_R-PDSO-G28";27;"TLC59401_HTSSOP";;;
3;"R1,R1,R1,R1,R1,R1,R1,R1,R1,R1,R1,R1,R1,R1,R1,R1,R1,R1,R1,R1,R1,R1,R1,R1,R1,R1,R1";"R_0805_HandSoldering";27;"1k5";;;
4;"C1,C1,C1,C1,C1,C1,C1,C1,C1,C1,C1,C1,C1,C1,C1,C1,C1,C1,C1,C1,C1,C1,C1,C1,C1,C1,C1";"C_0805_HandSoldering";27;"100n";;;
5;"P1,P1,P1,P1,P1,P1,P1,P1,P1,P1,P1,P1,P1,P1,P1,P1,P1,P1,P1,P1,P1,P1,P1,P1,P1,P1,P1";"TLC_BREAKOUT_v2";27;"TLC_BREAKOUT";;;
6;"J2,J3,J3,J2,J1,J2,J2,J1";"Socket_Strip_Straight_2x02_Pitch2.54mm";8;"Conn_02x02_Top_Bottom";;;
7;"XA2,XA2";"ADAFRUIT_HUZZAH";2;"AdafruitHuzza-ESP8266";;;
8;"P8,P8";"Pin_Header_Angled_1x14_Pitch2.54mm";2;"Expansion Header";;;
9;"P6,P5,P4,P3,P2,P2,P3,P4,P5,P6";"Pin_Header_Straight_2x08_Pitch2.54mm";10;"CONN_02x08";;;
10;"P1,P1";"Pin_Header_Straight_2x08_Pitch2.54mm";2;"CONN_02X8";;;
11;"TLC6,TLC4,TLC1,TLC2,TLC3,TLC5,TLC5,TLC3,TLC2,TLC1,TLC4,TLC6";"TLC_BREAKOUT_v2";12;"TLC59401_Breakout";;;
12;"J1,J1";"OnShore-3pin-OSTOQ037151";2;"Screw_Terminal_01x03";;;
13;"R11,R1,R2,R3,R4,R5,R6,R6,R5,R4,R3,R2,R1,R11";"R_0805_HandSoldering";14;"R";;;
14;"R10,R10";"R_0805_HandSoldering";2;"47K";;;
15;"SW1,SW1";"SW_PUSH_6mm_h7.3mm";2;"SW_PUSH";;;
16;"C3,C3";"C_0805_HandSoldering";2;"100nF";;;
17;"JP1,JP1";"Pin_Header_Straight_1x02_Pitch2.54mm";2;"CONN_01X02";;;
18;"R7,R7";"R_0805_HandSoldering";2;"100K";;;
19;"R8,R8";"R_0805_HandSoldering";2;"20K";;;
20;"C1,C1";"CP_Radial_D6.3mm_P2.50mm";2;"330uF";;;
21;"C2,C2";"CP_Radial_D12.5mm_P5.00mm";2;"680uF";;;
22;"C4,C5,C5,C4";"C_0805_HandSoldering";4;"4.7uF";;;
23;"D1,D1";"LED_0603";2;"LED";;;
24;"R9,R9";"R_0805_HandSoldering";2;"100";;;
25;",,,,,,,,h2,h4,h3,h1,,,,";"hole_4-40";16;"hole_4-40";;;
26;"XA1,XA1";"Teensy2.0";2;"Teensy2.0";;;
27;"D1,D2,D3,D4,D5,D6,D7,D8,D9,D10,D11,D12,D13,D14,D15,D16,D17,D18,D19,D20,D21,D22,D23,D24,D25,D26,D27,D28,D29,D30,D31,D32,D33,D34,D35,D36,D37,D38,D39,D40,D41,D42,D43,D44,D45,D46,D47,D48,D49,D50,D51,D52,D53,D54,D55,D56,D57,D58,D59,D60,D61,D62,D63,D64,D65,D66,D67,D68,D69,D70,D71,D72,D73,D74,D75,D76,D77,D78,D79,D80,D81,D82,D83,D84,D85,D86,D87,D88,D89,D90,D91,D92,D93,D94,D95,D96";"PLCC-2";96;"LED";;;
28;"P1,P2,P3,P4,P5,P6,P5,P4,P1,P2,P3,P6";"Socket_Strip_Straight_2x08_Pitch2.54mm";12;"CONN_01X16";;;
29;"B6,B5,B4,B2,B3,B1";"VIA_BRIDGE-2x8";6;"CONN_01X16";;;
30;"DD6,DD5,DD4,DD3,DD2,DC6,DC5,DC4,DC3,DC2,DC1,DB6,DB4,DB3,DB2,DB1,DA6,DA5,DA4,DA3,DA2,DA1,DD1,DB5";"PLCC-2x4";24;"LED_QUAD_CCA";;;
