{
"Groups": [{


"name": "ALAnolight, WT, 24hrs",
"start_time":0,
"duration": 0,
"irradiance": 0,
"cycles": 1,
"offtime": 0,
"Channels": [1,2,3,4,5,6,13]},{

"name": "noALAnolight, WT, 24hrs",
"start_time":0,
"duration": 0,
"irradiance": 0,
"cycles": 1,
"offtime": 0,
"Channels": [7,8,9,10,11,12]},{

"name": "ALA, I=1.5, 1.25min, WT, 24hrs",
"start_time": 1125,
"duration": 75,
"irradiance": 150,
"cycles": 1,
"offtime": 0,
"Channels": [14,15,16,17,18,19,20]},{



"name": "ALA, I=1.5, 2.5min, WT, 24hrs",
"start_time": 1050,
"duration": 150,
"irradiance": 150,
"cycles": 1,
"offtime": 0,
"Channels": [21,22,23,24,34,35,36]},{

"name": "ALA, I=1.5, 5min, WT, 24hrs",
"start_time": 900,
"duration": 300,
"irradiance": 150,
"cycles": 1,
"offtime": 0,
"Channels": [27,28,29,30,31,32,33]},{

"name": "ALA, I=1.5, 10min, WT, 24hrs",
"start_time": 600,
"duration": 600,
"irradiance": 150,
"cycles": 1,
"offtime": 0,
"Channels": [25,26,37,38,39,40,41]},{

"name": "ALA, I=1.5, 20min, WT, 24hrs",
"start_time": 0,
"duration": 1200,
"irradiance": 150,
"cycles": 1,
"offtime": 0,
"Channels": [42,43,44,45,46,47,48]},{






"name": "ALA, I = 4.5, Pulsation=30000 cycles, offtime=30, 20min, WT, 24hrs",
"start_time": 0,
"duration": 0.010,
"irradiance": 450,
"cycles": 30000,
"offtime": 0.030,
"Channels": [49,50,51,52,53,54]},{

"name": "ALA, I = 4.5, Pulsation=6000 cycles, offtime=50, 20min, WT, 24hrs",
"start_time": 0,
"duration": 0.050,
"irradiance": 450,
"cycles": 6000,
"offtime": 0.050,
"Channels": [55,56,57,58,59,60]},{

"name": "ALA, I = 4.5, Pulsation=6000 cycles, offtime=150, 20min, WT, 24hrs",
"start_time": 0,
"duration": 0.050,
"irradiance": 450,
"cycles": 6000,
"offtime": 0.150,
"Channels": [61,62,63,64,65,66]},{

"name": "ALA, I = 4.5, Pulsation=3000 cycles, offtime=100, 20min, WT, 24hrs",
"start_time": 0,
"duration": 0.100,
"irradiance": 450,
"cycles": 3000,
"offtime": 0.100,
"Channels": [67,68,69,70,71,72]},{

"name": "ALA, I = 4.5, Pulsation=3000 cycles, offtime=200, 20min, WT, 24hrs",
"start_time": 0,
"duration": 0.100,
"irradiance": 450,
"cycles": 3000,
"offtime": 0.200,
"Channels": [73,74,75,76,77,78]},{

"name": "ALA, I = 4.5, Pulsation=1200 cycles, offtime=750, 20min, WT, 24hrs",
"start_time": 0,
"duration": 0.250,
"irradiance": 450,
"cycles": 1200,
"offtime": 0.750,
"Channels": [79,80,81,82,83,84]},{



"name": "ALA, I = 4.5, Pulsation=600 cycles, offtime=1500, 20min, WT, 24hrs",
"start_time": 0,
"duration": 0.500,
"irradiance": 450,
"cycles": 600,
"offtime": 1.500,
"Channels": [85,86,87,88,89,90]}, {


"name": "ALA, I = 4.5, Pulsation=1 cycle, offtime=0, 20min, WT, 24hrs",
"start_time": 0,
"duration": 300,
"irradiance": 450,
"cycles": 1,
"offtime": 0,                                                                                                                                                                                                                                                                                                                                                                                                                         
"Channels": [91,92,93,94,95,96]}

]
}