{
"Groups": [{

"name": "ALAlight, 1.25min, WT, 24hrs",
"start_time":1125,
"duration": 75,
"irradiance": 600,
"cycles": 1,
"offtime": 0,
"Channels": [13,14,15,16]},{

"name": "noALAnolight, WT, 24hrs",
"start_time":0,
"duration": 0,
"irradiance": 0,
"cycles": 1,
"offtime": 0,
"Channels": [7,8,9,10,11,12]},{

"name": "ALAnolight, WT, 24hrs",
"start_time":0,
"duration": 0,
"irradiance": 0,
"cycles": 1,
"offtime": 0,
"Channels": [1,2,3,4,5,6]},{

"name": "ALA, I=.75, 2.5min, WT, 24hrs",
"start_time": 1050,
"duration": 150,
"irradiance": 75,
"cycles": 1,
"offtime": 0,
"Channels": [17,18,19,20]},{

"name": "ALA, I = .75, 5min, WT, 24hrs",
"start_time":900,
"duration": 300,
"irradiance": 75,
"cycles": 1,
"offtime": 0,
"Channels": [21,22,23,24]},{

"name": "ALA, I = .75, 10min, WT, 24hrs",
"start_time": 600,
"duration": 600,
"irradiance": 75,
"cycles": 1,
"offtime": 0,
"Channels": [25,26,27,28]},{

"name": "ALA, I = .75, 20min, WT, 24hrs",
"start_time": 0,
"duration": 1200,
"irradiance": 75,
"cycles": 1,
"offtime": 0,
"Channels": [29,30,31,32]},{

"name": "ALA, I = 1.5, 2.5min, WT, 24hrs",
"start_time": 1050,
"duration": 150,
"irradiance": 150,
"cycles": 1,
"offtime": 0,
"Channels": [33,34,35,36]},{

"name": "ALA, I = 1.5, 5min, WT, 24hrs",
"start_time": 900,
"duration": 300,
"irradiance": 150,
"cycles": 1,
"offtime": 0,
"Channels": [37,38,39,40]},{

"name": "ALA, I = 1.5, 10min, WT, 24hrs",
"start_time": 600,
"duration": 600,
"irradiance": 150,
"cycles": 1,
"offtime": 0,
"Channels": [41,42,43,44]},{

"name": "ALA, I = 1.5, 20min, WT, 24hrs",
"start_time": 0,
"duration": 1200,
"irradiance": 150,
"cycles": 1,
"offtime": 0,
"Channels": [45,46,47,48]},{

"name": "ALA, I = 3, 2.5min, WT, 24hrs",
"start_time": 1050,
"duration": 150,
"irradiance": 300,
"cycles": 1,
"offtime": 0,
"Channels": [49,50,51,52]},{

"name": "ALA, I = 3, 5min, WT, 24hrs",
"start_time": 900,
"duration": 300,
"irradiance": 300,
"cycles": 1,
"offtime": 0,
"Channels": [53,54,55,56]},{

"name": "ALA, I = 3, 10min, WT, 24hrs",
"start_time": 600,
"duration": 600,
"irradiance": 300,
"cycles": 1,
"offtime": 0,
"Channels": [57,58,59,60]},{

"name": "ALA, I = 3, 20min, WT, 24hrs",
"start_time": 0,
"duration": 1200,
"irradiance": 300,
"cycles": 1,
"offtime": 0,
"Channels": [61,62,63,64]},{

"name": "ALA, I = 4.5, 2.5min, WT, 24hrs",
"start_time": 1050,
"duration": 150,
"irradiance": 450,
"cycles": 1,
"offtime": 0,
"Channels": [65,66,67,68]},{

"name": "ALA, I = 4.5, 5min, WT, 24hrs",
"start_time": 900,
"duration": 300,
"irradiance": 450,
"cycles": 1,
"offtime": 0,
"Channels": [69,70,71,72]}, {

"name": "ALA, I = 4.5, 10min, WT, 24hrs",
"start_time": 600,
"duration": 600,
"irradiance": 450,
"cycles": 1,
"offtime": 0,
"Channels": [73,74,75,76]}, {

"name": "ALA, I = 4.5, 20min, WT, 24hrs",
"start_time": 0,
"duration": 1200,
"irradiance": 450,
"cycles": 1,
"offtime": 0,
"Channels": [77,78,79,80]}, {

"name": "ALA, I = 6, 2.5min, WT, 24hrs",
"start_time": 1050,
"duration": 150,
"irradiance": 600,
"cycles": 1,
"offtime": 0,
"Channels": [81,82,83,84]}, {

"name": "ALA, I = 6, 5min, WT, 24hrs",
"start_time": 900,
"duration": 300,
"irradiance": 600,
"cycles": 1,
"offtime": 0,
"Channels": [85,86,87,88]}, {

"name": "ALA, I = 6, 10min, WT, 24hrs",
"start_time": 600,
"duration": 600,
"irradiance": 600,
"cycles": 1,
"offtime": 0,
"Channels": [89,90,91,92]}, {

"name": "ALA, I = 6, 20min, WT, 24hrs",
"start_time": 0,
"duration": 1200,
"irradiance": 600,
"cycles": 1,
"offtime": 0,                                                                                                                                                                                                                                                                                                                                                                                                                         
"Channels": [93,94,95,96]}

]
}
