,Batch,Well,WellNum,WellLetter,CellType,ALA,ALAincubation,duration,irradiance,Fluence,Drug,Batch.1,Frequency,DutyCycle,MeasA.Result,MeasB.Result,MeasB.PreTreatment,NscanOutliers,MeasB.Outlier,is.outlier,Meas.baseDiff.Result,Meas.percentChange.Result,Meas.foldChange.Result,Group
1,2487,E1,1,E,WT,ALA,24hrs,0.01,4.5,1.35,No Treatment,2487,25,0.25,60.68055556,1012.611111,1623.833333,0,FALSE,FALSE,575.25,36.22797964,1.568085807,1
2,2487,E2,2,E,WT,ALA,24hrs,0.01,4.5,1.35,No Treatment,2487,25,0.25,69.26388889,1112.527778,1745.583333,0,FALSE,FALSE,597.0833333,34.92509668,1.536690719,1
3,2487,E3,3,E,WT,ALA,24hrs,0.01,4.5,1.35,No Treatment,2487,25,0.25,49.01388889,752.7777778,1250,0,FALSE,FALSE,461.25,37.9933646,1.612730627,1
4,2487,E4,4,E,WT,ALA,24hrs,0.01,4.5,1.35,No Treatment,2487,25,0.25,80.18055556,1022.277778,1698.333333,0,FALSE,FALSE,640.0833333,38.50446988,1.626134449,1
5,2487,E5,5,E,WT,ALA,24hrs,0.01,4.5,1.35,No Treatment,2487,25,0.25,66.51388889,1074.194444,1763.416667,0,FALSE,FALSE,653.25,37.81597736,1.608130123,1
6,2487,E6,6,E,WT,ALA,24hrs,0.01,4.5,1.35,No Treatment,2487,25,0.25,71.76388889,1075.194444,1740,0,FALSE,FALSE,628.8333333,36.90276306,1.584855453,1
7,2487,E7,7,E,WT,ALA,24hrs,0.05,4.5,1.35,No Treatment,2487,10,0.5,62.84722222,1158.527778,1774.166667,0,FALSE,FALSE,579.6666667,33.34878146,1.500347663,2
8,2487,E8,8,E,WT,ALA,24hrs,0.05,4.5,1.35,No Treatment,2487,10,0.5,77.43055556,1227.527778,1858.333333,0,FALSE,FALSE,594.8333333,32.64080482,1.484578308,2
9,2487,E9,9,E,WT,ALA,24hrs,0.05,4.5,1.35,No Treatment,2487,10,0.5,75.51388889,1177.277778,1774.333333,0,FALSE,FALSE,561.0833333,32.27656957,1.476593837,2
10,2487,E10,10,E,WT,ALA,24hrs,0.05,4.5,1.35,No Treatment,2487,10,0.5,78.54166667,1352.805556,2055.666667,3,FALSE,FALSE,666.8888889,33.0192961,1.49296729,2
11,2487,E11,11,E,WT,ALA,24hrs,0.05,4.5,1.35,No Treatment,2487,10,0.5,76.93055556,1143.611111,1772.166667,0,FALSE,FALSE,592.5833333,34.1311617,1.518168569,2
12,2487,E12,12,E,WT,ALA,24hrs,0.05,4.5,1.35,No Treatment,2487,10,0.5,64.46085859,890.209596,1352.272727,1,FALSE,FALSE,426.0909091,32.37033698,1.47864111,2
13,2487,F1,1,F,WT,ALA,24hrs,0.05,4.5,1.35,No Treatment,2487,5,0.25,42.76388889,605.5277778,910.5,0,FALSE,FALSE,269,30.75945748,1.444240561,3
14,2487,F2,2,F,WT,ALA,24hrs,0.05,4.5,1.35,No Treatment,2487,5,0.25,40.18055556,780.6944444,1233.5,0,FALSE,FALSE,416.8333333,34.80782167,1.533926348,3
15,2487,F3,3,F,WT,ALA,24hrs,0.05,4.5,1.35,No Treatment,2487,5,0.25,55.82449495,1003.118687,1598.636364,1,FALSE,FALSE,559.5454545,35.80714753,1.557805833,3
16,2487,F4,4,F,WT,ALA,24hrs,0.05,4.5,1.35,No Treatment,2487,5,0.25,44.26388889,1042.111111,1614.666667,0,FALSE,FALSE,536.5833333,33.98905565,1.514900309,3
17,2487,F5,5,F,WT,ALA,24hrs,0.05,4.5,1.35,No Treatment,2487,5,0.25,60.34722222,932.0277778,1492.416667,0,FALSE,FALSE,524.4166667,36.00663717,1.562662057,3
18,2487,F6,6,F,WT,ALA,24hrs,0.05,4.5,1.35,No Treatment,2487,5,0.25,56.59722222,849.1111111,1378.833333,0,FALSE,FALSE,493.75,36.76850837,1.581490448,3
19,2487,F7,7,F,WT,ALA,24hrs,0.1,4.5,1.35,No Treatment,2487,5,0.5,82.09722222,1095.277778,1648.083333,0,FALSE,FALSE,516.8333333,32.0594114,1.471874207,4
20,2487,F8,8,F,WT,ALA,24hrs,0.1,4.5,1.35,No Treatment,2487,5,0.5,79.09722222,1085.194444,1666.666667,0,FALSE,FALSE,545.5,33.45200579,1.502674892,4
21,2487,F9,9,F,WT,ALA,24hrs,0.1,4.5,1.35,No Treatment,2487,5,0.5,91.26388889,1124.444444,1727,0,FALSE,FALSE,566.5833333,33.50526471,1.503878458,4
22,2487,F10,10,F,WT,ALA,24hrs,0.1,4.5,1.35,No Treatment,2487,5,0.5,73.01388889,1134.611111,1697.083333,0,FALSE,FALSE,526.5,31.69565217,1.464035646,4
23,2487,F11,11,F,WT,ALA,24hrs,0.1,4.5,1.35,No Treatment,2487,5,0.5,76.59722222,1219.194444,1810.916667,0,FALSE,FALSE,555.75,31.31083915,1.45583377,4
24,2487,F12,12,F,WT,ALA,24hrs,0.1,4.5,1.35,No Treatment,2487,5,0.5,73.46085859,1073.027778,1633.090909,1,FALSE,FALSE,524.0909091,32.81477535,1.488422499,4
25,2487,G1,1,G,WT,ALA,24hrs,0.1,4.5,1.35,No Treatment,2487,3.333333333,0.333333333,55.09722222,614.4444444,925.8333333,0,FALSE,FALSE,275.4166667,30.95052287,1.44823689,5
26,2487,G2,2,G,WT,ALA,24hrs,0.1,4.5,1.35,No Treatment,2487,3.333333333,0.333333333,87.43055556,1206.611111,1851.75,0,FALSE,FALSE,609.1666667,33.54852527,1.504857498,5
27,2487,G3,3,G,WT,ALA,24hrs,0.1,4.5,1.35,No Treatment,2487,3.333333333,0.333333333,74.43055556,1099.611111,1720.166667,0,FALSE,FALSE,584.5833333,34.70996685,1.531627343,5
28,2487,G4,4,G,WT,ALA,24hrs,0.1,4.5,1.35,No Treatment,2487,3.333333333,0.333333333,60.26388889,1070.277778,1640.083333,0,FALSE,FALSE,533.8333333,33.2790746,1.498780171,5
29,2487,G6,6,G,WT,ALA,24hrs,0.1,4.5,1.35,No Treatment,2487,3.333333333,0.333333333,53.18055556,616.6111111,931.4166667,0,FALSE,FALSE,278.8333333,31.13909914,1.452202901,5
30,2487,G7,7,G,WT,ALA,24hrs,0.25,4.5,1.35,No Treatment,2487,1,0.25,73.43055556,809.9444444,1371.25,0,FALSE,FALSE,525.3333333,39.34262534,1.648604157,6
31,2487,G8,8,G,WT,ALA,24hrs,0.25,4.5,1.35,No Treatment,2487,1,0.25,53.26388889,880.6944444,1445.333333,0,FALSE,FALSE,528.6666667,37.51108658,1.600283867,6
32,2487,G9,9,G,WT,ALA,24hrs,0.25,4.5,1.35,No Treatment,2487,1,0.25,58.09722222,1009.927778,1655.7,2,FALSE,FALSE,609.8,37.64830167,1.603805553,6
33,2487,G10,10,G,WT,ALA,24hrs,0.25,4.5,1.35,No Treatment,2487,1,0.25,49.34722222,1002.111111,1629.5,0,FALSE,FALSE,591.4166667,37.11367162,1.590170751,6
34,2487,G11,11,G,WT,ALA,24hrs,0.25,4.5,1.35,No Treatment,2487,1,0.25,51.99722222,911.9277778,1446.4,2,FALSE,FALSE,498.5,35.343887,1.546644167,6
35,2487,G12,12,G,WT,ALA,24hrs,0.25,4.5,1.35,No Treatment,2487,1,0.25,52.76388889,786.6111111,1276.5,0,FALSE,FALSE,453.9166667,36.59060884,1.577053464,6
36,2487,H1,1,H,WT,ALA,24hrs,0.5,4.5,1.35,No Treatment,2487,0.5,0.25,48.01388889,688.6944444,1129.083333,0,FALSE,FALSE,404.4166667,36.99684895,1.5872222,7
37,2487,H2,2,H,WT,ALA,24hrs,0.5,4.5,1.35,No Treatment,2487,0.5,0.25,48.01388889,645.1111111,1040.666667,0,FALSE,FALSE,359.5833333,35.79031768,1.55739752,7
38,2487,H3,3,H,WT,ALA,24hrs,0.5,4.5,1.35,No Treatment,2487,0.5,0.25,45.18055556,692.6111111,1108.25,0,FALSE,FALSE,379.6666667,35.40749184,1.548167161,7
39,2487,H4,4,H,WT,ALA,24hrs,0.5,4.5,1.35,No Treatment,2487,0.5,0.25,72.09722222,995.0277778,1553.7,2,FALSE,FALSE,522.7,34.43964113,1.525311968,7
40,2487,H6,6,H,WT,ALA,24hrs,0.5,4.5,1.35,No Treatment,2487,0.5,0.25,37.51388889,593.1111111,954.5,0,FALSE,FALSE,325.4166667,35.42807028,1.548660547,7
41,2487,H7,7,H,WT,ALA,24hrs,300,4.5,1.35,No Treatment,2487,0,1,69.51388889,865.0277778,1228,0,FALSE,FALSE,327,27.43224664,1.378022543,8
42,2487,H8,8,H,WT,ALA,24hrs,300,4.5,1.35,No Treatment,2487,0,1,71.76388889,1042.944444,1509.166667,0,FALSE,FALSE,430.25,29.20524182,1.412533958,8
43,2487,H9,9,H,WT,ALA,24hrs,300,4.5,1.35,No Treatment,2487,0,1,69.68055556,1015.944444,1477.083333,0,FALSE,FALSE,425.1666667,29.50269854,1.418494012,8
44,2487,H11,11,H,WT,ALA,24hrs,300,4.5,1.35,No Treatment,2487,0,1,51.43055556,814.9166667,1269.111111,3,FALSE,FALSE,418.2222222,33.91525691,1.513208576,8
45,2487,H12,12,H,WT,ALA,24hrs,300,4.5,1.35,No Treatment,2487,0,1,60.59722222,900.0277778,1315.5,0,FALSE,FALSE,379.5,29.65937955,1.421653653,8
46,2438,E1,1,E,WT,ALA,24hrs,0.01,4.5,1.35,No Treatment,2438,25,0.25,26.41666667,335.6944444,625.6666667,0,FALSE,FALSE,268.9166667,44.47762565,1.801075714,1
47,2438,E2,2,E,WT,ALA,24hrs,0.01,4.5,1.35,No Treatment,2438,25,0.25,16,237.6111111,489.4166667,0,FALSE,FALSE,230.75,49.26754048,1.97112462,1
48,2438,E3,3,E,WT,ALA,24hrs,0.01,4.5,1.35,No Treatment,2438,25,0.25,33.91666667,365.6111111,683,0,FALSE,FALSE,296.3333333,44.76710029,1.810515119,1
49,2438,E4,4,E,WT,ALA,24hrs,0.01,4.5,1.35,No Treatment,2438,25,0.25,24.41666667,449.1111111,825.9166667,0,FALSE,FALSE,355.75,44.20017256,1.792120238,1
50,2438,E5,5,E,WT,ALA,24hrs,0.01,4.5,1.35,No Treatment,2438,25,0.25,38.91666667,572.4444444,1006.916667,0,FALSE,FALSE,413.4166667,41.93457496,1.722195264,1
51,2438,E6,6,E,WT,ALA,24hrs,0.01,4.5,1.35,No Treatment,2438,25,0.25,35.58333333,614.7777778,1047.916667,0,FALSE,FALSE,412.0833333,40.13038656,1.670296403,1
52,2438,E7,7,E,WT,ALA,24hrs,0.05,4.5,1.35,No Treatment,2438,10,0.5,44.16666667,662.8611111,999.4166667,0,FALSE,FALSE,315.5,32.24780671,1.475966978,2
53,2438,E8,8,E,WT,ALA,24hrs,0.05,4.5,1.35,No Treatment,2438,10,0.5,43.75,820.5277778,1183,0,FALSE,FALSE,341.4166667,29.38321779,1.416093977,2
54,2438,E9,9,E,WT,ALA,24hrs,0.05,4.5,1.35,No Treatment,2438,10,0.5,45.91666667,729.0277778,1059.916667,0,FALSE,FALSE,309.8333333,29.82432685,1.424995237,2
55,2438,E10,10,E,WT,ALA,24hrs,0.05,4.5,1.35,No Treatment,2438,10,0.5,35.91666667,714.0277778,1060.833333,0,FALSE,FALSE,325.75,31.32880957,1.456214744,2
56,2438,E11,11,E,WT,ALA,24hrs,0.05,4.5,1.35,No Treatment,2438,10,0.5,46.83333333,605.1111111,904.0833333,0,FALSE,FALSE,277.9166667,31.47315109,1.459282042,2
57,2438,E12,12,E,WT,ALA,24hrs,0.05,4.5,1.35,No Treatment,2438,10,0.5,42.5,431.0277778,687.1666667,0,FALSE,FALSE,235.0833333,35.29190992,1.545401817,2
58,2438,F1,1,F,WT,ALA,24hrs,0.05,4.5,1.35,No Treatment,2438,5,0.25,33.25,356.0277778,661,0,FALSE,FALSE,283.9166667,44.36583037,1.797456503,3
59,2438,F2,2,F,WT,ALA,24hrs,0.05,4.5,1.35,No Treatment,2438,5,0.25,31.75,364.3611111,699.25,0,FALSE,FALSE,313.8333333,46.27483105,1.861324998,3
60,2438,F3,3,F,WT,ALA,24hrs,0.05,4.5,1.35,No Treatment,2438,5,0.25,22.25,339.1111111,651.6666667,0,FALSE,FALSE,291.5,46.2250022,1.859600262,3
61,2438,F4,4,F,WT,ALA,24hrs,0.05,4.5,1.35,No Treatment,2438,5,0.25,33.58333333,424.6944444,801.3333333,0,FALSE,FALSE,355.5833333,45.57137771,1.837268625,3
62,2438,F5,5,F,WT,ALA,24hrs,0.05,4.5,1.35,No Treatment,2438,5,0.25,37.33333333,602.1111111,1059.916667,0,FALSE,FALSE,436.75,42.04123105,1.725364458,3
63,2438,F6,6,F,WT,ALA,24hrs,0.05,4.5,1.35,No Treatment,2438,5,0.25,39.16666667,620.8611111,1048.666667,0,FALSE,FALSE,406.75,39.58209439,1.655138473,3
64,2438,F7,7,F,WT,ALA,24hrs,0.1,4.5,1.35,No Treatment,2438,5,0.5,46.41666667,781.9444444,1139.416667,0,FALSE,FALSE,336.4166667,30.08122004,1.430230906,4
65,2438,F8,8,F,WT,ALA,24hrs,0.1,4.5,1.35,No Treatment,2438,5,0.5,44.08333333,694.1111111,986.0833333,0,FALSE,FALSE,270.9166667,28.07345787,1.390307348,4
66,2438,F9,9,F,WT,ALA,24hrs,0.1,4.5,1.35,No Treatment,2438,5,0.5,34.75,746.7777778,1074.416667,0,FALSE,FALSE,306.5833333,29.10524511,1.410541586,4
67,2438,F10,10,F,WT,ALA,24hrs,0.1,4.5,1.35,No Treatment,2438,5,0.5,57.58333333,761.2777778,1082.833333,0,FALSE,FALSE,300.5,28.30159062,1.394731081,4
68,2438,F11,11,F,WT,ALA,24hrs,0.1,4.5,1.35,No Treatment,2438,5,0.5,49.91666667,614.1944444,920.1666667,0,FALSE,FALSE,284.9166667,31.68870489,1.463886753,4
69,2438,F12,12,F,WT,ALA,24hrs,0.1,4.5,1.35,No Treatment,2438,5,0.5,51.91666667,470.6944444,707.8333333,0,FALSE,FALSE,216.0833333,31.46335544,1.459073473,4
70,2438,G1,1,G,WT,ALA,24hrs,0.1,4.5,1.35,No Treatment,2438,3.333333333,0.333333333,31,311.6111111,595.0833333,0,FALSE,FALSE,262.4166667,45.71497701,1.842128722,5
71,2438,G2,2,G,WT,ALA,24hrs,0.1,4.5,1.35,No Treatment,2438,3.333333333,0.333333333,22.83333333,419.4444444,677.8333333,0,FALSE,FALSE,237.3333333,36.13601759,1.565827815,5
72,2438,G3,3,G,WT,ALA,24hrs,0.1,4.5,1.35,No Treatment,2438,3.333333333,0.333333333,21.25,342.6111111,601.25,0,FALSE,FALSE,237.5833333,40.94891559,1.693449003,5
73,2438,G4,4,G,WT,ALA,24hrs,0.1,4.5,1.35,No Treatment,2438,3.333333333,0.333333333,38.16666667,434.0277778,764.0833333,0,FALSE,FALSE,309,41.58660137,1.711936,5
74,2438,G5,5,G,WT,ALA,24hrs,0.1,4.5,1.35,No Treatment,2438,3.333333333,0.333333333,36.66666667,543.1944444,882.8333333,0,FALSE,FALSE,318.5833333,36.96815369,1.586499616,5
75,2438,G6,6,G,WT,ALA,24hrs,0.1,4.5,1.35,No Treatment,2438,3.333333333,0.333333333,37.84848485,618.489899,943.5454545,1,FALSE,FALSE,304,32.95429038,1.491519749,5
76,2438,G7,7,G,WT,ALA,24hrs,0.25,4.5,1.35,No Treatment,2438,1,0.25,32.08333333,608.6944444,974.5833333,0,FALSE,FALSE,344.8333333,36.16395257,1.566513029,6
77,2438,G8,8,G,WT,ALA,24hrs,0.25,4.5,1.35,No Treatment,2438,1,0.25,42,618.5277778,1015.25,0,FALSE,FALSE,375.6666667,37.7860356,1.607356177,6
78,2438,G9,9,G,WT,ALA,24hrs,0.25,4.5,1.35,No Treatment,2438,1,0.25,45.5,603.1944444,1013.083333,0,FALSE,FALSE,388.8333333,39.19581105,1.644623532,6
79,2438,G10,10,G,WT,ALA,24hrs,0.25,4.5,1.35,No Treatment,2438,1,0.25,56.41666667,660.1944444,1065.75,0,FALSE,FALSE,384.5,36.80502007,1.582404174,6
80,2438,G11,11,G,WT,ALA,24hrs,0.25,4.5,1.35,No Treatment,2438,1,0.25,38.16666667,504.4444444,865.5833333,0,FALSE,FALSE,340.0833333,40.2690524,1.674174009,6
81,2438,G12,12,G,WT,ALA,24hrs,0.25,4.5,1.35,No Treatment,2438,1,0.25,27.91666667,436.8611111,720,0,FALSE,FALSE,262.0833333,37.49701931,1.599923698,6
82,2438,H1,1,H,WT,ALA,24hrs,0.5,4.5,1.35,No Treatment,2438,0.5,0.25,20.08333333,282.1111111,548.75,0,FALSE,FALSE,245.5833333,46.5389272,1.87051989,7
83,2438,H2,2,H,WT,ALA,24hrs,0.5,4.5,1.35,No Treatment,2438,0.5,0.25,33.66666667,313.2777778,578.5,0,FALSE,FALSE,244.1666667,43.80107634,1.779393509,7
84,2438,H3,3,H,WT,ALA,24hrs,0.5,4.5,1.35,No Treatment,2438,0.5,0.25,26.91666667,362.4444444,679.4166667,0,FALSE,FALSE,295.9166667,44.94747057,1.816446965,7
85,2438,H4,4,H,WT,ALA,24hrs,0.5,4.5,1.35,No Treatment,2438,0.5,0.25,29.83333333,354.6944444,669.25,0,FALSE,FALSE,293.5,45.27962288,1.827472786,7
86,2438,H5,5,H,WT,ALA,24hrs,0.5,4.5,1.35,No Treatment,2438,0.5,0.25,32.33333333,546.8611111,928.25,0,FALSE,FALSE,360.3333333,39.71952601,1.658911972,7
87,2438,H6,6,H,WT,ALA,24hrs,0.5,4.5,1.35,No Treatment,2438,0.5,0.25,28.91666667,599.6111111,969,0,FALSE,FALSE,348.3333333,36.74617594,1.580932086,7
88,2438,H7,7,H,WT,ALA,24hrs,300,4.5,1.35,No Treatment,2438,0,1,46.33333333,596.9444444,842,0,FALSE,FALSE,224,27.28564661,1.3752443,8
89,2438,H8,8,H,WT,ALA,24hrs,300,4.5,1.35,No Treatment,2438,0,1,55.08333333,690.3611111,934.9166667,0,FALSE,FALSE,223.5,24.45667042,1.323743612,8
90,2438,H9,9,H,WT,ALA,24hrs,300,4.5,1.35,No Treatment,2438,0,1,43.33333333,686.2777778,895.6666667,0,FALSE,FALSE,188.3333333,21.53337991,1.274427265,8
91,2438,H10,10,H,WT,ALA,24hrs,300,4.5,1.35,No Treatment,2438,0,1,67.33333333,694.9444444,947.6666667,0,FALSE,FALSE,231.6666667,25.00149889,1.333359981,8
92,2438,H11,11,H,WT,ALA,24hrs,300,4.5,1.35,No Treatment,2438,0,1,39.91666667,507.1111111,728.25,0,FALSE,FALSE,200.0833333,28.2925488,1.394555215,8
93,2438,H12,12,H,WT,ALA,24hrs,300,4.5,1.35,No Treatment,2438,0,1,31.08333333,492.0277778,690.3333333,0,FALSE,FALSE,177.25,26.48377189,1.360243889,8
94,2439,E1,1,E,WT,ALA,24hrs,0.01,4.5,1.35,No Treatment,2439,25,0.25,44.125,366.0972222,788.5,0,FALSE,FALSE,422.0833333,53.55160443,2.152926894,1
95,2439,E2,2,E,WT,ALA,24hrs,0.01,4.5,1.35,No Treatment,2439,25,0.25,26.29166667,336.9305556,765.75,0,FALSE,FALSE,428.5,55.98156448,2.271775424,1
96,2439,E3,3,E,WT,ALA,24hrs,0.01,4.5,1.35,No Treatment,2439,25,0.25,20.125,345.0138889,779.5,0,FALSE,FALSE,434.1666667,55.72093189,2.258403446,1
97,2439,E4,4,E,WT,ALA,24hrs,0.01,4.5,1.35,No Treatment,2439,25,0.25,23.375,464.5138889,1001.916667,0,FALSE,FALSE,537.0833333,53.62268599,2.156226641,1
98,2439,E5,5,E,WT,ALA,24hrs,0.01,4.5,1.35,No Treatment,2439,25,0.25,36.375,528.5972222,1072.333333,0,FALSE,FALSE,543.4166667,50.69119648,2.028035419,1
99,2439,E6,6,E,WT,ALA,24hrs,0.01,4.5,1.35,No Treatment,2439,25,0.25,28.54166667,595.0138889,1144.333333,0,FALSE,FALSE,549,47.98892787,1.922667538,1
100,2439,E7,7,E,WT,ALA,24hrs,0.05,4.5,1.35,No Treatment,2439,10,0.5,29.875,513.0138889,884.5,0,FALSE,FALSE,371.1666667,41.97860543,1.723502179,2
101,2439,E8,8,E,WT,ALA,24hrs,0.05,4.5,1.35,No Treatment,2439,10,0.5,24.95833333,441.3472222,774.5,0,FALSE,FALSE,332.8333333,42.99169373,1.754130346,2
102,2439,E9,9,E,WT,ALA,24hrs,0.05,4.5,1.35,No Treatment,2439,10,0.5,23.45833333,380.3472222,637.3333333,0,FALSE,FALSE,256.6666667,40.29216178,1.674821983,2
103,2439,E10,10,E,WT,ALA,24hrs,0.05,4.5,1.35,No Treatment,2439,10,0.5,27.29166667,279.7638889,547.3333333,0,FALSE,FALSE,267.25,48.85616351,1.955269821,2
104,2439,E11,11,E,WT,ALA,24hrs,0.05,4.5,1.35,No Treatment,2439,10,0.5,17.20833333,269.5138889,492,0,FALSE,FALSE,222.1666667,45.18516426,1.824323628,2
105,2439,E12,12,E,WT,ALA,24hrs,0.05,4.5,1.35,No Treatment,2439,10,0.5,25.20833333,282.5972222,519.0833333,0,FALSE,FALSE,236.1666667,45.52488555,1.835700595,2
106,2439,F1,1,F,WT,ALA,24hrs,0.05,4.5,1.35,No Treatment,2439,5,0.25,33.625,379.7638889,796.5,0,FALSE,FALSE,416.4166667,52.30178805,2.096514647,3
107,2439,F2,2,F,WT,ALA,24hrs,0.05,4.5,1.35,No Treatment,2439,5,0.25,24.29166667,322.7638889,749.6666667,0,FALSE,FALSE,426.5833333,56.92732564,2.321657558,3
108,2439,F3,3,F,WT,ALA,24hrs,0.05,4.5,1.35,No Treatment,2439,5,0.25,17.70833333,303.5138889,693.3333333,0,FALSE,FALSE,389.5,56.20377979,2.283302064,3
109,2439,F4,4,F,WT,ALA,24hrs,0.05,4.5,1.35,No Treatment,2439,5,0.25,28.70833333,448.4305556,956.8333333,0,FALSE,FALSE,508.0833333,53.11823898,2.133025676,3
110,2439,F5,5,F,WT,ALA,24hrs,0.05,4.5,1.35,No Treatment,2439,5,0.25,32.125,663.0972222,1266.833333,0,FALSE,FALSE,603.4166667,47.64390442,1.909997277,3
111,2439,F6,6,F,WT,ALA,24hrs,0.05,4.5,1.35,No Treatment,2439,5,0.25,39.20833333,622.0138889,1185.25,0,FALSE,FALSE,562.9166667,47.50630018,1.90499051,3
112,2439,F8,8,F,WT,ALA,24hrs,0.1,4.5,1.35,No Treatment,2439,5,0.5,26.625,249.3472222,513.1666667,0,FALSE,FALSE,263.5,51.37982397,2.056759316,4
113,2439,F10,10,F,WT,ALA,24hrs,0.1,4.5,1.35,No Treatment,2439,5,0.5,21.29166667,227.0972222,458.4166667,0,FALSE,FALSE,231,50.42597702,2.017185493,4
114,2439,F11,11,F,WT,ALA,24hrs,0.1,4.5,1.35,No Treatment,2439,5,0.5,16.29166667,310.2638889,594.6666667,0,FALSE,FALSE,284.0833333,47.79753698,1.915618425,4
115,2439,F12,12,F,WT,ALA,24hrs,0.1,4.5,1.35,No Treatment,2439,5,0.5,14.79166667,261.2638889,523.3333333,0,FALSE,FALSE,261.75,50.0464721,2.001860613,4
116,2439,G1,1,G,WT,ALA,24hrs,0.1,4.5,1.35,No Treatment,2439,3.333333333,0.333333333,32.54166667,294.0972222,604.0833333,0,FALSE,FALSE,309.6666667,51.28936532,2.052939787,5
117,2439,G2,2,G,WT,ALA,24hrs,0.1,4.5,1.35,No Treatment,2439,3.333333333,0.333333333,29.95833333,378.0972222,789.5,0,FALSE,FALSE,411.0833333,52.08989634,2.087242405,5
118,2439,G3,3,G,WT,ALA,24hrs,0.1,4.5,1.35,No Treatment,2439,3.333333333,0.333333333,33.04166667,381.1805556,782.1666667,0,FALSE,FALSE,400.6666667,51.24615849,2.051120423,5
119,2439,G4,4,G,WT,ALA,24hrs,0.1,4.5,1.35,No Treatment,2439,3.333333333,0.333333333,31.29166667,486.0972222,963.8333333,0,FALSE,FALSE,477.4166667,49.54953656,1.982142347,5
120,2439,G5,5,G,WT,ALA,24hrs,0.1,4.5,1.35,No Treatment,2439,3.333333333,0.333333333,44.95833333,623.1805556,1152.916667,0,FALSE,FALSE,529.4166667,45.93249545,1.849539771,5
121,2439,G6,6,G,WT,ALA,24hrs,0.1,4.5,1.35,No Treatment,2439,3.333333333,0.333333333,23.95833333,636.5972222,1083.75,0,FALSE,FALSE,446.8333333,41.2424526,1.701909021,5
122,2439,G7,7,G,WT,ALA,24hrs,0.25,4.5,1.35,No Treatment,2439,1,0.25,19.20833333,427.3472222,851.75,0,FALSE,FALSE,424.0833333,49.80832912,1.992362443,6
123,2439,G8,8,G,WT,ALA,24hrs,0.25,4.5,1.35,No Treatment,2439,1,0.25,16.54166667,307.9305556,629.5833333,0,FALSE,FALSE,321.3333333,51.06495685,2.043525326,6
124,2439,G9,9,G,WT,ALA,24hrs,0.25,4.5,1.35,No Treatment,2439,1,0.25,23.54166667,235.0972222,475.75,0,FALSE,FALSE,240.3333333,50.55067044,2.02227211,6
125,2439,G11,11,G,WT,ALA,24hrs,0.25,4.5,1.35,No Treatment,2439,1,0.25,11.79166667,229.7638889,509.25,0,FALSE,FALSE,279.1666667,54.85358732,2.215015414,6
126,2439,G12,12,G,WT,ALA,24hrs,0.25,4.5,1.35,No Treatment,2439,1,0.25,15.875,281.2638889,587.5,0,FALSE,FALSE,305.9166667,52.09925018,2.087649993,6
127,2439,H2,2,H,WT,ALA,24hrs,0.5,4.5,1.35,No Treatment,2439,0.5,0.25,17.625,330.4305556,713.1666667,0,FALSE,FALSE,382.4166667,53.64637116,2.157328401,7
128,2439,H3,3,H,WT,ALA,24hrs,0.5,4.5,1.35,No Treatment,2439,0.5,0.25,21.95833333,326.0138889,742.0833333,0,FALSE,FALSE,415.75,56.04883255,2.275252418,7
129,2439,H4,4,H,WT,ALA,24hrs,0.5,4.5,1.35,No Treatment,2439,0.5,0.25,37.375,383.5138889,813.6666667,0,FALSE,FALSE,429.8333333,52.84745821,2.120776446,7
130,2439,H5,5,H,WT,ALA,24hrs,0.5,4.5,1.35,No Treatment,2439,0.5,0.25,24.45833333,427.0972222,899.0833333,0,FALSE,FALSE,471.6666667,52.47948571,2.10435433,7
131,2439,H6,6,H,WT,ALA,24hrs,0.5,4.5,1.35,No Treatment,2439,0.5,0.25,30.95833333,489.3472222,998.0833333,0,FALSE,FALSE,508.4166667,50.95560907,2.038969148,7
132,2439,H7,7,H,WT,ALA,24hrs,300,4.5,1.35,No Treatment,2439,0,1,42.45833333,518.9305556,808.5833333,0,FALSE,FALSE,289.3333333,35.79688977,1.557556941,8
133,2439,H8,8,H,WT,ALA,24hrs,300,4.5,1.35,No Treatment,2439,0,1,12.54166667,302.4305556,522.5,0,FALSE,FALSE,219.75,42.08314493,1.726613088,8
134,2439,H9,9,H,WT,ALA,24hrs,300,4.5,1.35,No Treatment,2439,0,1,8.375,181.4305556,351.4166667,0,FALSE,FALSE,169.6666667,48.32469639,1.935160377,8
135,2439,H11,11,H,WT,ALA,24hrs,300,4.5,1.35,No Treatment,2439,0,1,6.375,202.0972222,400.5833333,0,FALSE,FALSE,198.1666667,49.50900448,1.980551165,8
136,2439,H12,12,H,WT,ALA,24hrs,300,4.5,1.35,No Treatment,2439,0,1,2.625,189.1805556,375.9166667,0,FALSE,FALSE,186.4166667,49.63206745,1.985390206,8
137,2477,E1,1,E,WT,ALA,24hrs,0.01,4.5,1.35,No Treatment,2477,25,0.25,53.33333333,782.4583333,1412,1,FALSE,FALSE,536.0909091,40.65763279,1.685136686,1
138,2477,E2,2,E,WT,ALA,24hrs,0.01,4.5,1.35,No Treatment,2477,25,0.25,47.53030303,951.1325758,1658.25,0,FALSE,FALSE,613.6666667,39.21695832,1.64519572,1
139,2477,E3,3,E,WT,ALA,24hrs,0.01,4.5,1.35,No Treatment,2477,25,0.25,62.4469697,1046.799242,1821.583333,0,FALSE,FALSE,681.3333333,39.4259875,1.650872971,1
140,2477,E4,4,E,WT,ALA,24hrs,0.01,4.5,1.35,No Treatment,2477,25,0.25,55.86363636,985.9659091,1786.833333,0,FALSE,FALSE,707.4166667,41.77535997,1.717485929,1
141,2477,E5,5,E,WT,ALA,24hrs,0.01,4.5,1.35,No Treatment,2477,25,0.25,57.61363636,1082.715909,1902,0,FALSE,FALSE,725.8333333,40.13345704,1.670382071,1
142,2477,E6,6,E,WT,ALA,24hrs,0.01,4.5,1.35,No Treatment,2477,25,0.25,58.1969697,1126.132576,1888.833333,0,FALSE,FALSE,669.25,37.27617774,1.594290596,1
143,2477,E7,7,E,WT,ALA,24hrs,0.05,4.5,1.35,No Treatment,2477,10,0.5,58.28030303,1144.882576,1809.083333,0,FALSE,FALSE,570.75,33.26761266,1.498522741,2
144,2477,E8,8,E,WT,ALA,24hrs,0.05,4.5,1.35,No Treatment,2477,10,0.5,60.36363636,1109.549242,1726.666667,0,FALSE,FALSE,523.6666667,32.06352961,1.47196343,2
145,2477,E9,9,E,WT,ALA,24hrs,0.05,4.5,1.35,No Treatment,2477,10,0.5,80.61363636,1219.132576,1887.666667,0,FALSE,FALSE,575.0833333,32.05206968,1.471715173,2
146,2477,E10,10,E,WT,ALA,24hrs,0.05,4.5,1.35,No Treatment,2477,10,0.5,91.1969697,1363.049242,2062.666667,0,FALSE,FALSE,606.1666667,30.78213333,1.444713696,2
147,2477,E11,11,E,WT,ALA,24hrs,0.05,4.5,1.35,No Treatment,2477,10,0.5,63.78030303,1002.299242,1544.166667,0,FALSE,FALSE,448.4166667,30.91002614,1.447388013,2
148,2477,E12,12,E,WT,ALA,24hrs,0.05,4.5,1.35,No Treatment,2477,10,0.5,52.11363636,928.9659091,1472.583333,0,FALSE,FALSE,450.1666667,32.64129023,1.484589006,2
149,2477,F1,1,F,WT,ALA,24hrs,0.05,4.5,1.35,No Treatment,2477,5,0.25,48.78030303,867.7159091,1545.333333,0,FALSE,FALSE,584.1666667,40.23511794,1.673223414,3
150,2477,F2,2,F,WT,ALA,24hrs,0.05,4.5,1.35,No Treatment,2477,5,0.25,67.78030303,919.2159091,1629.333333,0,FALSE,FALSE,616.6666667,40.15063888,1.670861612,3
151,2477,F3,3,F,WT,ALA,24hrs,0.05,4.5,1.35,No Treatment,2477,5,0.25,71.36363636,932.4659091,1645.5,0,FALSE,FALSE,619.5833333,39.92033992,1.664456821,3
152,2477,F4,4,F,WT,ALA,24hrs,0.05,4.5,1.35,No Treatment,2477,5,0.25,50.11363636,954.7992424,1642.583333,0,FALSE,FALSE,594.3333333,38.36555648,1.622469423,3
153,2477,F5,5,F,WT,ALA,24hrs,0.05,4.5,1.35,No Treatment,2477,5,0.25,58.61363636,1040.299242,1811.916667,0,FALSE,FALSE,678.1666667,39.46349259,1.651895761,3
154,2477,F6,6,F,WT,ALA,24hrs,0.05,4.5,1.35,No Treatment,2477,5,0.25,77.28030303,1101.632576,1901.833333,0,FALSE,FALSE,706.75,39.08188508,1.64154784,3
155,2477,F7,7,F,WT,ALA,24hrs,0.1,4.5,1.35,No Treatment,2477,5,0.5,50.28030303,1067.882576,1630.416667,0,FALSE,FALSE,469.0833333,30.52008705,1.4392649,4
156,2477,F8,8,F,WT,ALA,24hrs,0.1,4.5,1.35,No Treatment,2477,5,0.5,86.9469697,1085.965909,1696.75,0,FALSE,FALSE,517.3333333,32.26679834,1.476380823,4
157,2477,F9,9,F,WT,ALA,24hrs,0.1,4.5,1.35,No Treatment,2477,5,0.5,86.9469697,1205.632576,1861.333333,0,FALSE,FALSE,562.25,31.80358287,1.466352694,4
158,2477,F10,10,F,WT,ALA,24hrs,0.1,4.5,1.35,No Treatment,2477,5,0.5,73.28030303,1199.965909,1857.416667,0,FALSE,FALSE,564,31.97340703,1.470013353,4
159,2477,F11,11,F,WT,ALA,24hrs,0.1,4.5,1.35,No Treatment,2477,5,0.5,61.53030303,1072.715909,1642.833333,0,FALSE,FALSE,476.6666667,30.76494302,1.44435499,4
160,2477,F12,12,F,WT,ALA,24hrs,0.1,4.5,1.35,No Treatment,2477,5,0.5,59.33333333,969.1856061,1554.636364,1,FALSE,FALSE,492,33.67128707,1.507642702,4
161,2477,G1,1,G,WT,ALA,24hrs,0.1,4.5,1.35,No Treatment,2477,3.333333333,0.333333333,44.78030303,923.5492424,1524,0,FALSE,FALSE,507,35.4409331,1.548969104,5
162,2477,G2,2,G,WT,ALA,24hrs,0.1,4.5,1.35,No Treatment,2477,3.333333333,0.333333333,44.78030303,1011.132576,1640.333333,0,FALSE,FALSE,535.75,34.63417381,1.529851389,5
163,2477,G3,3,G,WT,ALA,24hrs,0.1,4.5,1.35,No Treatment,2477,3.333333333,0.333333333,76.1969697,1135.465909,1845.666667,0,FALSE,FALSE,616.75,35.19828788,1.543169104,5
164,2477,G4,4,G,WT,ALA,24hrs,0.1,4.5,1.35,No Treatment,2477,3.333333333,0.333333333,57.78030303,1120.465909,1839.75,0,FALSE,FALSE,625.8333333,35.8376914,1.558547412,5
165,2477,G5,5,G,WT,ALA,24hrs,0.1,4.5,1.35,No Treatment,2477,3.333333333,0.333333333,42.0969697,989.7492424,1560.8,2,FALSE,FALSE,477.6,32.54848854,1.482546467,5
166,2477,G6,6,G,WT,ALA,24hrs,0.1,4.5,1.35,No Treatment,2477,3.333333333,0.333333333,63.15151515,894.7310606,1481.454545,1,FALSE,FALSE,493.2727273,35.53828394,1.551308375,5
167,2477,G7,7,G,WT,ALA,24hrs,0.25,4.5,1.35,No Treatment,2477,1,0.25,66.42424242,1103.458333,1897.545455,1,FALSE,FALSE,700.6363636,38.8358973,1.634945917,6
168,2477,G8,8,G,WT,ALA,24hrs,0.25,4.5,1.35,No Treatment,2477,1,0.25,50.1969697,884.2159091,1581.166667,0,FALSE,FALSE,603.5,40.56554053,1.682525607,6
169,2477,G9,9,G,WT,ALA,24hrs,0.25,4.5,1.35,No Treatment,2477,1,0.25,62.28030303,982.7992424,1708.916667,0,FALSE,FALSE,632.6666667,39.16310849,1.643739473,6
170,2477,G10,10,G,WT,ALA,24hrs,0.25,4.5,1.35,No Treatment,2477,1,0.25,50.03030303,856.9659091,1476.916667,0,FALSE,FALSE,526.5,38.0565937,1.614376832,6
171,2477,G11,11,G,WT,ALA,24hrs,0.25,4.5,1.35,No Treatment,2477,1,0.25,43.33333333,924.1856061,1608.636364,1,FALSE,FALSE,591,39.00512238,1.639481935,6
172,2477,G12,12,G,WT,ALA,24hrs,0.25,4.5,1.35,No Treatment,2477,1,0.25,51.36363636,916.6325758,1635.583333,0,FALSE,FALSE,625.5,40.56071507,1.682389014,6
173,2477,H1,1,H,WT,ALA,24hrs,0.5,4.5,1.35,No Treatment,2477,0.5,0.25,51.86363636,790.7159091,1393.25,0,FALSE,FALSE,509.0833333,39.16630482,1.643825839,7
174,2477,H3,3,H,WT,ALA,24hrs,0.5,4.5,1.35,No Treatment,2477,0.5,0.25,46.4469697,695.3825758,1292.333333,0,FALSE,FALSE,503.5,41.9974408,1.724061858,7
175,2477,H4,4,H,WT,ALA,24hrs,0.5,4.5,1.35,No Treatment,2477,0.5,0.25,45.78030303,780.4659091,1388.833333,0,FALSE,FALSE,514.9166667,39.75016156,1.659755488,7
176,2477,H6,6,H,WT,ALA,24hrs,0.5,4.5,1.35,No Treatment,2477,0.5,0.25,35.03030303,663.7992424,1179.75,0,FALSE,FALSE,422.5,38.89351879,1.63648762,7
177,2477,H8,8,H,WT,ALA,24hrs,300,4.5,1.35,No Treatment,2477,0,1,56.4469697,921.7992424,1336.333333,0,FALSE,FALSE,321.0833333,25.83376254,1.34832241,8
178,2477,H9,9,H,WT,ALA,24hrs,300,4.5,1.35,No Treatment,2477,0,1,61.11363636,983.2159091,1414.666667,0,FALSE,FALSE,338,25.58249546,1.343769865,8
179,2477,H10,10,H,WT,ALA,24hrs,300,4.5,1.35,No Treatment,2477,0,1,67.1969697,1024.215909,1490.666667,0,FALSE,FALSE,373,26.69594567,1.364181025,8
180,2477,H11,11,H,WT,ALA,24hrs,300,4.5,1.35,No Treatment,2477,0,1,54.33333333,882.8219697,1327.545455,1,FALSE,FALSE,351.2727273,28.46400103,1.397897582,8
181,2477,H12,12,H,WT,ALA,24hrs,300,4.5,1.35,No Treatment,2477,0,1,49.15151515,904.8219697,1360.181818,1,FALSE,FALSE,361.9090909,28.5703179,1.399978231,8
