,Batch,Well,WellNum,WellLetter,CellType,ALA,ALAincubation,duration,irradiance,Fluence,Drug,Batch.1,Frequency,DutyCycle,MeasA.Result,MeasB.Result,MeasB.PreTreatment,NscanOutliers,MeasB.Outlier,is.outlier,Meas.baseDiff.Result,Meas.percentChange.Result,Meas.foldChange.Result
1,2439,A1,1,A,WT,ALA,24hrs,1200,0,0,No Treatment,2439,0,1,28.125,702.5138889,775.9166667,0,FALSE,FALSE,73.08333333,9.422846194,1.104031158
2,2439,A2,2,A,WT,ALA,24hrs,1200,0,0,No Treatment,2439,0,1,23.54166667,732.5972222,832.3333333,0,FALSE,FALSE,99.41666667,11.94891912,1.1357044
3,2439,A3,3,A,WT,ALA,24hrs,1200,0,0,No Treatment,2439,0,1,19.95833333,763.8472222,855.0833333,0,FALSE,FALSE,90.91666667,10.63646556,1.119024674
4,2439,A4,4,A,WT,ALA,24hrs,1200,0,0,No Treatment,2439,0,1,38.58712121,932.4987374,984.4545455,1,FALSE,FALSE,51.63636364,5.246877546,1.055374191
5,2439,A5,5,A,WT,ALA,24hrs,1200,0,0,No Treatment,2439,0,1,33.125,913.2638889,949.75,0,FALSE,FALSE,36.16666667,3.809300897,1.039601551
6,2439,A6,6,A,WT,ALA,24hrs,1200,0,0,No Treatment,2439,0,1,35.125,786.1805556,831.5,0,FALSE,FALSE,45,5.413986131,1.05723876
7,2439,A7,7,A,WT,noALA,24hrs,1200,0,0,No Treatment,2439,0,1,-2.458333333,1.263888889,70.5,0,FALSE,FALSE,68.91666667,98.19908965,55.52747253
8,2439,A8,8,A,WT,noALA,24hrs,1200,0,0,No Treatment,2439,0,1,1.541666667,-0.319444444,65.5,0,FALSE,FALSE,65.5,100.4900916,-204.0434783
9,2439,A9,9,A,WT,noALA,24hrs,1200,0,0,No Treatment,2439,0,1,1.041666667,0.013888889,53.75,0,FALSE,FALSE,53.41666667,99.97400572,3847
10,2439,A10,10,A,WT,noALA,24hrs,1200,0,0,No Treatment,2439,0,1,-4.125,-0.319444444,62,0,FALSE,FALSE,62,100.5179014,-193.0869565
11,2439,A11,11,A,WT,noALA,24hrs,1200,0,0,No Treatment,2439,0,1,3.625,-0.319444444,63.58333333,0,FALSE,FALSE,63.58333333,100.5049396,-198.0434783
12,2439,A12,12,A,WT,noALA,24hrs,1200,0,0,No Treatment,2439,0,1,0.375,-0.319444444,54.91666667,0,FALSE,FALSE,54.91666667,100.5850929,-170.9130435
13,2439,B1,1,B,WT,ALA,24hrs,1200,0,0,No Treatment,2439,0,1,27.04166667,736.2638889,830.6666667,0,FALSE,FALSE,94.08333333,11.33060132,1.127784799
14,2439,B2,2,B,WT,ALA,24hrs,1200,0.75,0.9,No Treatment,2439,0,1,21.875,427.0972222,833.4166667,0,FALSE,FALSE,406,48.73380791,1.950603232
15,2439,B3,3,B,WT,ALA,24hrs,1200,0.75,0.9,No Treatment,2439,0,1,20.375,497.1805556,925.8333333,0,FALSE,FALSE,428.3333333,46.28059486,1.861524709
16,2439,B4,4,B,WT,ALA,24hrs,1200,0.75,0.9,No Treatment,2439,0,1,24.875,599.5972222,1074.583333,0,FALSE,FALSE,474.6666667,44.18529484,1.791642538
17,2439,B5,5,B,WT,ALA,24hrs,1200,0.75,0.9,No Treatment,2439,0,1,25.625,649.0138889,1101.333333,0,FALSE,FALSE,452,41.05306977,1.696441182
18,2439,B6,6,B,WT,ALA,24hrs,1200,0.75,0.9,No Treatment,2439,0,1,29.76893939,704.5896465,1081.363636,1,FALSE,FALSE,376.4545455,34.82323371,1.534289068
19,2439,B7,7,B,WT,ALA,24hrs,1200,0.75,0.9,No Treatment,2439,0,1,20.375,496.0138889,799,0,FALSE,FALSE,302.6666667,37.89583514,1.610197967
20,2439,B8,8,B,WT,ALA,24hrs,1200,0.75,0.9,No Treatment,2439,0,1,22.04166667,400.2638889,667.4166667,0,FALSE,FALSE,266.8333333,39.9991672,1.666643534
21,2439,B9,9,B,WT,ALA,24hrs,1200,1.5,1.8,No Treatment,2439,0,1,13.625,127.2638889,404.3333333,0,FALSE,TRUE,276.75,68.50012032,3.174615301
22,2439,B10,10,B,WT,ALA,24hrs,1200,1.5,1.8,No Treatment,2439,0,1,8.041666667,135.9305556,441.9166667,0,FALSE,TRUE,305.6666667,69.21843057,3.248697251
23,2439,B11,11,B,WT,ALA,24hrs,1200,1.5,1.8,No Treatment,2439,0,1,5.541666667,150.2638889,475.5,0,FALSE,TRUE,324.9166667,68.37751732,3.162307052
24,2439,B12,12,B,WT,ALA,24hrs,1200,1.5,1.8,No Treatment,2439,0,1,14.49621212,142.5896465,446.8181818,1,FALSE,TRUE,303.9090909,68.06493848,3.131354544
25,2439,C1,1,C,WT,ALA,24hrs,1200,4.5,5.4,No Treatment,2439,0,1,40.625,188.0972222,735.4166667,0,FALSE,FALSE,547,74.41192586,3.90807059
26,2439,C2,2,C,WT,ALA,24hrs,1200,4.5,5.4,No Treatment,2439,0,1,47.04166667,190.2638889,774.3333333,0,FALSE,FALSE,583.75,75.41854331,4.068107161
27,2439,C3,3,C,WT,ALA,24hrs,1200,3,3.6,No Treatment,2439,0,1,37.20833333,262.3472222,914.25,0,FALSE,FALSE,651.5833333,71.29462183,3.483667743
28,2439,C4,4,C,WT,ALA,24hrs,1200,3,3.6,No Treatment,2439,0,1,38.375,401.4305556,1278.916667,0,FALSE,FALSE,877.1666667,68.60383015,3.185101893
29,2439,C5,5,C,WT,ALA,24hrs,1200,3,3.6,No Treatment,2439,0,1,39.79166667,368.5138889,1210.75,0,FALSE,FALSE,841.9166667,69.55513993,3.284626691
30,2439,C6,6,C,WT,ALA,24hrs,1200,3,3.6,No Treatment,2439,0,1,47.04166667,331.2638889,1114.916667,0,FALSE,FALSE,783.3333333,70.27949807,3.364680726
31,2439,C7,7,C,WT,ALA,24hrs,1200,3,3.6,No Treatment,2439,0,1,25.79166667,296.5972222,937.5833333,0,FALSE,FALSE,640.6666667,68.35499311,3.160056193
32,2439,C8,8,C,WT,ALA,24hrs,1200,3,3.6,No Treatment,2439,0,1,13.20833333,79.51388889,487.3333333,0,FALSE,FALSE,407.5,83.67317838,6.12489083
33,2439,C9,9,C,WT,ALA,24hrs,1200,3,3.6,No Treatment,2439,0,1,15.79166667,86.18055556,434.6666667,0,FALSE,FALSE,348.1666667,80.15860327,5.039967768
34,2439,C10,10,C,WT,ALA,24hrs,1200,1.5,1.8,No Treatment,2439,0,1,5.541666667,189.1805556,536.0833333,0,FALSE,FALSE,346.5833333,64.68956578,2.83202408
35,2439,C11,11,C,WT,ALA,24hrs,1200,1.5,1.8,No Treatment,2439,0,1,16.125,188.1805556,514.8333333,0,FALSE,FALSE,326.3333333,63.4255635,2.734150122
36,2439,C12,12,C,WT,ALA,24hrs,1200,1.5,1.8,No Treatment,2439,0,1,21.95833333,249.3472222,608.3333333,0,FALSE,FALSE,358.6666667,58.98988053,2.438422548
37,2439,D1,1,D,WT,ALA,24hrs,1200,4.5,5.4,No Treatment,2439,0,1,29.04166667,213.4305556,803.1666667,0,FALSE,FALSE,589.4166667,73.41579448,3.761632069
38,2439,D2,2,D,WT,ALA,24hrs,1200,4.5,5.4,No Treatment,2439,0,1,24.45833333,198.9305556,806,0,FALSE,FALSE,606.75,75.30900378,4.050059345
39,2439,D3,3,D,WT,ALA,24hrs,1200,4.5,5.4,No Treatment,2439,0,1,43.625,213.4305556,888.25,0,FALSE,FALSE,674.5,75.96314777,4.160278519
40,2439,D4,4,D,WT,ALA,24hrs,1200,4.5,5.4,No Treatment,2439,0,1,25.125,254.7638889,1119.666667,0,FALSE,FALSE,864.5833333,77.23995881,4.393665158
41,2439,D5,5,D,WT,ALA,24hrs,1200,4.5,5.4,No Treatment,2439,0,1,35.44166667,250.4805556,1168,2,FALSE,FALSE,917.2,78.54888014,4.661761281
42,2439,D6,6,D,WT,ALA,24hrs,1200,6,7.2,No Treatment,2439,0,1,33.79166667,224.5138889,1111.083333,0,FALSE,FALSE,886.25,79.78743357,4.94741726
43,2439,D7,7,D,WT,ALA,24hrs,1200,6,7.2,No Treatment,2439,0,1,19.625,171.4305556,914.8333333,0,FALSE,FALSE,743.0833333,81.25446123,5.334602609
44,2439,D8,8,D,WT,ALA,24hrs,1200,6,7.2,No Treatment,2439,0,1,28.375,85.84722222,559.8333333,0,FALSE,FALSE,473.6666667,84.65682016,6.517553794
45,2439,D9,9,D,WT,ALA,24hrs,1200,6,7.2,No Treatment,2439,0,1,27.70833333,90.43055556,564.6666667,0,FALSE,FALSE,473.9166667,83.97607856,6.240669636
46,2439,D10,10,D,WT,ALA,24hrs,1200,6,7.2,No Treatment,2439,0,1,29.875,60.18055556,548.6666667,0,FALSE,FALSE,488.1666667,89.02510068,9.1117009
47,2439,D11,11,D,WT,ALA,24hrs,1200,6,7.2,No Treatment,2439,0,1,41.625,114.2638889,596.25,0,FALSE,FALSE,481.6666667,80.82597245,5.215388355
48,2439,D12,12,D,WT,ALA,24hrs,1200,6,7.2,No Treatment,2439,0,1,20.95833333,83.51388889,492.8333333,0,FALSE,FALSE,409,83.04334339,5.897388991
49,2439,E1,1,E,WT,ALA,24hrs,0.01,4.5,1.35,No Treatment,2439,25,0.25,44.125,366.0972222,788.5,0,FALSE,FALSE,422.0833333,53.55160443,2.152926894
50,2439,E2,2,E,WT,ALA,24hrs,0.01,4.5,1.35,No Treatment,2439,25,0.25,26.29166667,336.9305556,765.75,0,FALSE,FALSE,428.5,55.98156448,2.271775424
51,2439,E3,3,E,WT,ALA,24hrs,0.01,4.5,1.35,No Treatment,2439,25,0.25,20.125,345.0138889,779.5,0,FALSE,FALSE,434.1666667,55.72093189,2.258403446
52,2439,E4,4,E,WT,ALA,24hrs,0.01,4.5,1.35,No Treatment,2439,25,0.25,23.375,464.5138889,1001.916667,0,FALSE,FALSE,537.0833333,53.62268599,2.156226641
53,2439,E5,5,E,WT,ALA,24hrs,0.01,4.5,1.35,No Treatment,2439,25,0.25,36.375,528.5972222,1072.333333,0,FALSE,FALSE,543.4166667,50.69119648,2.028035419
54,2439,E6,6,E,WT,ALA,24hrs,0.01,4.5,1.35,No Treatment,2439,25,0.25,28.54166667,595.0138889,1144.333333,0,FALSE,FALSE,549,47.98892787,1.922667538
55,2439,E7,7,E,WT,ALA,24hrs,0.05,4.5,1.35,No Treatment,2439,10,0.5,29.875,513.0138889,884.5,0,FALSE,FALSE,371.1666667,41.97860543,1.723502179
56,2439,E8,8,E,WT,ALA,24hrs,0.05,4.5,1.35,No Treatment,2439,10,0.5,24.95833333,441.3472222,774.5,0,FALSE,FALSE,332.8333333,42.99169373,1.754130346
57,2439,E9,9,E,WT,ALA,24hrs,0.05,4.5,1.35,No Treatment,2439,10,0.5,23.45833333,380.3472222,637.3333333,0,FALSE,FALSE,256.6666667,40.29216178,1.674821983
58,2439,E10,10,E,WT,ALA,24hrs,0.05,4.5,1.35,No Treatment,2439,10,0.5,27.29166667,279.7638889,547.3333333,0,FALSE,FALSE,267.25,48.85616351,1.955269821
59,2439,E11,11,E,WT,ALA,24hrs,0.05,4.5,1.35,No Treatment,2439,10,0.5,17.20833333,269.5138889,492,0,FALSE,FALSE,222.1666667,45.18516426,1.824323628
60,2439,E12,12,E,WT,ALA,24hrs,0.05,4.5,1.35,No Treatment,2439,10,0.5,25.20833333,282.5972222,519.0833333,0,FALSE,FALSE,236.1666667,45.52488555,1.835700595
61,2439,F1,1,F,WT,ALA,24hrs,0.05,4.5,1.35,No Treatment,2439,5,0.25,33.625,379.7638889,796.5,0,FALSE,FALSE,416.4166667,52.30178805,2.096514647
62,2439,F2,2,F,WT,ALA,24hrs,0.05,4.5,1.35,No Treatment,2439,5,0.25,24.29166667,322.7638889,749.6666667,0,FALSE,FALSE,426.5833333,56.92732564,2.321657558
63,2439,F3,3,F,WT,ALA,24hrs,0.05,4.5,1.35,No Treatment,2439,5,0.25,17.70833333,303.5138889,693.3333333,0,FALSE,FALSE,389.5,56.20377979,2.283302064
64,2439,F4,4,F,WT,ALA,24hrs,0.05,4.5,1.35,No Treatment,2439,5,0.25,28.70833333,448.4305556,956.8333333,0,FALSE,FALSE,508.0833333,53.11823898,2.133025676
65,2439,F5,5,F,WT,ALA,24hrs,0.05,4.5,1.35,No Treatment,2439,5,0.25,32.125,663.0972222,1266.833333,0,FALSE,FALSE,603.4166667,47.64390442,1.909997277
66,2439,F6,6,F,WT,ALA,24hrs,0.05,4.5,1.35,No Treatment,2439,5,0.25,39.20833333,622.0138889,1185.25,0,FALSE,FALSE,562.9166667,47.50630018,1.90499051
67,2439,F7,7,F,WT,ALA,24hrs,0.1,4.5,1.35,No Treatment,2439,5,0.5,40.54166667,426.6805556,758,10,FALSE,TRUE,331,43.68595678,1.775755998
68,2439,F8,8,F,WT,ALA,24hrs,0.1,4.5,1.35,No Treatment,2439,5,0.5,26.625,249.3472222,513.1666667,0,FALSE,FALSE,263.5,51.37982397,2.056759316
69,2439,F9,9,F,WT,ALA,24hrs,0.1,4.5,1.35,No Treatment,2439,5,0.5,15.04166667,130.5138889,340.4166667,0,FALSE,TRUE,209.5833333,61.62453547,2.605831648
70,2439,F10,10,F,WT,ALA,24hrs,0.1,4.5,1.35,No Treatment,2439,5,0.5,21.29166667,227.0972222,458.4166667,0,FALSE,FALSE,231,50.42597702,2.017185493
71,2439,F11,11,F,WT,ALA,24hrs,0.1,4.5,1.35,No Treatment,2439,5,0.5,16.29166667,310.2638889,594.6666667,0,FALSE,FALSE,284.0833333,47.79753698,1.915618425
72,2439,F12,12,F,WT,ALA,24hrs,0.1,4.5,1.35,No Treatment,2439,5,0.5,14.79166667,261.2638889,523.3333333,0,FALSE,FALSE,261.75,50.0464721,2.001860613
73,2439,G1,1,G,WT,ALA,24hrs,0.1,4.5,1.35,No Treatment,2439,3.333333333,0.333333333,32.54166667,294.0972222,604.0833333,0,FALSE,FALSE,309.6666667,51.28936532,2.052939787
74,2439,G2,2,G,WT,ALA,24hrs,0.1,4.5,1.35,No Treatment,2439,3.333333333,0.333333333,29.95833333,378.0972222,789.5,0,FALSE,FALSE,411.0833333,52.08989634,2.087242405
75,2439,G3,3,G,WT,ALA,24hrs,0.1,4.5,1.35,No Treatment,2439,3.333333333,0.333333333,33.04166667,381.1805556,782.1666667,0,FALSE,FALSE,400.6666667,51.24615849,2.051120423
76,2439,G4,4,G,WT,ALA,24hrs,0.1,4.5,1.35,No Treatment,2439,3.333333333,0.333333333,31.29166667,486.0972222,963.8333333,0,FALSE,FALSE,477.4166667,49.54953656,1.982142347
77,2439,G5,5,G,WT,ALA,24hrs,0.1,4.5,1.35,No Treatment,2439,3.333333333,0.333333333,44.95833333,623.1805556,1152.916667,0,FALSE,FALSE,529.4166667,45.93249545,1.849539771
78,2439,G6,6,G,WT,ALA,24hrs,0.1,4.5,1.35,No Treatment,2439,3.333333333,0.333333333,23.95833333,636.5972222,1083.75,0,FALSE,FALSE,446.8333333,41.2424526,1.701909021
79,2439,G7,7,G,WT,ALA,24hrs,0.25,4.5,1.35,No Treatment,2439,1,0.25,19.20833333,427.3472222,851.75,0,FALSE,FALSE,424.0833333,49.80832912,1.992362443
80,2439,G8,8,G,WT,ALA,24hrs,0.25,4.5,1.35,No Treatment,2439,1,0.25,16.54166667,307.9305556,629.5833333,0,FALSE,FALSE,321.3333333,51.06495685,2.043525326
81,2439,G9,9,G,WT,ALA,24hrs,0.25,4.5,1.35,No Treatment,2439,1,0.25,23.54166667,235.0972222,475.75,0,FALSE,FALSE,240.3333333,50.55067044,2.02227211
82,2439,G10,10,G,WT,ALA,24hrs,0.25,4.5,1.35,No Treatment,2439,1,0.25,0.375,130.0138889,356.9166667,0,FALSE,TRUE,226.5833333,63.54040896,2.742762525
83,2439,G11,11,G,WT,ALA,24hrs,0.25,4.5,1.35,No Treatment,2439,1,0.25,11.79166667,229.7638889,509.25,0,FALSE,FALSE,279.1666667,54.85358732,2.215015414
84,2439,G12,12,G,WT,ALA,24hrs,0.25,4.5,1.35,No Treatment,2439,1,0.25,15.875,281.2638889,587.5,0,FALSE,FALSE,305.9166667,52.09925018,2.087649993
85,2439,H1,1,H,WT,ALA,24hrs,0.5,4.5,1.35,No Treatment,2439,0.5,0.25,576.2083333,397.8472222,267.5833333,0,FALSE,TRUE,-130.5833333,-48.85932547,0.671775179
86,2439,H2,2,H,WT,ALA,24hrs,0.5,4.5,1.35,No Treatment,2439,0.5,0.25,17.625,330.4305556,713.1666667,0,FALSE,FALSE,382.4166667,53.64637116,2.157328401
87,2439,H3,3,H,WT,ALA,24hrs,0.5,4.5,1.35,No Treatment,2439,0.5,0.25,21.95833333,326.0138889,742.0833333,0,FALSE,FALSE,415.75,56.04883255,2.275252418
88,2439,H4,4,H,WT,ALA,24hrs,0.5,4.5,1.35,No Treatment,2439,0.5,0.25,37.375,383.5138889,813.6666667,0,FALSE,FALSE,429.8333333,52.84745821,2.120776446
89,2439,H5,5,H,WT,ALA,24hrs,0.5,4.5,1.35,No Treatment,2439,0.5,0.25,24.45833333,427.0972222,899.0833333,0,FALSE,FALSE,471.6666667,52.47948571,2.10435433
90,2439,H6,6,H,WT,ALA,24hrs,0.5,4.5,1.35,No Treatment,2439,0.5,0.25,30.95833333,489.3472222,998.0833333,0,FALSE,FALSE,508.4166667,50.95560907,2.038969148
91,2439,H7,7,H,WT,ALA,24hrs,300,4.5,1.35,No Treatment,2439,0,1,42.45833333,518.9305556,808.5833333,0,FALSE,FALSE,289.3333333,35.79688977,1.557556941
92,2439,H8,8,H,WT,ALA,24hrs,300,4.5,1.35,No Treatment,2439,0,1,12.54166667,302.4305556,522.5,0,FALSE,FALSE,219.75,42.08314493,1.726613088
93,2439,H9,9,H,WT,ALA,24hrs,300,4.5,1.35,No Treatment,2439,0,1,8.375,181.4305556,351.4166667,0,FALSE,FALSE,169.6666667,48.32469639,1.935160377
94,2439,H10,10,H,WT,ALA,24hrs,300,4.5,1.35,No Treatment,2439,0,1,5.791666667,51.51388889,207.1666667,0,FALSE,TRUE,155.3333333,75.09568254,4.015368024
95,2439,H11,11,H,WT,ALA,24hrs,300,4.5,1.35,No Treatment,2439,0,1,6.375,202.0972222,400.5833333,0,FALSE,FALSE,198.1666667,49.50900448,1.980551165
96,2439,H12,12,H,WT,ALA,24hrs,300,4.5,1.35,No Treatment,2439,0,1,2.625,189.1805556,375.9166667,0,FALSE,FALSE,186.4166667,49.63206745,1.985390206
