,Well,name,start_time,duration,irradiance,cycles,offtime,Channels,Fluence,Frequency,DutyCycle,MeasA.Result,MeasA.ScanX,MeasA.ScanY,MeasB.Result,MeasB.ScanX,MeasB.ScanY,V8,Batch,WellNum,WellLetter,WellCol,CellType,ALA,ALAincubation,Drug,MeasB.PreTreatment,MeasB.Outlier,is.outlier
1,A1,"noALAnolight, WT, 24hrs",0,1200,0,1,0,1,0,0,1,40,2,1,39,2,1,NA,2442,1,A,red,WT,noALA,24hrs,No Treatment,68,FALSE,FALSE
2,A1,"noALAnolight, WT, 24hrs",0,1200,0,1,0,1,0,0,1,58,3,1,7,3,1,NA,2442,1,A,red,WT,noALA,24hrs,No Treatment,60,FALSE,FALSE
3,A1,"noALAnolight, WT, 24hrs",0,1200,0,1,0,1,0,0,1,86,1,2,0,1,2,NA,2442,1,A,red,WT,noALA,24hrs,No Treatment,40,FALSE,FALSE
4,A1,"noALAnolight, WT, 24hrs",0,1200,0,1,0,1,0,0,1,33,2,2,54,2,2,NA,2442,1,A,red,WT,noALA,24hrs,No Treatment,70,FALSE,FALSE
5,A1,"noALAnolight, WT, 24hrs",0,1200,0,1,0,1,0,0,1,24,3,2,36,3,2,NA,2442,1,A,red,WT,noALA,24hrs,No Treatment,102,FALSE,FALSE
6,A1,"noALAnolight, WT, 24hrs",0,1200,0,1,0,1,0,0,1,55,4,2,13,4,2,NA,2442,1,A,red,WT,noALA,24hrs,No Treatment,21,FALSE,FALSE
7,A1,"noALAnolight, WT, 24hrs",0,1200,0,1,0,1,0,0,1,31,1,3,24,1,3,NA,2442,1,A,red,WT,noALA,24hrs,No Treatment,28,FALSE,FALSE
8,A1,"noALAnolight, WT, 24hrs",0,1200,0,1,0,1,0,0,1,80,2,3,16,2,3,NA,2442,1,A,red,WT,noALA,24hrs,No Treatment,38,FALSE,FALSE
9,A1,"noALAnolight, WT, 24hrs",0,1200,0,1,0,1,0,0,1,94,3,3,0,3,3,NA,2442,1,A,red,WT,noALA,24hrs,No Treatment,49,FALSE,FALSE
10,A1,"noALAnolight, WT, 24hrs",0,1200,0,1,0,1,0,0,1,64,4,3,0,4,3,NA,2442,1,A,red,WT,noALA,24hrs,No Treatment,59,FALSE,FALSE
11,A1,"noALAnolight, WT, 24hrs",0,1200,0,1,0,1,0,0,1,54,2,4,0,2,4,NA,2442,1,A,red,WT,noALA,24hrs,No Treatment,9,FALSE,FALSE
12,A1,"noALAnolight, WT, 24hrs",0,1200,0,1,0,1,0,0,1,4,3,4,0,3,4,NA,2442,1,A,red,WT,noALA,24hrs,No Treatment,39,FALSE,FALSE
13,A2,"noALAnolight, WT, 24hrs",0,1200,0,1,0,2,0,0,1,41,2,1,37,2,1,NA,2442,2,A,blue,WT,noALA,24hrs,No Treatment,88,FALSE,FALSE
14,A2,"noALAnolight, WT, 24hrs",0,1200,0,1,0,2,0,0,1,85,3,1,0,3,1,NA,2442,2,A,blue,WT,noALA,24hrs,No Treatment,85,FALSE,FALSE
15,A2,"noALAnolight, WT, 24hrs",0,1200,0,1,0,2,0,0,1,21,1,2,20,1,2,NA,2442,2,A,blue,WT,noALA,24hrs,No Treatment,69,FALSE,FALSE
16,A2,"noALAnolight, WT, 24hrs",0,1200,0,1,0,2,0,0,1,80,2,2,0,2,2,NA,2442,2,A,blue,WT,noALA,24hrs,No Treatment,66,FALSE,FALSE
17,A2,"noALAnolight, WT, 24hrs",0,1200,0,1,0,2,0,0,1,13,3,2,42,3,2,NA,2442,2,A,blue,WT,noALA,24hrs,No Treatment,66,FALSE,FALSE
18,A2,"noALAnolight, WT, 24hrs",0,1200,0,1,0,2,0,0,1,30,4,2,20,4,2,NA,2442,2,A,blue,WT,noALA,24hrs,No Treatment,76,FALSE,FALSE
19,A2,"noALAnolight, WT, 24hrs",0,1200,0,1,0,2,0,0,1,46,1,3,12,1,3,NA,2442,2,A,blue,WT,noALA,24hrs,No Treatment,50,FALSE,FALSE
20,A2,"noALAnolight, WT, 24hrs",0,1200,0,1,0,2,0,0,1,51,2,3,26,2,3,NA,2442,2,A,blue,WT,noALA,24hrs,No Treatment,94,FALSE,FALSE
21,A2,"noALAnolight, WT, 24hrs",0,1200,0,1,0,2,0,0,1,39,3,3,0,3,3,NA,2442,2,A,blue,WT,noALA,24hrs,No Treatment,40,FALSE,FALSE
22,A2,"noALAnolight, WT, 24hrs",0,1200,0,1,0,2,0,0,1,26,4,3,0,4,3,NA,2442,2,A,blue,WT,noALA,24hrs,No Treatment,77,FALSE,FALSE
23,A2,"noALAnolight, WT, 24hrs",0,1200,0,1,0,2,0,0,1,65,2,4,0,2,4,NA,2442,2,A,blue,WT,noALA,24hrs,No Treatment,56,FALSE,FALSE
24,A2,"noALAnolight, WT, 24hrs",0,1200,0,1,0,2,0,0,1,54,3,4,5,3,4,NA,2442,2,A,blue,WT,noALA,24hrs,No Treatment,47,FALSE,FALSE
25,A3,"noALAnolight, WT, 24hrs",0,1200,0,1,0,3,0,0,1,77,2,1,0,2,1,NA,2442,3,A,forestgreen,WT,noALA,24hrs,No Treatment,72,FALSE,FALSE
26,A3,"noALAnolight, WT, 24hrs",0,1200,0,1,0,3,0,0,1,69,3,1,33,3,1,NA,2442,3,A,forestgreen,WT,noALA,24hrs,No Treatment,127,TRUE,TRUE
27,A3,"noALAnolight, WT, 24hrs",0,1200,0,1,0,3,0,0,1,44,1,2,43,1,2,NA,2442,3,A,forestgreen,WT,noALA,24hrs,No Treatment,37,FALSE,FALSE
28,A3,"noALAnolight, WT, 24hrs",0,1200,0,1,0,3,0,0,1,77,2,2,8,2,2,NA,2442,3,A,forestgreen,WT,noALA,24hrs,No Treatment,44,FALSE,FALSE
29,A3,"noALAnolight, WT, 24hrs",0,1200,0,1,0,3,0,0,1,97,3,2,0,3,2,NA,2442,3,A,forestgreen,WT,noALA,24hrs,No Treatment,13,FALSE,FALSE
30,A3,"noALAnolight, WT, 24hrs",0,1200,0,1,0,3,0,0,1,27,4,2,0,4,2,NA,2442,3,A,forestgreen,WT,noALA,24hrs,No Treatment,84,FALSE,FALSE
31,A3,"noALAnolight, WT, 24hrs",0,1200,0,1,0,3,0,0,1,23,1,3,18,1,3,NA,2442,3,A,forestgreen,WT,noALA,24hrs,No Treatment,27,FALSE,FALSE
32,A3,"noALAnolight, WT, 24hrs",0,1200,0,1,0,3,0,0,1,105,2,3,0,2,3,NA,2442,3,A,forestgreen,WT,noALA,24hrs,No Treatment,50,FALSE,FALSE
33,A3,"noALAnolight, WT, 24hrs",0,1200,0,1,0,3,0,0,1,70,3,3,0,3,3,NA,2442,3,A,forestgreen,WT,noALA,24hrs,No Treatment,32,FALSE,FALSE
34,A3,"noALAnolight, WT, 24hrs",0,1200,0,1,0,3,0,0,1,28,4,3,10,4,3,NA,2442,3,A,forestgreen,WT,noALA,24hrs,No Treatment,78,FALSE,FALSE
35,A3,"noALAnolight, WT, 24hrs",0,1200,0,1,0,3,0,0,1,21,2,4,0,2,4,NA,2442,3,A,forestgreen,WT,noALA,24hrs,No Treatment,62,FALSE,FALSE
36,A3,"noALAnolight, WT, 24hrs",0,1200,0,1,0,3,0,0,1,40,3,4,0,3,4,NA,2442,3,A,forestgreen,WT,noALA,24hrs,No Treatment,98,FALSE,FALSE
37,A4,"noALAnolight, WT, 24hrs",0,1200,0,1,0,4,0,0,1,75,2,1,17,2,1,NA,2442,4,A,gold,WT,noALA,24hrs,No Treatment,63,FALSE,FALSE
38,A4,"noALAnolight, WT, 24hrs",0,1200,0,1,0,4,0,0,1,44,3,1,0,3,1,NA,2442,4,A,gold,WT,noALA,24hrs,No Treatment,55,FALSE,FALSE
39,A4,"noALAnolight, WT, 24hrs",0,1200,0,1,0,4,0,0,1,62,1,2,3,1,2,NA,2442,4,A,gold,WT,noALA,24hrs,No Treatment,86,FALSE,FALSE
40,A4,"noALAnolight, WT, 24hrs",0,1200,0,1,0,4,0,0,1,54,2,2,3,2,2,NA,2442,4,A,gold,WT,noALA,24hrs,No Treatment,46,FALSE,FALSE
41,A4,"noALAnolight, WT, 24hrs",0,1200,0,1,0,4,0,0,1,70,3,2,21,3,2,NA,2442,4,A,gold,WT,noALA,24hrs,No Treatment,73,FALSE,FALSE
42,A4,"noALAnolight, WT, 24hrs",0,1200,0,1,0,4,0,0,1,86,4,2,0,4,2,NA,2442,4,A,gold,WT,noALA,24hrs,No Treatment,29,FALSE,FALSE
43,A4,"noALAnolight, WT, 24hrs",0,1200,0,1,0,4,0,0,1,31,1,3,0,1,3,NA,2442,4,A,gold,WT,noALA,24hrs,No Treatment,79,FALSE,FALSE
44,A4,"noALAnolight, WT, 24hrs",0,1200,0,1,0,4,0,0,1,40,2,3,7,2,3,NA,2442,4,A,gold,WT,noALA,24hrs,No Treatment,49,FALSE,FALSE
45,A4,"noALAnolight, WT, 24hrs",0,1200,0,1,0,4,0,0,1,76,3,3,0,3,3,NA,2442,4,A,gold,WT,noALA,24hrs,No Treatment,27,FALSE,FALSE
46,A4,"noALAnolight, WT, 24hrs",0,1200,0,1,0,4,0,0,1,75,4,3,0,4,3,NA,2442,4,A,gold,WT,noALA,24hrs,No Treatment,78,FALSE,FALSE
47,A4,"noALAnolight, WT, 24hrs",0,1200,0,1,0,4,0,0,1,56,2,4,9,2,4,NA,2442,4,A,gold,WT,noALA,24hrs,No Treatment,89,FALSE,FALSE
48,A4,"noALAnolight, WT, 24hrs",0,1200,0,1,0,4,0,0,1,39,3,4,0,3,4,NA,2442,4,A,gold,WT,noALA,24hrs,No Treatment,62,FALSE,FALSE
49,A5,"noALAnolight, WT, 24hrs",0,1200,0,1,0,5,0,0,1,3,2,1,15,2,1,NA,2442,5,A,purple,WT,noALA,24hrs,No Treatment,42,FALSE,FALSE
50,A5,"noALAnolight, WT, 24hrs",0,1200,0,1,0,5,0,0,1,99,3,1,14,3,1,NA,2442,5,A,purple,WT,noALA,24hrs,No Treatment,77,FALSE,FALSE
51,A5,"noALAnolight, WT, 24hrs",0,1200,0,1,0,5,0,0,1,26,1,2,53,1,2,NA,2442,5,A,purple,WT,noALA,24hrs,No Treatment,52,FALSE,FALSE
52,A5,"noALAnolight, WT, 24hrs",0,1200,0,1,0,5,0,0,1,69,2,2,47,2,2,NA,2442,5,A,purple,WT,noALA,24hrs,No Treatment,85,FALSE,FALSE
53,A5,"noALAnolight, WT, 24hrs",0,1200,0,1,0,5,0,0,1,68,3,2,18,3,2,NA,2442,5,A,purple,WT,noALA,24hrs,No Treatment,37,FALSE,FALSE
54,A5,"noALAnolight, WT, 24hrs",0,1200,0,1,0,5,0,0,1,71,4,2,0,4,2,NA,2442,5,A,purple,WT,noALA,24hrs,No Treatment,49,FALSE,FALSE
55,A5,"noALAnolight, WT, 24hrs",0,1200,0,1,0,5,0,0,1,7,1,3,36,1,3,NA,2442,5,A,purple,WT,noALA,24hrs,No Treatment,51,FALSE,FALSE
56,A5,"noALAnolight, WT, 24hrs",0,1200,0,1,0,5,0,0,1,35,2,3,29,2,3,NA,2442,5,A,purple,WT,noALA,24hrs,No Treatment,20,FALSE,FALSE
57,A5,"noALAnolight, WT, 24hrs",0,1200,0,1,0,5,0,0,1,84,3,3,30,3,3,NA,2442,5,A,purple,WT,noALA,24hrs,No Treatment,73,FALSE,FALSE
58,A5,"noALAnolight, WT, 24hrs",0,1200,0,1,0,5,0,0,1,41,4,3,10,4,3,NA,2442,5,A,purple,WT,noALA,24hrs,No Treatment,76,FALSE,FALSE
59,A5,"noALAnolight, WT, 24hrs",0,1200,0,1,0,5,0,0,1,56,2,4,10,2,4,NA,2442,5,A,purple,WT,noALA,24hrs,No Treatment,30,FALSE,FALSE
60,A5,"noALAnolight, WT, 24hrs",0,1200,0,1,0,5,0,0,1,64,3,4,18,3,4,NA,2442,5,A,purple,WT,noALA,24hrs,No Treatment,72,FALSE,FALSE
61,A6,"noALAnolight, WT, 24hrs",0,1200,0,1,0,6,0,0,1,46,2,1,0,2,1,NA,2442,6,A,black,WT,noALA,24hrs,No Treatment,60,FALSE,FALSE
62,A6,"noALAnolight, WT, 24hrs",0,1200,0,1,0,6,0,0,1,95,3,1,0,3,1,NA,2442,6,A,black,WT,noALA,24hrs,No Treatment,47,FALSE,FALSE
63,A6,"noALAnolight, WT, 24hrs",0,1200,0,1,0,6,0,0,1,55,1,2,0,1,2,NA,2442,6,A,black,WT,noALA,24hrs,No Treatment,89,FALSE,FALSE
64,A6,"noALAnolight, WT, 24hrs",0,1200,0,1,0,6,0,0,1,50,2,2,29,2,2,NA,2442,6,A,black,WT,noALA,24hrs,No Treatment,88,FALSE,FALSE
65,A6,"noALAnolight, WT, 24hrs",0,1200,0,1,0,6,0,0,1,49,3,2,10,3,2,NA,2442,6,A,black,WT,noALA,24hrs,No Treatment,75,FALSE,FALSE
66,A6,"noALAnolight, WT, 24hrs",0,1200,0,1,0,6,0,0,1,68,4,2,0,4,2,NA,2442,6,A,black,WT,noALA,24hrs,No Treatment,62,FALSE,FALSE
67,A6,"noALAnolight, WT, 24hrs",0,1200,0,1,0,6,0,0,1,27,1,3,15,1,3,NA,2442,6,A,black,WT,noALA,24hrs,No Treatment,64,FALSE,FALSE
68,A6,"noALAnolight, WT, 24hrs",0,1200,0,1,0,6,0,0,1,15,2,3,0,2,3,NA,2442,6,A,black,WT,noALA,24hrs,No Treatment,55,FALSE,FALSE
69,A6,"noALAnolight, WT, 24hrs",0,1200,0,1,0,6,0,0,1,57,3,3,11,3,3,NA,2442,6,A,black,WT,noALA,24hrs,No Treatment,18,FALSE,FALSE
70,A6,"noALAnolight, WT, 24hrs",0,1200,0,1,0,6,0,0,1,46,4,3,13,4,3,NA,2442,6,A,black,WT,noALA,24hrs,No Treatment,44,FALSE,FALSE
71,A6,"noALAnolight, WT, 24hrs",0,1200,0,1,0,6,0,0,1,30,2,4,16,2,4,NA,2442,6,A,black,WT,noALA,24hrs,No Treatment,47,FALSE,FALSE
72,A6,"noALAnolight, WT, 24hrs",0,1200,0,1,0,6,0,0,1,63,3,4,0,3,4,NA,2442,6,A,black,WT,noALA,24hrs,No Treatment,55,FALSE,FALSE
73,B1,"ALAnolight, WT, 24hrs",0,1200,0,1,0,7,0,0,1,115,2,1,1337,2,1,NA,2442,1,B,red,WT,ALA,24hrs,No Treatment,1369,FALSE,FALSE
74,B1,"ALAnolight, WT, 24hrs",0,1200,0,1,0,7,0,0,1,124,3,1,1813,3,1,NA,2442,1,B,red,WT,ALA,24hrs,No Treatment,1800,FALSE,FALSE
75,B1,"ALAnolight, WT, 24hrs",0,1200,0,1,0,7,0,0,1,65,1,2,98,1,2,NA,2442,1,B,red,WT,ALA,24hrs,No Treatment,137,TRUE,TRUE
76,B1,"ALAnolight, WT, 24hrs",0,1200,0,1,0,7,0,0,1,87,2,2,1509,2,2,NA,2442,1,B,red,WT,ALA,24hrs,No Treatment,1661,FALSE,FALSE
77,B1,"ALAnolight, WT, 24hrs",0,1200,0,1,0,7,0,0,1,163,3,2,1565,3,2,NA,2442,1,B,red,WT,ALA,24hrs,No Treatment,1537,FALSE,FALSE
78,B1,"ALAnolight, WT, 24hrs",0,1200,0,1,0,7,0,0,1,135,4,2,1310,4,2,NA,2442,1,B,red,WT,ALA,24hrs,No Treatment,1291,FALSE,FALSE
79,B1,"ALAnolight, WT, 24hrs",0,1200,0,1,0,7,0,0,1,40,1,3,113,1,3,NA,2442,1,B,red,WT,ALA,24hrs,No Treatment,224,TRUE,TRUE
80,B1,"ALAnolight, WT, 24hrs",0,1200,0,1,0,7,0,0,1,117,2,3,1569,2,3,NA,2442,1,B,red,WT,ALA,24hrs,No Treatment,1663,FALSE,FALSE
81,B1,"ALAnolight, WT, 24hrs",0,1200,0,1,0,7,0,0,1,82,3,3,1262,3,3,NA,2442,1,B,red,WT,ALA,24hrs,No Treatment,1284,FALSE,FALSE
82,B1,"ALAnolight, WT, 24hrs",0,1200,0,1,0,7,0,0,1,100,4,3,1255,4,3,NA,2442,1,B,red,WT,ALA,24hrs,No Treatment,1266,FALSE,FALSE
83,B1,"ALAnolight, WT, 24hrs",0,1200,0,1,0,7,0,0,1,135,2,4,1170,2,4,NA,2442,1,B,red,WT,ALA,24hrs,No Treatment,1302,FALSE,FALSE
84,B1,"ALAnolight, WT, 24hrs",0,1200,0,1,0,7,0,0,1,121,3,4,1155,3,4,NA,2442,1,B,red,WT,ALA,24hrs,No Treatment,1203,FALSE,FALSE
85,B2,"ALAnolight, WT, 24hrs",0,1200,0,1,0,8,0,0,1,118,2,1,1488,2,1,NA,2442,2,B,blue,WT,ALA,24hrs,No Treatment,1504,FALSE,FALSE
86,B2,"ALAnolight, WT, 24hrs",0,1200,0,1,0,8,0,0,1,151,3,1,1517,3,1,NA,2442,2,B,blue,WT,ALA,24hrs,No Treatment,1541,FALSE,FALSE
87,B2,"ALAnolight, WT, 24hrs",0,1200,0,1,0,8,0,0,1,159,1,2,1695,1,2,NA,2442,2,B,blue,WT,ALA,24hrs,No Treatment,1808,FALSE,FALSE
88,B2,"ALAnolight, WT, 24hrs",0,1200,0,1,0,8,0,0,1,93,2,2,1452,2,2,NA,2442,2,B,blue,WT,ALA,24hrs,No Treatment,1511,FALSE,FALSE
89,B2,"ALAnolight, WT, 24hrs",0,1200,0,1,0,8,0,0,1,93,3,2,1376,3,2,NA,2442,2,B,blue,WT,ALA,24hrs,No Treatment,1412,FALSE,FALSE
90,B2,"ALAnolight, WT, 24hrs",0,1200,0,1,0,8,0,0,1,109,4,2,1461,4,2,NA,2442,2,B,blue,WT,ALA,24hrs,No Treatment,1524,FALSE,FALSE
91,B2,"ALAnolight, WT, 24hrs",0,1200,0,1,0,8,0,0,1,139,1,3,1227,1,3,NA,2442,2,B,blue,WT,ALA,24hrs,No Treatment,1388,FALSE,FALSE
92,B2,"ALAnolight, WT, 24hrs",0,1200,0,1,0,8,0,0,1,115,2,3,1469,2,3,NA,2442,2,B,blue,WT,ALA,24hrs,No Treatment,1539,FALSE,FALSE
93,B2,"ALAnolight, WT, 24hrs",0,1200,0,1,0,8,0,0,1,133,3,3,1565,3,3,NA,2442,2,B,blue,WT,ALA,24hrs,No Treatment,1668,FALSE,FALSE
94,B2,"ALAnolight, WT, 24hrs",0,1200,0,1,0,8,0,0,1,105,4,3,1383,4,3,NA,2442,2,B,blue,WT,ALA,24hrs,No Treatment,1424,FALSE,FALSE
95,B2,"ALAnolight, WT, 24hrs",0,1200,0,1,0,8,0,0,1,57,2,4,1020,2,4,NA,2442,2,B,blue,WT,ALA,24hrs,No Treatment,1095,FALSE,FALSE
96,B2,"ALAnolight, WT, 24hrs",0,1200,0,1,0,8,0,0,1,109,3,4,1164,3,4,NA,2442,2,B,blue,WT,ALA,24hrs,No Treatment,1120,FALSE,FALSE
97,B3,"ALAnolight, WT, 24hrs",0,1200,0,1,0,9,0,0,1,100,2,1,1602,2,1,NA,2442,3,B,forestgreen,WT,ALA,24hrs,No Treatment,1582,FALSE,FALSE
98,B3,"ALAnolight, WT, 24hrs",0,1200,0,1,0,9,0,0,1,124,3,1,1281,3,1,NA,2442,3,B,forestgreen,WT,ALA,24hrs,No Treatment,1326,FALSE,FALSE
99,B3,"ALAnolight, WT, 24hrs",0,1200,0,1,0,9,0,0,1,120,1,2,1213,1,2,NA,2442,3,B,forestgreen,WT,ALA,24hrs,No Treatment,1326,FALSE,FALSE
100,B3,"ALAnolight, WT, 24hrs",0,1200,0,1,0,9,0,0,1,103,2,2,1841,2,2,NA,2442,3,B,forestgreen,WT,ALA,24hrs,No Treatment,1897,FALSE,FALSE
101,B3,"ALAnolight, WT, 24hrs",0,1200,0,1,0,9,0,0,1,143,3,2,1417,3,2,NA,2442,3,B,forestgreen,WT,ALA,24hrs,No Treatment,1467,FALSE,FALSE
102,B3,"ALAnolight, WT, 24hrs",0,1200,0,1,0,9,0,0,1,97,4,2,1240,4,2,NA,2442,3,B,forestgreen,WT,ALA,24hrs,No Treatment,1143,FALSE,FALSE
103,B3,"ALAnolight, WT, 24hrs",0,1200,0,1,0,9,0,0,1,89,1,3,1063,1,3,NA,2442,3,B,forestgreen,WT,ALA,24hrs,No Treatment,1115,FALSE,FALSE
104,B3,"ALAnolight, WT, 24hrs",0,1200,0,1,0,9,0,0,1,140,2,3,1358,2,3,NA,2442,3,B,forestgreen,WT,ALA,24hrs,No Treatment,1467,FALSE,FALSE
105,B3,"ALAnolight, WT, 24hrs",0,1200,0,1,0,9,0,0,1,115,3,3,1504,3,3,NA,2442,3,B,forestgreen,WT,ALA,24hrs,No Treatment,1372,FALSE,FALSE
106,B3,"ALAnolight, WT, 24hrs",0,1200,0,1,0,9,0,0,1,117,4,3,1575,4,3,NA,2442,3,B,forestgreen,WT,ALA,24hrs,No Treatment,2043,TRUE,TRUE
107,B3,"ALAnolight, WT, 24hrs",0,1200,0,1,0,9,0,0,1,105,2,4,1021,2,4,NA,2442,3,B,forestgreen,WT,ALA,24hrs,No Treatment,1006,FALSE,FALSE
108,B3,"ALAnolight, WT, 24hrs",0,1200,0,1,0,9,0,0,1,84,3,4,1351,3,4,NA,2442,3,B,forestgreen,WT,ALA,24hrs,No Treatment,1309,FALSE,FALSE
109,B4,"ALA, I=.75, 20min, WT, 24hrs",0,1200,0.75,1,0,10,0.9,0,1,48,2,1,692,2,1,NA,2442,4,B,gold,WT,ALA,24hrs,No Treatment,1113,FALSE,FALSE
110,B4,"ALA, I=.75, 20min, WT, 24hrs",0,1200,0.75,1,0,10,0.9,0,1,115,3,1,677,3,1,NA,2442,4,B,gold,WT,ALA,24hrs,No Treatment,1136,FALSE,FALSE
111,B4,"ALA, I=.75, 20min, WT, 24hrs",0,1200,0.75,1,0,10,0.9,0,1,106,1,2,864,1,2,NA,2442,4,B,gold,WT,ALA,24hrs,No Treatment,1620,FALSE,FALSE
112,B4,"ALA, I=.75, 20min, WT, 24hrs",0,1200,0.75,1,0,10,0.9,0,1,148,2,2,1314,2,2,NA,2442,4,B,gold,WT,ALA,24hrs,No Treatment,2048,TRUE,TRUE
113,B4,"ALA, I=.75, 20min, WT, 24hrs",0,1200,0.75,1,0,10,0.9,0,1,116,3,2,783,3,2,NA,2442,4,B,gold,WT,ALA,24hrs,No Treatment,1353,FALSE,FALSE
114,B4,"ALA, I=.75, 20min, WT, 24hrs",0,1200,0.75,1,0,10,0.9,0,1,117,4,2,590,4,2,NA,2442,4,B,gold,WT,ALA,24hrs,No Treatment,1008,FALSE,FALSE
115,B4,"ALA, I=.75, 20min, WT, 24hrs",0,1200,0.75,1,0,10,0.9,0,1,32,1,3,621,1,3,NA,2442,4,B,gold,WT,ALA,24hrs,No Treatment,1027,FALSE,FALSE
116,B4,"ALA, I=.75, 20min, WT, 24hrs",0,1200,0.75,1,0,10,0.9,0,1,92,2,3,660,2,3,NA,2442,4,B,gold,WT,ALA,24hrs,No Treatment,1173,FALSE,FALSE
117,B4,"ALA, I=.75, 20min, WT, 24hrs",0,1200,0.75,1,0,10,0.9,0,1,51,3,3,806,3,3,NA,2442,4,B,gold,WT,ALA,24hrs,No Treatment,1324,FALSE,FALSE
118,B4,"ALA, I=.75, 20min, WT, 24hrs",0,1200,0.75,1,0,10,0.9,0,1,75,4,3,850,4,3,NA,2442,4,B,gold,WT,ALA,24hrs,No Treatment,1364,FALSE,FALSE
119,B4,"ALA, I=.75, 20min, WT, 24hrs",0,1200,0.75,1,0,10,0.9,0,1,23,2,4,571,2,4,NA,2442,4,B,gold,WT,ALA,24hrs,No Treatment,993,FALSE,FALSE
120,B4,"ALA, I=.75, 20min, WT, 24hrs",0,1200,0.75,1,0,10,0.9,0,1,107,3,4,642,3,4,NA,2442,4,B,gold,WT,ALA,24hrs,No Treatment,1037,FALSE,FALSE
121,B5,"ALA, I=.75, 20min, WT, 24hrs",0,1200,0.75,1,0,11,0.9,0,1,50,2,1,512,2,1,NA,2442,5,B,purple,WT,ALA,24hrs,No Treatment,900,FALSE,FALSE
122,B5,"ALA, I=.75, 20min, WT, 24hrs",0,1200,0.75,1,0,11,0.9,0,1,70,3,1,585,3,1,NA,2442,5,B,purple,WT,ALA,24hrs,No Treatment,950,FALSE,FALSE
123,B5,"ALA, I=.75, 20min, WT, 24hrs",0,1200,0.75,1,0,11,0.9,0,1,81,1,2,311,1,2,NA,2442,5,B,purple,WT,ALA,24hrs,No Treatment,538,FALSE,FALSE
124,B5,"ALA, I=.75, 20min, WT, 24hrs",0,1200,0.75,1,0,11,0.9,0,1,116,2,2,1016,2,2,NA,2442,5,B,purple,WT,ALA,24hrs,No Treatment,1598,FALSE,FALSE
125,B5,"ALA, I=.75, 20min, WT, 24hrs",0,1200,0.75,1,0,11,0.9,0,1,99,3,2,1667,3,2,NA,2442,5,B,purple,WT,ALA,24hrs,No Treatment,2419,TRUE,TRUE
126,B5,"ALA, I=.75, 20min, WT, 24hrs",0,1200,0.75,1,0,11,0.9,0,1,48,4,2,556,4,2,NA,2442,5,B,purple,WT,ALA,24hrs,No Treatment,909,FALSE,FALSE
127,B5,"ALA, I=.75, 20min, WT, 24hrs",0,1200,0.75,1,0,11,0.9,0,1,48,1,3,315,1,3,NA,2442,5,B,purple,WT,ALA,24hrs,No Treatment,663,FALSE,FALSE
128,B5,"ALA, I=.75, 20min, WT, 24hrs",0,1200,0.75,1,0,11,0.9,0,1,156,2,3,673,2,3,NA,2442,5,B,purple,WT,ALA,24hrs,No Treatment,1180,FALSE,FALSE
129,B5,"ALA, I=.75, 20min, WT, 24hrs",0,1200,0.75,1,0,11,0.9,0,1,95,3,3,656,3,3,NA,2442,5,B,purple,WT,ALA,24hrs,No Treatment,1152,FALSE,FALSE
130,B5,"ALA, I=.75, 20min, WT, 24hrs",0,1200,0.75,1,0,11,0.9,0,1,32,4,3,656,4,3,NA,2442,5,B,purple,WT,ALA,24hrs,No Treatment,1062,FALSE,FALSE
131,B5,"ALA, I=.75, 20min, WT, 24hrs",0,1200,0.75,1,0,11,0.9,0,1,62,2,4,480,2,4,NA,2442,5,B,purple,WT,ALA,24hrs,No Treatment,813,FALSE,FALSE
132,B5,"ALA, I=.75, 20min, WT, 24hrs",0,1200,0.75,1,0,11,0.9,0,1,86,3,4,438,3,4,NA,2442,5,B,purple,WT,ALA,24hrs,No Treatment,757,FALSE,FALSE
133,B6,"ALA, I=.75, 20min, WT, 24hrs",0,1200,0.75,1,0,12,0.9,0,1,107,2,1,348,2,1,NA,2442,6,B,black,WT,ALA,24hrs,No Treatment,654,FALSE,FALSE
134,B6,"ALA, I=.75, 20min, WT, 24hrs",0,1200,0.75,1,0,12,0.9,0,1,92,3,1,386,3,1,NA,2442,6,B,black,WT,ALA,24hrs,No Treatment,649,FALSE,FALSE
135,B6,"ALA, I=.75, 20min, WT, 24hrs",0,1200,0.75,1,0,12,0.9,0,1,90,1,2,324,1,2,NA,2442,6,B,black,WT,ALA,24hrs,No Treatment,576,FALSE,FALSE
136,B6,"ALA, I=.75, 20min, WT, 24hrs",0,1200,0.75,1,0,12,0.9,0,1,81,2,2,428,2,2,NA,2442,6,B,black,WT,ALA,24hrs,No Treatment,758,FALSE,FALSE
137,B6,"ALA, I=.75, 20min, WT, 24hrs",0,1200,0.75,1,0,12,0.9,0,1,92,3,2,420,3,2,NA,2442,6,B,black,WT,ALA,24hrs,No Treatment,752,FALSE,FALSE
138,B6,"ALA, I=.75, 20min, WT, 24hrs",0,1200,0.75,1,0,12,0.9,0,1,61,4,2,363,4,2,NA,2442,6,B,black,WT,ALA,24hrs,No Treatment,627,FALSE,FALSE
139,B6,"ALA, I=.75, 20min, WT, 24hrs",0,1200,0.75,1,0,12,0.9,0,1,26,1,3,333,1,3,NA,2442,6,B,black,WT,ALA,24hrs,No Treatment,612,FALSE,FALSE
140,B6,"ALA, I=.75, 20min, WT, 24hrs",0,1200,0.75,1,0,12,0.9,0,1,101,2,3,813,2,3,NA,2442,6,B,black,WT,ALA,24hrs,No Treatment,1264,FALSE,FALSE
141,B6,"ALA, I=.75, 20min, WT, 24hrs",0,1200,0.75,1,0,12,0.9,0,1,44,3,3,385,3,3,NA,2442,6,B,black,WT,ALA,24hrs,No Treatment,739,FALSE,FALSE
142,B6,"ALA, I=.75, 20min, WT, 24hrs",0,1200,0.75,1,0,12,0.9,0,1,74,4,3,496,4,3,NA,2442,6,B,black,WT,ALA,24hrs,No Treatment,800,FALSE,FALSE
143,B6,"ALA, I=.75, 20min, WT, 24hrs",0,1200,0.75,1,0,12,0.9,0,1,50,2,4,356,2,4,NA,2442,6,B,black,WT,ALA,24hrs,No Treatment,691,FALSE,FALSE
144,B6,"ALA, I=.75, 20min, WT, 24hrs",0,1200,0.75,1,0,12,0.9,0,1,69,3,4,400,3,4,NA,2442,6,B,black,WT,ALA,24hrs,No Treatment,653,FALSE,FALSE
145,C1,"ALA, I=1.5, 20min, WT, 24hrs",0,1200,1.5,1,0,13,1.8,0,1,128,2,1,729,2,1,NA,2442,1,C,red,WT,ALA,24hrs,No Treatment,1440,FALSE,FALSE
146,C1,"ALA, I=1.5, 20min, WT, 24hrs",0,1200,1.5,1,0,13,1.8,0,1,108,3,1,667,3,1,NA,2442,1,C,red,WT,ALA,24hrs,No Treatment,1353,FALSE,FALSE
147,C1,"ALA, I=1.5, 20min, WT, 24hrs",0,1200,1.5,1,0,13,1.8,0,1,78,1,2,117,1,2,NA,2442,1,C,red,WT,ALA,24hrs,No Treatment,308,TRUE,TRUE
148,C1,"ALA, I=1.5, 20min, WT, 24hrs",0,1200,1.5,1,0,13,1.8,0,1,58,2,2,818,2,2,NA,2442,1,C,red,WT,ALA,24hrs,No Treatment,1807,FALSE,FALSE
149,C1,"ALA, I=1.5, 20min, WT, 24hrs",0,1200,1.5,1,0,13,1.8,0,1,113,3,2,691,3,2,NA,2442,1,C,red,WT,ALA,24hrs,No Treatment,1541,FALSE,FALSE
150,C1,"ALA, I=1.5, 20min, WT, 24hrs",0,1200,1.5,1,0,13,1.8,0,1,83,4,2,559,4,2,NA,2442,1,C,red,WT,ALA,24hrs,No Treatment,1178,FALSE,FALSE
151,C1,"ALA, I=1.5, 20min, WT, 24hrs",0,1200,1.5,1,0,13,1.8,0,1,0,1,3,32,1,3,NA,2442,1,C,red,WT,ALA,24hrs,No Treatment,92,TRUE,TRUE
152,C1,"ALA, I=1.5, 20min, WT, 24hrs",0,1200,1.5,1,0,13,1.8,0,1,94,2,3,276,2,3,NA,2442,1,C,red,WT,ALA,24hrs,No Treatment,544,TRUE,TRUE
153,C1,"ALA, I=1.5, 20min, WT, 24hrs",0,1200,1.5,1,0,13,1.8,0,1,55,3,3,566,3,3,NA,2442,1,C,red,WT,ALA,24hrs,No Treatment,1212,FALSE,FALSE
154,C1,"ALA, I=1.5, 20min, WT, 24hrs",0,1200,1.5,1,0,13,1.8,0,1,60,4,3,449,4,3,NA,2442,1,C,red,WT,ALA,24hrs,No Treatment,1120,FALSE,FALSE
155,C1,"ALA, I=1.5, 20min, WT, 24hrs",0,1200,1.5,1,0,13,1.8,0,1,147,2,4,773,2,4,NA,2442,1,C,red,WT,ALA,24hrs,No Treatment,1660,FALSE,FALSE
156,C1,"ALA, I=1.5, 20min, WT, 24hrs",0,1200,1.5,1,0,13,1.8,0,1,88,3,4,591,3,4,NA,2442,1,C,red,WT,ALA,24hrs,No Treatment,1165,FALSE,FALSE
157,C2,"ALA, I=1.5, 20min, WT, 24hrs",0,1200,1.5,1,0,14,1.8,0,1,127,2,1,752,2,1,NA,2442,2,C,blue,WT,ALA,24hrs,No Treatment,1441,FALSE,FALSE
158,C2,"ALA, I=1.5, 20min, WT, 24hrs",0,1200,1.5,1,0,14,1.8,0,1,140,3,1,598,3,1,NA,2442,2,C,blue,WT,ALA,24hrs,No Treatment,1310,FALSE,FALSE
159,C2,"ALA, I=1.5, 20min, WT, 24hrs",0,1200,1.5,1,0,14,1.8,0,1,129,1,2,630,1,2,NA,2442,2,C,blue,WT,ALA,24hrs,No Treatment,1349,FALSE,FALSE
160,C2,"ALA, I=1.5, 20min, WT, 24hrs",0,1200,1.5,1,0,14,1.8,0,1,121,2,2,719,2,2,NA,2442,2,C,blue,WT,ALA,24hrs,No Treatment,1475,FALSE,FALSE
161,C2,"ALA, I=1.5, 20min, WT, 24hrs",0,1200,1.5,1,0,14,1.8,0,1,133,3,2,794,3,2,NA,2442,2,C,blue,WT,ALA,24hrs,No Treatment,1634,FALSE,FALSE
162,C2,"ALA, I=1.5, 20min, WT, 24hrs",0,1200,1.5,1,0,14,1.8,0,1,84,4,2,653,4,2,NA,2442,2,C,blue,WT,ALA,24hrs,No Treatment,1261,FALSE,FALSE
163,C2,"ALA, I=1.5, 20min, WT, 24hrs",0,1200,1.5,1,0,14,1.8,0,1,37,1,3,620,1,3,NA,2442,2,C,blue,WT,ALA,24hrs,No Treatment,1223,FALSE,FALSE
164,C2,"ALA, I=1.5, 20min, WT, 24hrs",0,1200,1.5,1,0,14,1.8,0,1,133,2,3,563,2,3,NA,2442,2,C,blue,WT,ALA,24hrs,No Treatment,1284,FALSE,FALSE
165,C2,"ALA, I=1.5, 20min, WT, 24hrs",0,1200,1.5,1,0,14,1.8,0,1,102,3,3,736,3,3,NA,2442,2,C,blue,WT,ALA,24hrs,No Treatment,1557,FALSE,FALSE
166,C2,"ALA, I=1.5, 20min, WT, 24hrs",0,1200,1.5,1,0,14,1.8,0,1,35,4,3,615,4,3,NA,2442,2,C,blue,WT,ALA,24hrs,No Treatment,1251,FALSE,FALSE
167,C2,"ALA, I=1.5, 20min, WT, 24hrs",0,1200,1.5,1,0,14,1.8,0,1,23,2,4,496,2,4,NA,2442,2,C,blue,WT,ALA,24hrs,No Treatment,1035,FALSE,FALSE
168,C2,"ALA, I=1.5, 20min, WT, 24hrs",0,1200,1.5,1,0,14,1.8,0,1,88,3,4,575,3,4,NA,2442,2,C,blue,WT,ALA,24hrs,No Treatment,1223,FALSE,FALSE
169,C3,"ALA, I=1.5, 20min, WT, 24hrs",0,1200,1.5,1,0,15,1.8,0,1,141,2,1,1418,2,1,NA,2442,3,C,forestgreen,WT,ALA,24hrs,No Treatment,2635,TRUE,TRUE
170,C3,"ALA, I=1.5, 20min, WT, 24hrs",0,1200,1.5,1,0,15,1.8,0,1,133,3,1,1236,3,1,NA,2442,3,C,forestgreen,WT,ALA,24hrs,No Treatment,2440,TRUE,TRUE
171,C3,"ALA, I=1.5, 20min, WT, 24hrs",0,1200,1.5,1,0,15,1.8,0,1,115,1,2,1171,1,2,NA,2442,3,C,forestgreen,WT,ALA,24hrs,No Treatment,2443,TRUE,TRUE
172,C3,"ALA, I=1.5, 20min, WT, 24hrs",0,1200,1.5,1,0,15,1.8,0,1,150,2,2,1502,2,2,NA,2442,3,C,forestgreen,WT,ALA,24hrs,No Treatment,3387,TRUE,TRUE
173,C3,"ALA, I=1.5, 20min, WT, 24hrs",0,1200,1.5,1,0,15,1.8,0,1,92,3,2,963,3,2,NA,2442,3,C,forestgreen,WT,ALA,24hrs,No Treatment,2068,TRUE,TRUE
174,C3,"ALA, I=1.5, 20min, WT, 24hrs",0,1200,1.5,1,0,15,1.8,0,1,121,4,2,608,4,2,NA,2442,3,C,forestgreen,WT,ALA,24hrs,No Treatment,1238,FALSE,FALSE
175,C3,"ALA, I=1.5, 20min, WT, 24hrs",0,1200,1.5,1,0,15,1.8,0,1,90,1,3,587,1,3,NA,2442,3,C,forestgreen,WT,ALA,24hrs,No Treatment,1115,FALSE,FALSE
176,C3,"ALA, I=1.5, 20min, WT, 24hrs",0,1200,1.5,1,0,15,1.8,0,1,110,2,3,648,2,3,NA,2442,3,C,forestgreen,WT,ALA,24hrs,No Treatment,1384,FALSE,FALSE
177,C3,"ALA, I=1.5, 20min, WT, 24hrs",0,1200,1.5,1,0,15,1.8,0,1,76,3,3,688,3,3,NA,2442,3,C,forestgreen,WT,ALA,24hrs,No Treatment,1583,FALSE,FALSE
178,C3,"ALA, I=1.5, 20min, WT, 24hrs",0,1200,1.5,1,0,15,1.8,0,1,91,4,3,748,4,3,NA,2442,3,C,forestgreen,WT,ALA,24hrs,No Treatment,1503,FALSE,FALSE
179,C3,"ALA, I=1.5, 20min, WT, 24hrs",0,1200,1.5,1,0,15,1.8,0,1,80,2,4,499,2,4,NA,2442,3,C,forestgreen,WT,ALA,24hrs,No Treatment,1018,FALSE,FALSE
180,C3,"ALA, I=1.5, 20min, WT, 24hrs",0,1200,1.5,1,0,15,1.8,0,1,110,3,4,595,3,4,NA,2442,3,C,forestgreen,WT,ALA,24hrs,No Treatment,1291,FALSE,FALSE
181,C4,"ALA, I=3, 20min, WT, 24hrs",0,1200,3,1,0,16,3.6,0,1,128,2,1,708,2,1,NA,2442,4,C,gold,WT,ALA,24hrs,No Treatment,1809,FALSE,FALSE
182,C4,"ALA, I=3, 20min, WT, 24hrs",0,1200,3,1,0,16,3.6,0,1,107,3,1,584,3,1,NA,2442,4,C,gold,WT,ALA,24hrs,No Treatment,1612,FALSE,FALSE
183,C4,"ALA, I=3, 20min, WT, 24hrs",0,1200,3,1,0,16,3.6,0,1,70,1,2,477,1,2,NA,2442,4,C,gold,WT,ALA,24hrs,No Treatment,1477,FALSE,FALSE
184,C4,"ALA, I=3, 20min, WT, 24hrs",0,1200,3,1,0,16,3.6,0,1,188,2,2,2378,2,2,NA,2442,4,C,gold,WT,ALA,24hrs,No Treatment,7916,TRUE,TRUE
185,C4,"ALA, I=3, 20min, WT, 24hrs",0,1200,3,1,0,16,3.6,0,1,64,3,2,604,3,2,NA,2442,4,C,gold,WT,ALA,24hrs,No Treatment,1613,FALSE,FALSE
186,C4,"ALA, I=3, 20min, WT, 24hrs",0,1200,3,1,0,16,3.6,0,1,80,4,2,309,4,2,NA,2442,4,C,gold,WT,ALA,24hrs,No Treatment,971,FALSE,FALSE
187,C4,"ALA, I=3, 20min, WT, 24hrs",0,1200,3,1,0,16,3.6,0,1,40,1,3,294,1,3,NA,2442,4,C,gold,WT,ALA,24hrs,No Treatment,825,FALSE,FALSE
188,C4,"ALA, I=3, 20min, WT, 24hrs",0,1200,3,1,0,16,3.6,0,1,101,2,3,369,2,3,NA,2442,4,C,gold,WT,ALA,24hrs,No Treatment,1057,FALSE,FALSE
189,C4,"ALA, I=3, 20min, WT, 24hrs",0,1200,3,1,0,16,3.6,0,1,87,3,3,578,3,3,NA,2442,4,C,gold,WT,ALA,24hrs,No Treatment,1576,FALSE,FALSE
190,C4,"ALA, I=3, 20min, WT, 24hrs",0,1200,3,1,0,16,3.6,0,1,108,4,3,390,4,3,NA,2442,4,C,gold,WT,ALA,24hrs,No Treatment,1180,FALSE,FALSE
191,C4,"ALA, I=3, 20min, WT, 24hrs",0,1200,3,1,0,16,3.6,0,1,81,2,4,460,2,4,NA,2442,4,C,gold,WT,ALA,24hrs,No Treatment,962,FALSE,FALSE
192,C4,"ALA, I=3, 20min, WT, 24hrs",0,1200,3,1,0,16,3.6,0,1,87,3,4,393,3,4,NA,2442,4,C,gold,WT,ALA,24hrs,No Treatment,1254,FALSE,FALSE
193,C5,"ALA, I=3, 20min, WT, 24hrs",0,1200,3,1,0,17,3.6,0,1,66,2,1,334,2,1,NA,2442,5,C,purple,WT,ALA,24hrs,No Treatment,935,FALSE,FALSE
194,C5,"ALA, I=3, 20min, WT, 24hrs",0,1200,3,1,0,17,3.6,0,1,94,3,1,712,3,1,NA,2442,5,C,purple,WT,ALA,24hrs,No Treatment,1943,FALSE,FALSE
195,C5,"ALA, I=3, 20min, WT, 24hrs",0,1200,3,1,0,17,3.6,0,1,72,1,2,381,1,2,NA,2442,5,C,purple,WT,ALA,24hrs,No Treatment,966,FALSE,FALSE
196,C5,"ALA, I=3, 20min, WT, 24hrs",0,1200,3,1,0,17,3.6,0,1,117,2,2,1145,2,2,NA,2442,5,C,purple,WT,ALA,24hrs,No Treatment,3135,TRUE,TRUE
197,C5,"ALA, I=3, 20min, WT, 24hrs",0,1200,3,1,0,17,3.6,0,1,65,3,2,305,3,2,NA,2442,5,C,purple,WT,ALA,24hrs,No Treatment,897,FALSE,FALSE
198,C5,"ALA, I=3, 20min, WT, 24hrs",0,1200,3,1,0,17,3.6,0,1,105,4,2,321,4,2,NA,2442,5,C,purple,WT,ALA,24hrs,No Treatment,838,FALSE,FALSE
199,C5,"ALA, I=3, 20min, WT, 24hrs",0,1200,3,1,0,17,3.6,0,1,73,1,3,177,1,3,NA,2442,5,C,purple,WT,ALA,24hrs,No Treatment,610,FALSE,FALSE
200,C5,"ALA, I=3, 20min, WT, 24hrs",0,1200,3,1,0,17,3.6,0,1,105,2,3,350,2,3,NA,2442,5,C,purple,WT,ALA,24hrs,No Treatment,1004,FALSE,FALSE
201,C5,"ALA, I=3, 20min, WT, 24hrs",0,1200,3,1,0,17,3.6,0,1,38,3,3,347,3,3,NA,2442,5,C,purple,WT,ALA,24hrs,No Treatment,958,FALSE,FALSE
202,C5,"ALA, I=3, 20min, WT, 24hrs",0,1200,3,1,0,17,3.6,0,1,119,4,3,330,4,3,NA,2442,5,C,purple,WT,ALA,24hrs,No Treatment,989,FALSE,FALSE
203,C5,"ALA, I=3, 20min, WT, 24hrs",0,1200,3,1,0,17,3.6,0,1,38,2,4,481,2,4,NA,2442,5,C,purple,WT,ALA,24hrs,No Treatment,1193,FALSE,FALSE
204,C5,"ALA, I=3, 20min, WT, 24hrs",0,1200,3,1,0,17,3.6,0,1,59,3,4,346,3,4,NA,2442,5,C,purple,WT,ALA,24hrs,No Treatment,899,FALSE,FALSE
205,C6,"ALA, I=3, 20min, WT, 24hrs",0,1200,3,1,0,18,3.6,0,1,34,2,1,235,2,1,NA,2442,6,C,black,WT,ALA,24hrs,No Treatment,592,FALSE,FALSE
206,C6,"ALA, I=3, 20min, WT, 24hrs",0,1200,3,1,0,18,3.6,0,1,54,3,1,255,3,1,NA,2442,6,C,black,WT,ALA,24hrs,No Treatment,627,FALSE,FALSE
207,C6,"ALA, I=3, 20min, WT, 24hrs",0,1200,3,1,0,18,3.6,0,1,35,1,2,83,1,2,NA,2442,6,C,black,WT,ALA,24hrs,No Treatment,263,FALSE,FALSE
208,C6,"ALA, I=3, 20min, WT, 24hrs",0,1200,3,1,0,18,3.6,0,1,132,2,2,933,2,2,NA,2442,6,C,black,WT,ALA,24hrs,No Treatment,2360,TRUE,TRUE
209,C6,"ALA, I=3, 20min, WT, 24hrs",0,1200,3,1,0,18,3.6,0,1,152,3,2,322,3,2,NA,2442,6,C,black,WT,ALA,24hrs,No Treatment,919,FALSE,FALSE
210,C6,"ALA, I=3, 20min, WT, 24hrs",0,1200,3,1,0,18,3.6,0,1,93,4,2,208,4,2,NA,2442,6,C,black,WT,ALA,24hrs,No Treatment,570,FALSE,FALSE
211,C6,"ALA, I=3, 20min, WT, 24hrs",0,1200,3,1,0,18,3.6,0,1,72,1,3,91,1,3,NA,2442,6,C,black,WT,ALA,24hrs,No Treatment,331,FALSE,FALSE
212,C6,"ALA, I=3, 20min, WT, 24hrs",0,1200,3,1,0,18,3.6,0,1,76,2,3,307,2,3,NA,2442,6,C,black,WT,ALA,24hrs,No Treatment,971,FALSE,FALSE
213,C6,"ALA, I=3, 20min, WT, 24hrs",0,1200,3,1,0,18,3.6,0,1,22,3,3,316,3,3,NA,2442,6,C,black,WT,ALA,24hrs,No Treatment,821,FALSE,FALSE
214,C6,"ALA, I=3, 20min, WT, 24hrs",0,1200,3,1,0,18,3.6,0,1,58,4,3,187,4,3,NA,2442,6,C,black,WT,ALA,24hrs,No Treatment,683,FALSE,FALSE
215,C6,"ALA, I=3, 20min, WT, 24hrs",0,1200,3,1,0,18,3.6,0,1,53,2,4,278,2,4,NA,2442,6,C,black,WT,ALA,24hrs,No Treatment,849,FALSE,FALSE
216,C6,"ALA, I=3, 20min, WT, 24hrs",0,1200,3,1,0,18,3.6,0,1,75,3,4,189,3,4,NA,2442,6,C,black,WT,ALA,24hrs,No Treatment,639,FALSE,FALSE
217,D1,"ALA, I=4.5, 20min, WT, 24hrs",0,1200,4.5,1,0,19,5.4,0,1,92,2,1,315,2,1,NA,2442,1,D,red,WT,ALA,24hrs,No Treatment,1102,FALSE,FALSE
218,D1,"ALA, I=4.5, 20min, WT, 24hrs",0,1200,4.5,1,0,19,5.4,0,1,22,3,1,333,3,1,NA,2442,1,D,red,WT,ALA,24hrs,No Treatment,1168,FALSE,FALSE
219,D1,"ALA, I=4.5, 20min, WT, 24hrs",0,1200,4.5,1,0,19,5.4,0,1,80,1,2,207,1,2,NA,2442,1,D,red,WT,ALA,24hrs,No Treatment,917,FALSE,FALSE
220,D1,"ALA, I=4.5, 20min, WT, 24hrs",0,1200,4.5,1,0,19,5.4,0,1,74,2,2,297,2,2,NA,2442,1,D,red,WT,ALA,24hrs,No Treatment,1144,FALSE,FALSE
221,D1,"ALA, I=4.5, 20min, WT, 24hrs",0,1200,4.5,1,0,19,5.4,0,1,92,3,2,333,3,2,NA,2442,1,D,red,WT,ALA,24hrs,No Treatment,1310,FALSE,FALSE
222,D1,"ALA, I=4.5, 20min, WT, 24hrs",0,1200,4.5,1,0,19,5.4,0,1,74,4,2,244,4,2,NA,2442,1,D,red,WT,ALA,24hrs,No Treatment,918,FALSE,FALSE
223,D1,"ALA, I=4.5, 20min, WT, 24hrs",0,1200,4.5,1,0,19,5.4,0,1,0,1,3,56,1,3,NA,2442,1,D,red,WT,ALA,24hrs,No Treatment,191,TRUE,TRUE
224,D1,"ALA, I=4.5, 20min, WT, 24hrs",0,1200,4.5,1,0,19,5.4,0,1,105,2,3,587,2,3,NA,2442,1,D,red,WT,ALA,24hrs,No Treatment,2407,TRUE,TRUE
225,D1,"ALA, I=4.5, 20min, WT, 24hrs",0,1200,4.5,1,0,19,5.4,0,1,131,3,3,322,3,3,NA,2442,1,D,red,WT,ALA,24hrs,No Treatment,1314,FALSE,FALSE
226,D1,"ALA, I=4.5, 20min, WT, 24hrs",0,1200,4.5,1,0,19,5.4,0,1,93,4,3,245,4,3,NA,2442,1,D,red,WT,ALA,24hrs,No Treatment,950,FALSE,FALSE
227,D1,"ALA, I=4.5, 20min, WT, 24hrs",0,1200,4.5,1,0,19,5.4,0,1,90,2,4,244,2,4,NA,2442,1,D,red,WT,ALA,24hrs,No Treatment,952,FALSE,FALSE
228,D1,"ALA, I=4.5, 20min, WT, 24hrs",0,1200,4.5,1,0,19,5.4,0,1,65,3,4,348,3,4,NA,2442,1,D,red,WT,ALA,24hrs,No Treatment,1168,FALSE,FALSE
229,D2,"ALA, I=4.5, 20min, WT, 24hrs",0,1200,4.5,1,0,20,5.4,0,1,80,2,1,376,2,1,NA,2442,2,D,blue,WT,ALA,24hrs,No Treatment,1315,FALSE,FALSE
230,D2,"ALA, I=4.5, 20min, WT, 24hrs",0,1200,4.5,1,0,20,5.4,0,1,111,3,1,362,3,1,NA,2442,2,D,blue,WT,ALA,24hrs,No Treatment,1189,FALSE,FALSE
231,D2,"ALA, I=4.5, 20min, WT, 24hrs",0,1200,4.5,1,0,20,5.4,0,1,19,1,2,337,1,2,NA,2442,2,D,blue,WT,ALA,24hrs,No Treatment,1288,FALSE,FALSE
232,D2,"ALA, I=4.5, 20min, WT, 24hrs",0,1200,4.5,1,0,20,5.4,0,1,99,2,2,411,2,2,NA,2442,2,D,blue,WT,ALA,24hrs,No Treatment,1324,FALSE,FALSE
233,D2,"ALA, I=4.5, 20min, WT, 24hrs",0,1200,4.5,1,0,20,5.4,0,1,72,3,2,435,3,2,NA,2442,2,D,blue,WT,ALA,24hrs,No Treatment,1387,FALSE,FALSE
234,D2,"ALA, I=4.5, 20min, WT, 24hrs",0,1200,4.5,1,0,20,5.4,0,1,69,4,2,287,4,2,NA,2442,2,D,blue,WT,ALA,24hrs,No Treatment,1124,FALSE,FALSE
235,D2,"ALA, I=4.5, 20min, WT, 24hrs",0,1200,4.5,1,0,20,5.4,0,1,58,1,3,245,1,3,NA,2442,2,D,blue,WT,ALA,24hrs,No Treatment,966,FALSE,FALSE
236,D2,"ALA, I=4.5, 20min, WT, 24hrs",0,1200,4.5,1,0,20,5.4,0,1,89,2,3,345,2,3,NA,2442,2,D,blue,WT,ALA,24hrs,No Treatment,1320,FALSE,FALSE
237,D2,"ALA, I=4.5, 20min, WT, 24hrs",0,1200,4.5,1,0,20,5.4,0,1,58,3,3,444,3,3,NA,2442,2,D,blue,WT,ALA,24hrs,No Treatment,1655,TRUE,TRUE
238,D2,"ALA, I=4.5, 20min, WT, 24hrs",0,1200,4.5,1,0,20,5.4,0,1,113,4,3,330,4,3,NA,2442,2,D,blue,WT,ALA,24hrs,No Treatment,1295,FALSE,FALSE
239,D2,"ALA, I=4.5, 20min, WT, 24hrs",0,1200,4.5,1,0,20,5.4,0,1,135,2,4,369,2,4,NA,2442,2,D,blue,WT,ALA,24hrs,No Treatment,1336,FALSE,FALSE
240,D2,"ALA, I=4.5, 20min, WT, 24hrs",0,1200,4.5,1,0,20,5.4,0,1,24,3,4,351,3,4,NA,2442,2,D,blue,WT,ALA,24hrs,No Treatment,1384,FALSE,FALSE
241,D3,"ALA, I=4.5, 20min, WT, 24hrs",0,1200,4.5,1,0,21,5.4,0,1,96,2,1,444,2,1,NA,2442,3,D,forestgreen,WT,ALA,24hrs,No Treatment,1296,FALSE,FALSE
242,D3,"ALA, I=4.5, 20min, WT, 24hrs",0,1200,4.5,1,0,21,5.4,0,1,122,3,1,278,3,1,NA,2442,3,D,forestgreen,WT,ALA,24hrs,No Treatment,1029,FALSE,FALSE
243,D3,"ALA, I=4.5, 20min, WT, 24hrs",0,1200,4.5,1,0,21,5.4,0,1,98,1,2,636,1,2,NA,2442,3,D,forestgreen,WT,ALA,24hrs,No Treatment,2279,TRUE,TRUE
244,D3,"ALA, I=4.5, 20min, WT, 24hrs",0,1200,4.5,1,0,21,5.4,0,1,140,2,2,401,2,2,NA,2442,3,D,forestgreen,WT,ALA,24hrs,No Treatment,1329,FALSE,FALSE
245,D3,"ALA, I=4.5, 20min, WT, 24hrs",0,1200,4.5,1,0,21,5.4,0,1,102,3,2,346,3,2,NA,2442,3,D,forestgreen,WT,ALA,24hrs,No Treatment,1271,FALSE,FALSE
246,D3,"ALA, I=4.5, 20min, WT, 24hrs",0,1200,4.5,1,0,21,5.4,0,1,73,4,2,264,4,2,NA,2442,3,D,forestgreen,WT,ALA,24hrs,No Treatment,1015,FALSE,FALSE
247,D3,"ALA, I=4.5, 20min, WT, 24hrs",0,1200,4.5,1,0,21,5.4,0,1,88,1,3,281,1,3,NA,2442,3,D,forestgreen,WT,ALA,24hrs,No Treatment,870,FALSE,FALSE
248,D3,"ALA, I=4.5, 20min, WT, 24hrs",0,1200,4.5,1,0,21,5.4,0,1,61,2,3,337,2,3,NA,2442,3,D,forestgreen,WT,ALA,24hrs,No Treatment,1122,FALSE,FALSE
249,D3,"ALA, I=4.5, 20min, WT, 24hrs",0,1200,4.5,1,0,21,5.4,0,1,85,3,3,377,3,3,NA,2442,3,D,forestgreen,WT,ALA,24hrs,No Treatment,1503,FALSE,FALSE
250,D3,"ALA, I=4.5, 20min, WT, 24hrs",0,1200,4.5,1,0,21,5.4,0,1,33,4,3,312,4,3,NA,2442,3,D,forestgreen,WT,ALA,24hrs,No Treatment,1103,FALSE,FALSE
251,D3,"ALA, I=4.5, 20min, WT, 24hrs",0,1200,4.5,1,0,21,5.4,0,1,98,2,4,306,2,4,NA,2442,3,D,forestgreen,WT,ALA,24hrs,No Treatment,1213,FALSE,FALSE
252,D3,"ALA, I=4.5, 20min, WT, 24hrs",0,1200,4.5,1,0,21,5.4,0,1,108,3,4,364,3,4,NA,2442,3,D,forestgreen,WT,ALA,24hrs,No Treatment,1206,FALSE,FALSE
253,D4,"ALA, I=6, 20min, WT, 24hrs",0,1200,6,1,0,22,7.2,0,1,100,2,1,335,2,1,NA,2442,4,D,gold,WT,ALA,24hrs,No Treatment,1436,FALSE,FALSE
254,D4,"ALA, I=6, 20min, WT, 24hrs",0,1200,6,1,0,22,7.2,0,1,126,3,1,246,3,1,NA,2442,4,D,gold,WT,ALA,24hrs,No Treatment,1036,FALSE,FALSE
255,D4,"ALA, I=6, 20min, WT, 24hrs",0,1200,6,1,0,22,7.2,0,1,97,1,2,407,1,2,NA,2442,4,D,gold,WT,ALA,24hrs,No Treatment,1940,FALSE,FALSE
256,D4,"ALA, I=6, 20min, WT, 24hrs",0,1200,6,1,0,22,7.2,0,1,99,2,2,674,2,2,NA,2442,4,D,gold,WT,ALA,24hrs,No Treatment,3172,TRUE,TRUE
257,D4,"ALA, I=6, 20min, WT, 24hrs",0,1200,6,1,0,22,7.2,0,1,101,3,2,257,3,2,NA,2442,4,D,gold,WT,ALA,24hrs,No Treatment,949,FALSE,FALSE
258,D4,"ALA, I=6, 20min, WT, 24hrs",0,1200,6,1,0,22,7.2,0,1,60,4,2,207,4,2,NA,2442,4,D,gold,WT,ALA,24hrs,No Treatment,772,FALSE,FALSE
259,D4,"ALA, I=6, 20min, WT, 24hrs",0,1200,6,1,0,22,7.2,0,1,61,1,3,165,1,3,NA,2442,4,D,gold,WT,ALA,24hrs,No Treatment,851,FALSE,FALSE
260,D4,"ALA, I=6, 20min, WT, 24hrs",0,1200,6,1,0,22,7.2,0,1,32,2,3,281,2,3,NA,2442,4,D,gold,WT,ALA,24hrs,No Treatment,1197,FALSE,FALSE
261,D4,"ALA, I=6, 20min, WT, 24hrs",0,1200,6,1,0,22,7.2,0,1,110,3,3,269,3,3,NA,2442,4,D,gold,WT,ALA,24hrs,No Treatment,1109,FALSE,FALSE
262,D4,"ALA, I=6, 20min, WT, 24hrs",0,1200,6,1,0,22,7.2,0,1,82,4,3,234,4,3,NA,2442,4,D,gold,WT,ALA,24hrs,No Treatment,1070,FALSE,FALSE
263,D4,"ALA, I=6, 20min, WT, 24hrs",0,1200,6,1,0,22,7.2,0,1,115,2,4,193,2,4,NA,2442,4,D,gold,WT,ALA,24hrs,No Treatment,989,FALSE,FALSE
264,D4,"ALA, I=6, 20min, WT, 24hrs",0,1200,6,1,0,22,7.2,0,1,83,3,4,252,3,4,NA,2442,4,D,gold,WT,ALA,24hrs,No Treatment,1045,FALSE,FALSE
265,D5,"ALA, I=6, 20min, WT, 24hrs",0,1200,6,1,0,23,7.2,0,1,40,2,1,441,2,1,NA,2442,5,D,purple,WT,ALA,24hrs,No Treatment,1752,FALSE,FALSE
266,D5,"ALA, I=6, 20min, WT, 24hrs",0,1200,6,1,0,23,7.2,0,1,92,3,1,204,3,1,NA,2442,5,D,purple,WT,ALA,24hrs,No Treatment,1058,FALSE,FALSE
267,D5,"ALA, I=6, 20min, WT, 24hrs",0,1200,6,1,0,23,7.2,0,1,52,1,2,299,1,2,NA,2442,5,D,purple,WT,ALA,24hrs,No Treatment,1202,FALSE,FALSE
268,D5,"ALA, I=6, 20min, WT, 24hrs",0,1200,6,1,0,23,7.2,0,1,69,2,2,366,2,2,NA,2442,5,D,purple,WT,ALA,24hrs,No Treatment,1415,FALSE,FALSE
269,D5,"ALA, I=6, 20min, WT, 24hrs",0,1200,6,1,0,23,7.2,0,1,49,3,2,212,3,2,NA,2442,5,D,purple,WT,ALA,24hrs,No Treatment,948,FALSE,FALSE
270,D5,"ALA, I=6, 20min, WT, 24hrs",0,1200,6,1,0,23,7.2,0,1,46,4,2,209,4,2,NA,2442,5,D,purple,WT,ALA,24hrs,No Treatment,799,FALSE,FALSE
271,D5,"ALA, I=6, 20min, WT, 24hrs",0,1200,6,1,0,23,7.2,0,1,27,1,3,49,1,3,NA,2442,5,D,purple,WT,ALA,24hrs,No Treatment,250,FALSE,FALSE
272,D5,"ALA, I=6, 20min, WT, 24hrs",0,1200,6,1,0,23,7.2,0,1,80,2,3,213,2,3,NA,2442,5,D,purple,WT,ALA,24hrs,No Treatment,1029,FALSE,FALSE
273,D5,"ALA, I=6, 20min, WT, 24hrs",0,1200,6,1,0,23,7.2,0,1,75,3,3,210,3,3,NA,2442,5,D,purple,WT,ALA,24hrs,No Treatment,1034,FALSE,FALSE
274,D5,"ALA, I=6, 20min, WT, 24hrs",0,1200,6,1,0,23,7.2,0,1,80,4,3,263,4,3,NA,2442,5,D,purple,WT,ALA,24hrs,No Treatment,1275,FALSE,FALSE
275,D5,"ALA, I=6, 20min, WT, 24hrs",0,1200,6,1,0,23,7.2,0,1,97,2,4,312,2,4,NA,2442,5,D,purple,WT,ALA,24hrs,No Treatment,1334,FALSE,FALSE
276,D5,"ALA, I=6, 20min, WT, 24hrs",0,1200,6,1,0,23,7.2,0,1,97,3,4,264,3,4,NA,2442,5,D,purple,WT,ALA,24hrs,No Treatment,1085,FALSE,FALSE
277,D6,"ALA, I=6, 20min, WT, 24hrs",0,1200,6,1,0,24,7.2,0,1,88,2,1,256,2,1,NA,2442,6,D,black,WT,ALA,24hrs,No Treatment,1128,FALSE,FALSE
278,D6,"ALA, I=6, 20min, WT, 24hrs",0,1200,6,1,0,24,7.2,0,1,37,3,1,134,3,1,NA,2442,6,D,black,WT,ALA,24hrs,No Treatment,669,FALSE,FALSE
279,D6,"ALA, I=6, 20min, WT, 24hrs",0,1200,6,1,0,24,7.2,0,1,95,1,2,195,1,2,NA,2442,6,D,black,WT,ALA,24hrs,No Treatment,663,FALSE,FALSE
280,D6,"ALA, I=6, 20min, WT, 24hrs",0,1200,6,1,0,24,7.2,0,1,73,2,2,316,2,2,NA,2442,6,D,black,WT,ALA,24hrs,No Treatment,1287,FALSE,FALSE
281,D6,"ALA, I=6, 20min, WT, 24hrs",0,1200,6,1,0,24,7.2,0,1,34,3,2,190,3,2,NA,2442,6,D,black,WT,ALA,24hrs,No Treatment,735,FALSE,FALSE
282,D6,"ALA, I=6, 20min, WT, 24hrs",0,1200,6,1,0,24,7.2,0,1,88,4,2,67,4,2,NA,2442,6,D,black,WT,ALA,24hrs,No Treatment,275,FALSE,FALSE
283,D6,"ALA, I=6, 20min, WT, 24hrs",0,1200,6,1,0,24,7.2,0,1,61,1,3,47,1,3,NA,2442,6,D,black,WT,ALA,24hrs,No Treatment,253,FALSE,FALSE
284,D6,"ALA, I=6, 20min, WT, 24hrs",0,1200,6,1,0,24,7.2,0,1,66,2,3,126,2,3,NA,2442,6,D,black,WT,ALA,24hrs,No Treatment,463,FALSE,FALSE
285,D6,"ALA, I=6, 20min, WT, 24hrs",0,1200,6,1,0,24,7.2,0,1,56,3,3,125,3,3,NA,2442,6,D,black,WT,ALA,24hrs,No Treatment,504,FALSE,FALSE
286,D6,"ALA, I=6, 20min, WT, 24hrs",0,1200,6,1,0,24,7.2,0,1,75,4,3,85,4,3,NA,2442,6,D,black,WT,ALA,24hrs,No Treatment,559,FALSE,FALSE
287,D6,"ALA, I=6, 20min, WT, 24hrs",0,1200,6,1,0,24,7.2,0,1,53,2,4,59,2,4,NA,2442,6,D,black,WT,ALA,24hrs,No Treatment,370,FALSE,FALSE
