,Batch,Well,WellNum,WellLetter,CellType,ALA,ALAincubation,duration,irradiance,Fluence,Drug,Batch.1,Frequency,DutyCycle,MeasA.Result,MeasB.Result,MeasB.PreTreatment,NscanOutliers,MeasB.Outlier,is.outlier,Meas.baseDiff.Result,Meas.percentChange.Result,Meas.foldChange.Result
1,2445,A1,1,A,WT,noALA,24hrs,1200,0,0,No Treatment,2445,0,1,-2.847222222,-13.84722222,22.41666667,0,FALSE,FALSE,-26.33333333,65.53750432,2.901705115
2,2445,A2,2,A,WT,noALA,24hrs,1200,0,0,No Treatment,2445,0,1,-10.51388889,5.236111111,10.08333333,0,FALSE,FALSE,-57.75,109.9709072,-10.02917772
3,2445,A3,3,A,WT,noALA,24hrs,1200,0,0,No Treatment,2445,0,1,-5.430555556,3.069444444,14.41666667,0,FALSE,FALSE,-51.25,106.370712,-15.69683258
4,2445,A4,4,A,WT,noALA,24hrs,1200,0,0,No Treatment,2445,0,1,6.736111111,-0.513888889,24.33333333,0,FALSE,FALSE,-37.75,98.6569873,74.45945946
5,2445,A5,5,A,WT,noALA,24hrs,1200,0,0,No Treatment,2445,0,1,10.48611111,5.319444444,16.08333333,0,FALSE,FALSE,-51.83333333,111.4362496,-8.744125326
6,2445,A6,6,A,WT,noALA,24hrs,1200,0,0,No Treatment,2445,0,1,1.569444444,0.736111111,26.16666667,0,FALSE,FALSE,-37.16666667,102.0205871,-49.49056604
7,2445,B1,1,B,WT,ALA,24hrs,1200,0,0,No Treatment,2445,0,1,61.40277778,1537.152778,1451.333333,0,FALSE,FALSE,-148.4166667,-10.68717559,0.90344703
8,2445,B2,2,B,WT,ALA,24hrs,1200,0,0,No Treatment,2445,0,1,66.06944444,1504.902778,1430.25,0,FALSE,FALSE,-137.25,-10.03544191,0.908798095
9,2445,B3,3,B,WT,ALA,24hrs,1200,0,0,No Treatment,2445,0,1,59.98611111,1490.736111,1401.166667,0,FALSE,FALSE,-152.1666667,-11.36785748,0.897925149
10,2445,B4,4,B,WT,ALA,24hrs,1200,0.75,0.9,No Treatment,2445,0,1,60.48611111,1385.652778,2144.75,0,TRUE,TRUE,696.5,33.45095554,1.502651177
11,2445,B5,5,B,WT,ALA,24hrs,1200,0.75,0.9,No Treatment,2445,0,1,25.06944444,627.3194444,1048.583333,0,FALSE,FALSE,358.6666667,36.37644208,1.571744858
12,2445,B6,6,B,WT,ALA,24hrs,1200,0.75,0.9,No Treatment,2445,0,1,32.06944444,364.6527778,667.4166667,0,FALSE,FALSE,240.1666667,39.70882036,1.658617406
13,2445,C1,1,C,WT,ALA,24hrs,1200,1.5,1.8,No Treatment,2445,0,1,50.98611111,670.8194444,1515.833333,0,FALSE,FALSE,782.4166667,53.83961083,2.166359552
14,2445,C2,2,C,WT,ALA,24hrs,1200,1.5,1.8,No Treatment,2445,0,1,47.56944444,743.6027778,1559.9,2,FALSE,FALSE,753.7,50.33718037,2.013578785
15,2445,C3,3,C,WT,ALA,24hrs,1200,1.5,1.8,No Treatment,2445,0,1,46.90277778,646.2361111,1443.5,0,FALSE,FALSE,734.6666667,53.20191099,2.13683939
16,2445,C4,4,C,WT,ALA,24hrs,1200,3,3.6,No Treatment,2445,0,1,45.48611111,471.9027778,1446.583333,0,FALSE,FALSE,912.0833333,65.90263631,2.932778056
17,2445,C5,5,C,WT,ALA,24hrs,1200,3,3.6,No Treatment,2445,0,1,33.81944444,318.5694444,975.0833333,0,FALSE,FALSE,593.9166667,65.08774867,2.864324018
18,2445,C6,6,C,WT,ALA,24hrs,1200,3,3.6,No Treatment,2445,0,1,33.98611111,194.9027778,606.0833333,0,FALSE,FALSE,348.5833333,64.13840689,2.788498539
19,2445,D1,1,D,WT,ALA,24hrs,1200,4.5,5.4,No Treatment,2445,0,1,38.98611111,303.4027778,1178.833333,0,FALSE,FALSE,812.8333333,72.8191218,3.679056992
20,2445,D2,2,D,WT,ALA,24hrs,1200,4.5,5.4,No Treatment,2445,0,1,38.23611111,326.8194444,1305.166667,0,FALSE,FALSE,915.75,73.69809423,3.802005865
21,2445,D3,3,D,WT,ALA,24hrs,1200,4.5,5.4,No Treatment,2445,0,1,46.90277778,298.5694444,1111.583333,0,FALSE,FALSE,750.4166667,71.53733102,3.513373959
22,2445,D4,4,D,WT,ALA,24hrs,1200,6,7.2,No Treatment,2445,0,1,26.31944444,284.8194444,1393.333333,0,FALSE,FALSE,1045.916667,78.59685011,4.672209489
23,2445,D5,5,D,WT,ALA,24hrs,1200,6,7.2,No Treatment,2445,0,1,27.31944444,202.3194444,908.0833333,0,FALSE,FALSE,643.1666667,76.07063655,4.178966156
24,2445,D6,6,D,WT,ALA,24hrs,1200,6,7.2,No Treatment,2445,0,1,15.29671717,140.2209596,636.6363636,0,FALSE,FALSE,433.8181818,75.57292709,4.093818378
