,Batch,Well,WellNum,WellLetter,CellType,ALA,ALAincubation,duration,irradiance,Fluence,Drug,Batch.1,Frequency,DutyCycle,MeasA.Result,MeasB.Result,MeasB.PreTreatment,NscanOutliers,MeasB.Outlier,is.outlier,Meas.baseDiff.Result,Meas.percentChange.Result,Meas.foldChange.Result
1,2477,A1,1,A,WT,ALA,24hrs,1200,0,0,No Treatment,2477,0,1,65.28030303,1875.965909,1957.333333,0,FALSE,FALSE,-12.08333333,-0.648288336,0.993558874
2,2477,A2,2,A,WT,ALA,24hrs,1200,0,0,No Treatment,2477,0,1,75.86363636,1834.132576,1916.083333,0,FALSE,FALSE,-11.5,-0.630955474,0.993730006
3,2477,A3,3,A,WT,ALA,24hrs,1200,0,0,No Treatment,2477,0,1,79.4469697,1976.799242,2066.166667,0,FALSE,FALSE,-4.083333333,-0.20699044,0.997934371
4,2477,A4,4,A,WT,ALA,24hrs,1200,0,0,No Treatment,2477,0,1,111.4469697,2329.965909,2378.416667,0,TRUE,TRUE,-45,-1.969394809,0.980686413
5,2477,A5,5,A,WT,ALA,24hrs,1200,0,0,No Treatment,2477,0,1,100.6969697,2418.132576,2479,0,TRUE,TRUE,-32.58333333,-1.365862953,0.986525415
6,2477,A6,6,A,WT,ALA,24hrs,1200,0,0,No Treatment,2477,0,1,99.36363636,2442.382576,2515.916667,0,TRUE,TRUE,-19.91666667,-0.822164993,0.991845394
7,2477,A7,7,A,WT,noALA,24hrs,1200,0,0,No Treatment,2477,0,1,11.11363636,-5.617424242,96.5,0,FALSE,FALSE,8.666666667,284.2236025,-0.542818611
8,2477,A8,8,A,WT,noALA,24hrs,1200,0,0,No Treatment,2477,0,1,7.446969697,3.299242424,83.08333333,0,FALSE,FALSE,-13.66666667,131.823164,-3.142365098
9,2477,A9,9,A,WT,noALA,24hrs,1200,0,0,No Treatment,2477,0,1,1.696969697,-5.534090909,98.75,0,FALSE,FALSE,10.83333333,204.431737,-0.957563313
10,2477,A10,10,A,WT,noALA,24hrs,1200,0,0,No Treatment,2477,0,1,1.28030303,14.71590909,96.5,0,FALSE,FALSE,-11.66666667,-382.6086957,0.207207207
11,2477,A11,11,A,WT,noALA,24hrs,1200,0,0,No Treatment,2477,0,1,-14.0530303,-8.867424242,93.58333333,0,FALSE,FALSE,9,6788.571429,-0.014950876
12,2477,A12,12,A,WT,noALA,24hrs,1200,0,0,No Treatment,2477,0,1,-7.484848485,2.003787879,105.3636364,1,FALSE,FALSE,9.909090909,83.17965024,5.945179584
13,2477,B1,1,B,WT,ALA,24hrs,1200,0,0,No Treatment,2477,0,1,57.03030303,1578.049242,1574.583333,0,FALSE,FALSE,-96.91666667,-6.543416049,0.938584511
14,2477,B2,2,B,WT,ALA,24hrs,1200,0.75,0.9,No Treatment,2477,0,1,35.28030303,1059.882576,1688.666667,0,FALSE,FALSE,535.3333333,33.55867568,1.505087399
15,2477,B3,3,B,WT,ALA,24hrs,1200,0.75,0.9,No Treatment,2477,0,1,62.61363636,1055.715909,1669.666667,0,FALSE,FALSE,520.5,33.02212578,1.493030365
16,2477,B4,4,B,WT,ALA,24hrs,1200,0.75,0.9,No Treatment,2477,0,1,85.6969697,1344.912879,2102.545455,1,FALSE,FALSE,664.1818182,33.0587612,1.493847467
17,2477,B5,5,B,WT,ALA,24hrs,1200,0.75,0.9,No Treatment,2477,0,1,55.4469697,1126.632576,1793,0,FALSE,FALSE,572.9166667,33.70991863,1.508521304
18,2477,B6,6,B,WT,ALA,24hrs,1200,0.75,0.9,No Treatment,2477,0,1,49.42424242,1318.458333,2085.727273,1,FALSE,FALSE,673.8181818,33.82151909,1.511065208
19,2477,B7,7,B,WT,ALA,24hrs,1200,0.75,0.9,No Treatment,2477,0,1,53.03030303,1092.965909,1723.166667,0,FALSE,FALSE,536.75,32.93518809,1.491094915
20,2477,B8,8,B,WT,ALA,24hrs,1200,0.75,0.9,No Treatment,2477,0,1,52.03030303,1058.632576,1703.916667,0,FALSE,FALSE,551.8333333,34.26544643,1.521269934
21,2477,B9,9,B,WT,ALA,24hrs,1200,1.5,1.8,No Treatment,2477,0,1,65.11363636,931.5492424,1836.833333,0,FALSE,FALSE,811.8333333,46.5665623,1.871487299
22,2477,B10,10,B,WT,ALA,24hrs,1200,1.5,1.8,No Treatment,2477,0,1,73.1969697,976.4659091,1877.333333,0,FALSE,FALSE,807.4166667,45.26176093,1.826876452
23,2477,B11,11,B,WT,ALA,24hrs,1200,1.5,1.8,No Treatment,2477,0,1,47.4469697,788.9659091,1559.25,0,FALSE,FALSE,676.8333333,46.17503637,1.857873991
24,2477,B12,12,B,WT,ALA,24hrs,1200,1.5,1.8,No Treatment,2477,0,1,30.11363636,719.7159091,1429,0,FALSE,FALSE,615.8333333,46.11086688,1.855661693
25,2477,C1,1,C,WT,ALA,24hrs,1200,4.5,5.4,No Treatment,2477,0,1,70.11363636,436.6325758,1435.333333,0,FALSE,FALSE,905.25,67.46119343,3.073253464
26,2477,C2,2,C,WT,ALA,24hrs,1200,4.5,5.4,No Treatment,2477,0,1,66.11363636,537.6325758,1792,0,FALSE,FALSE,1160.916667,68.34754258,3.159312361
27,2477,C3,3,C,WT,ALA,24hrs,1200,3,3.6,No Treatment,2477,0,1,69.11363636,670.4659091,1799.833333,0,FALSE,FALSE,1035.916667,60.70834767,2.545069858
28,2477,C4,4,C,WT,ALA,24hrs,1200,3,3.6,No Treatment,2477,0,1,91.53030303,761.7992424,1955.75,0,FALSE,FALSE,1100.5,59.09361798,2.44460632
29,2477,C5,5,C,WT,ALA,24hrs,1200,3,3.6,No Treatment,2477,0,1,75.6969697,742.4659091,1979.333333,0,FALSE,FALSE,1143.416667,60.63032139,2.540025815
30,2477,C6,6,C,WT,ALA,24hrs,1200,3,3.6,No Treatment,2477,0,1,78.4469697,739.3825758,1910,0,FALSE,FALSE,1077.166667,59.2974108,2.456846161
31,2477,C7,7,C,WT,ALA,24hrs,1200,3,3.6,No Treatment,2477,0,1,78.36363636,719.1325758,1914.916667,0,FALSE,FALSE,1102.333333,60.51902085,2.532865247
32,2477,C8,8,C,WT,ALA,24hrs,1200,3,3.6,No Treatment,2477,0,1,54.24242424,705.5492424,1925.454545,1,FALSE,FALSE,1126.454545,61.4875664,2.596564035
33,2477,C9,9,C,WT,ALA,24hrs,1200,3,3.6,No Treatment,2477,0,1,59.03030303,662.7992424,1828.5,0,FALSE,FALSE,1072.25,61.79939876,2.617759845
34,2477,C10,10,C,WT,ALA,24hrs,1200,1.5,1.8,No Treatment,2477,0,1,75.61363636,934.5492424,1838.083333,0,FALSE,FALSE,810.0833333,46.43289049,1.866817174
35,2477,C11,11,C,WT,ALA,24hrs,1200,1.5,1.8,No Treatment,2477,0,1,51.4469697,855.3825758,1675.25,0,FALSE,FALSE,726.4166667,45.92344257,1.849230142
36,2477,C12,12,C,WT,ALA,24hrs,1200,1.5,1.8,No Treatment,2477,0,1,58.28030303,772.7159091,1487.416667,0,FALSE,FALSE,621.25,44.56708704,1.803982412
37,2477,D1,1,D,WT,ALA,24hrs,1200,4.5,5.4,No Treatment,2477,0,1,69.6969697,473.4659091,1532.416667,0,FALSE,FALSE,965.5,67.09679457,3.039217569
38,2477,D2,2,D,WT,ALA,24hrs,1200,4.5,5.4,No Treatment,2477,0,1,58.03030303,491.3825758,1581.583333,0,FALSE,FALSE,996.75,66.97991941,3.028460204
39,2477,D3,3,D,WT,ALA,24hrs,1200,4.5,5.4,No Treatment,2477,0,1,77.78030303,614.3825758,1917.083333,0,FALSE,FALSE,1209.25,66.30995827,2.968236157
40,2477,D4,4,D,WT,ALA,24hrs,1200,4.5,5.4,No Treatment,2477,0,1,72.86363636,575.1325758,1895,0,FALSE,FALSE,1226.416667,68.0756672,3.132406889
41,2477,D5,5,D,WT,ALA,24hrs,1200,4.5,5.4,No Treatment,2477,0,1,64.86363636,567.3825758,1841.75,0,FALSE,FALSE,1180.916667,67.54659832,3.081341086
42,2477,D6,6,D,WT,ALA,24hrs,1200,6,7.2,No Treatment,2477,0,1,60.1969697,460.8492424,1875.4,2,FALSE,FALSE,1321.1,74.13791418,3.866664146
43,2477,D7,7,D,WT,ALA,24hrs,1200,6,7.2,No Treatment,2477,0,1,84.28030303,474.7159091,1924,0,FALSE,FALSE,1355.833333,74.06702327,3.856094155
44,2477,D8,8,D,WT,ALA,24hrs,1200,6,7.2,No Treatment,2477,0,1,71.78030303,510.6325758,2027.916667,0,FALSE,FALSE,1423.833333,73.60343373,3.788371524
45,2477,D9,9,D,WT,ALA,24hrs,1200,6,7.2,No Treatment,2477,0,1,79.03030303,490.9659091,2002.083333,0,FALSE,FALSE,1417.666667,74.27656243,3.887505304
46,2477,D10,10,D,WT,ALA,24hrs,1200,6,7.2,No Treatment,2477,0,1,79.6969697,499.0492424,1958.333333,0,FALSE,FALSE,1365.833333,73.2396426,3.736870868
47,2477,D11,11,D,WT,ALA,24hrs,1200,6,7.2,No Treatment,2477,0,1,79.78030303,543.7992424,2083.916667,0,FALSE,FALSE,1446.666667,72.67980125,3.66029548
48,2477,D12,12,D,WT,ALA,24hrs,1200,6,7.2,No Treatment,2477,0,1,39.3219697,428.4242424,1573.5,4,FALSE,TRUE,1051.625,71.05337916,3.454634673
49,2477,E1,1,E,WT,ALA,24hrs,0.01,4.5,1.35,No Treatment,2477,25,0.25,53.33333333,782.4583333,1412,1,FALSE,FALSE,536.0909091,40.65763279,1.685136686
50,2477,E2,2,E,WT,ALA,24hrs,0.01,4.5,1.35,No Treatment,2477,25,0.25,47.53030303,951.1325758,1658.25,0,FALSE,FALSE,613.6666667,39.21695832,1.64519572
51,2477,E3,3,E,WT,ALA,24hrs,0.01,4.5,1.35,No Treatment,2477,25,0.25,62.4469697,1046.799242,1821.583333,0,FALSE,FALSE,681.3333333,39.4259875,1.650872971
52,2477,E4,4,E,WT,ALA,24hrs,0.01,4.5,1.35,No Treatment,2477,25,0.25,55.86363636,985.9659091,1786.833333,0,FALSE,FALSE,707.4166667,41.77535997,1.717485929
53,2477,E5,5,E,WT,ALA,24hrs,0.01,4.5,1.35,No Treatment,2477,25,0.25,57.61363636,1082.715909,1902,0,FALSE,FALSE,725.8333333,40.13345704,1.670382071
54,2477,E6,6,E,WT,ALA,24hrs,0.01,4.5,1.35,No Treatment,2477,25,0.25,58.1969697,1126.132576,1888.833333,0,FALSE,FALSE,669.25,37.27617774,1.594290596
55,2477,E7,7,E,WT,ALA,24hrs,0.05,4.5,1.35,No Treatment,2477,10,0.5,58.28030303,1144.882576,1809.083333,0,FALSE,FALSE,570.75,33.26761266,1.498522741
56,2477,E8,8,E,WT,ALA,24hrs,0.05,4.5,1.35,No Treatment,2477,10,0.5,60.36363636,1109.549242,1726.666667,0,FALSE,FALSE,523.6666667,32.06352961,1.47196343
57,2477,E9,9,E,WT,ALA,24hrs,0.05,4.5,1.35,No Treatment,2477,10,0.5,80.61363636,1219.132576,1887.666667,0,FALSE,FALSE,575.0833333,32.05206968,1.471715173
58,2477,E10,10,E,WT,ALA,24hrs,0.05,4.5,1.35,No Treatment,2477,10,0.5,91.1969697,1363.049242,2062.666667,0,FALSE,FALSE,606.1666667,30.78213333,1.444713696
59,2477,E11,11,E,WT,ALA,24hrs,0.05,4.5,1.35,No Treatment,2477,10,0.5,63.78030303,1002.299242,1544.166667,0,FALSE,FALSE,448.4166667,30.91002614,1.447388013
60,2477,E12,12,E,WT,ALA,24hrs,0.05,4.5,1.35,No Treatment,2477,10,0.5,52.11363636,928.9659091,1472.583333,0,FALSE,FALSE,450.1666667,32.64129023,1.484589006
61,2477,F1,1,F,WT,ALA,24hrs,0.05,4.5,1.35,No Treatment,2477,5,0.25,48.78030303,867.7159091,1545.333333,0,FALSE,FALSE,584.1666667,40.23511794,1.673223414
62,2477,F2,2,F,WT,ALA,24hrs,0.05,4.5,1.35,No Treatment,2477,5,0.25,67.78030303,919.2159091,1629.333333,0,FALSE,FALSE,616.6666667,40.15063888,1.670861612
63,2477,F3,3,F,WT,ALA,24hrs,0.05,4.5,1.35,No Treatment,2477,5,0.25,71.36363636,932.4659091,1645.5,0,FALSE,FALSE,619.5833333,39.92033992,1.664456821
64,2477,F4,4,F,WT,ALA,24hrs,0.05,4.5,1.35,No Treatment,2477,5,0.25,50.11363636,954.7992424,1642.583333,0,FALSE,FALSE,594.3333333,38.36555648,1.622469423
65,2477,F5,5,F,WT,ALA,24hrs,0.05,4.5,1.35,No Treatment,2477,5,0.25,58.61363636,1040.299242,1811.916667,0,FALSE,FALSE,678.1666667,39.46349259,1.651895761
66,2477,F6,6,F,WT,ALA,24hrs,0.05,4.5,1.35,No Treatment,2477,5,0.25,77.28030303,1101.632576,1901.833333,0,FALSE,FALSE,706.75,39.08188508,1.64154784
67,2477,F7,7,F,WT,ALA,24hrs,0.1,4.5,1.35,No Treatment,2477,5,0.5,50.28030303,1067.882576,1630.416667,0,FALSE,FALSE,469.0833333,30.52008705,1.4392649
68,2477,F8,8,F,WT,ALA,24hrs,0.1,4.5,1.35,No Treatment,2477,5,0.5,86.9469697,1085.965909,1696.75,0,FALSE,FALSE,517.3333333,32.26679834,1.476380823
69,2477,F9,9,F,WT,ALA,24hrs,0.1,4.5,1.35,No Treatment,2477,5,0.5,86.9469697,1205.632576,1861.333333,0,FALSE,FALSE,562.25,31.80358287,1.466352694
70,2477,F10,10,F,WT,ALA,24hrs,0.1,4.5,1.35,No Treatment,2477,5,0.5,73.28030303,1199.965909,1857.416667,0,FALSE,FALSE,564,31.97340703,1.470013353
71,2477,F11,11,F,WT,ALA,24hrs,0.1,4.5,1.35,No Treatment,2477,5,0.5,61.53030303,1072.715909,1642.833333,0,FALSE,FALSE,476.6666667,30.76494302,1.44435499
72,2477,F12,12,F,WT,ALA,24hrs,0.1,4.5,1.35,No Treatment,2477,5,0.5,59.33333333,969.1856061,1554.636364,1,FALSE,FALSE,492,33.67128707,1.507642702
73,2477,G1,1,G,WT,ALA,24hrs,0.1,4.5,1.35,No Treatment,2477,3.333333333,0.333333333,44.78030303,923.5492424,1524,0,FALSE,FALSE,507,35.4409331,1.548969104
74,2477,G2,2,G,WT,ALA,24hrs,0.1,4.5,1.35,No Treatment,2477,3.333333333,0.333333333,44.78030303,1011.132576,1640.333333,0,FALSE,FALSE,535.75,34.63417381,1.529851389
75,2477,G3,3,G,WT,ALA,24hrs,0.1,4.5,1.35,No Treatment,2477,3.333333333,0.333333333,76.1969697,1135.465909,1845.666667,0,FALSE,FALSE,616.75,35.19828788,1.543169104
76,2477,G4,4,G,WT,ALA,24hrs,0.1,4.5,1.35,No Treatment,2477,3.333333333,0.333333333,57.78030303,1120.465909,1839.75,0,FALSE,FALSE,625.8333333,35.8376914,1.558547412
77,2477,G5,5,G,WT,ALA,24hrs,0.1,4.5,1.35,No Treatment,2477,3.333333333,0.333333333,42.0969697,989.7492424,1560.8,2,FALSE,FALSE,477.6,32.54848854,1.482546467
78,2477,G6,6,G,WT,ALA,24hrs,0.1,4.5,1.35,No Treatment,2477,3.333333333,0.333333333,63.15151515,894.7310606,1481.454545,1,FALSE,FALSE,493.2727273,35.53828394,1.551308375
79,2477,G7,7,G,WT,ALA,24hrs,0.25,4.5,1.35,No Treatment,2477,1,0.25,66.42424242,1103.458333,1897.545455,1,FALSE,FALSE,700.6363636,38.8358973,1.634945917
80,2477,G8,8,G,WT,ALA,24hrs,0.25,4.5,1.35,No Treatment,2477,1,0.25,50.1969697,884.2159091,1581.166667,0,FALSE,FALSE,603.5,40.56554053,1.682525607
81,2477,G9,9,G,WT,ALA,24hrs,0.25,4.5,1.35,No Treatment,2477,1,0.25,62.28030303,982.7992424,1708.916667,0,FALSE,FALSE,632.6666667,39.16310849,1.643739473
82,2477,G10,10,G,WT,ALA,24hrs,0.25,4.5,1.35,No Treatment,2477,1,0.25,50.03030303,856.9659091,1476.916667,0,FALSE,FALSE,526.5,38.0565937,1.614376832
83,2477,G11,11,G,WT,ALA,24hrs,0.25,4.5,1.35,No Treatment,2477,1,0.25,43.33333333,924.1856061,1608.636364,1,FALSE,FALSE,591,39.00512238,1.639481935
84,2477,G12,12,G,WT,ALA,24hrs,0.25,4.5,1.35,No Treatment,2477,1,0.25,51.36363636,916.6325758,1635.583333,0,FALSE,FALSE,625.5,40.56071507,1.682389014
85,2477,H1,1,H,WT,ALA,24hrs,0.5,4.5,1.35,No Treatment,2477,0.5,0.25,51.86363636,790.7159091,1393.25,0,FALSE,FALSE,509.0833333,39.16630482,1.643825839
86,2477,H2,2,H,WT,ALA,24hrs,0.5,4.5,1.35,No Treatment,2477,0.5,0.25,40.03030303,596.1325758,1065.666667,0,TRUE,TRUE,376.0833333,38.68310833,1.630871971
87,2477,H3,3,H,WT,ALA,24hrs,0.5,4.5,1.35,No Treatment,2477,0.5,0.25,46.4469697,695.3825758,1292.333333,0,FALSE,FALSE,503.5,41.9974408,1.724061858
88,2477,H4,4,H,WT,ALA,24hrs,0.5,4.5,1.35,No Treatment,2477,0.5,0.25,45.78030303,780.4659091,1388.833333,0,FALSE,FALSE,514.9166667,39.75016156,1.659755488
89,2477,H5,5,H,WT,ALA,24hrs,0.5,4.5,1.35,No Treatment,2477,0.5,0.25,27.9469697,606.7159091,1114.666667,0,TRUE,TRUE,414.5,40.58887022,1.683186305
90,2477,H6,6,H,WT,ALA,24hrs,0.5,4.5,1.35,No Treatment,2477,0.5,0.25,35.03030303,663.7992424,1179.75,0,TRUE,TRUE,422.5,38.89351879,1.63648762
91,2477,H7,7,H,WT,ALA,24hrs,300,4.5,1.35,No Treatment,2477,0,1,38.9469697,732.4659091,1079.333333,0,TRUE,TRUE,253.4166667,25.70454869,1.345977422
92,2477,H8,8,H,WT,ALA,24hrs,300,4.5,1.35,No Treatment,2477,0,1,56.4469697,921.7992424,1336.333333,0,FALSE,FALSE,321.0833333,25.83376254,1.34832241
93,2477,H9,9,H,WT,ALA,24hrs,300,4.5,1.35,No Treatment,2477,0,1,61.11363636,983.2159091,1414.666667,0,FALSE,FALSE,338,25.58249546,1.343769865
94,2477,H10,10,H,WT,ALA,24hrs,300,4.5,1.35,No Treatment,2477,0,1,67.1969697,1024.215909,1490.666667,0,FALSE,FALSE,373,26.69594567,1.364181025
95,2477,H11,11,H,WT,ALA,24hrs,300,4.5,1.35,No Treatment,2477,0,1,54.33333333,882.8219697,1327.545455,1,FALSE,FALSE,351.2727273,28.46400103,1.397897582
96,2477,H12,12,H,WT,ALA,24hrs,300,4.5,1.35,No Treatment,2477,0,1,49.15151515,904.8219697,1360.181818,1,FALSE,FALSE,361.9090909,28.5703179,1.399978231
