EESchema Schematic File Version 2
LIBS:lightboard_24well-rescue
LIBS:power
LIBS:device
LIBS:transistors
LIBS:conn
LIBS:linear
LIBS:regul
LIBS:74xx
LIBS:cmos4000
LIBS:adc-dac
LIBS:memory
LIBS:xilinx
LIBS:microcontrollers
LIBS:dsp
LIBS:microchip
LIBS:analog_switches
LIBS:motorola
LIBS:texas
LIBS:intel
LIBS:audio
LIBS:interface
LIBS:digital-audio
LIBS:philips
LIBS:display
LIBS:cypress
LIBS:siliconi
LIBS:opto
LIBS:atmel
LIBS:contrib
LIBS:valves
LIBS:lightboard_24well-cache
EELAYER 25 0
EELAYER END
$Descr A3 16535 11693
encoding utf-8
Sheet 1 1
Title ""
Date ""
Rev ""
Comp ""
Comment1 ""
Comment2 ""
Comment3 ""
Comment4 ""
$EndDescr
Text Notes 12250 10950 0    79   ~ 0
Project Helike -- Multiwell Plate Illuminator
Text Notes 11900 10450 0    79   ~ 0
Copyright (c) 2018 Suzanna Katz, Peter Backeris, Chris Merck\nAll Rights Reserved\nProprietary Information  -- Not for Release
$Comp
L CONN_01X16 P1
U 1 1 589C3C4D
P 1650 2200
F 0 "P1" H 1650 3050 50  0000 C CNN
F 1 "CONN_01X16" V 1750 2200 50  0000 C CNN
F 2 "Socket_Strips:Socket_Strip_Straight_2x08_Pitch2.54mm" H 1650 2200 50  0000 C CNN
F 3 "" H 1650 2200 50  0000 C CNN
	1    1650 2200
	-1   0    0    1   
$EndComp
Text Label 2200 1850 2    60   ~ 0
DB1-4
Text Label 2200 1950 2    60   ~ 0
DB1-3
Text Label 2200 2450 2    60   ~ 0
DB1-2
Text Label 2200 2550 2    60   ~ 0
DB1-1
Text Label 2200 2050 2    60   ~ 0
DA1-4
Text Label 2200 2150 2    60   ~ 0
DA1-3
Text Label 2200 2250 2    60   ~ 0
DA1-2
Text Label 2200 2350 2    60   ~ 0
DA1-1
Text Label 2200 2750 2    60   ~ 0
DC1-1
Text Label 2200 2650 2    60   ~ 0
DC1-2
Text Label 2200 1750 2    60   ~ 0
DC1-3
Text Label 2200 1650 2    60   ~ 0
DC1-4
Text Label 2200 2950 2    60   ~ 0
DD1-1
Text Label 2200 2850 2    60   ~ 0
DD1-2
Text Label 2200 1550 2    60   ~ 0
DD1-3
Text Label 2200 1450 2    60   ~ 0
DD1-4
$Comp
L CONN_01X16 P2
U 1 1 589E196E
P 3400 2150
F 0 "P2" H 3400 3000 50  0000 C CNN
F 1 "CONN_01X16" V 3500 2150 50  0000 C CNN
F 2 "Socket_Strips:Socket_Strip_Straight_2x08_Pitch2.54mm" H 3400 2150 50  0000 C CNN
F 3 "" H 3400 2150 50  0000 C CNN
	1    3400 2150
	-1   0    0    1   
$EndComp
Text Label 3950 1800 2    60   ~ 0
DB2-4
Text Label 3950 1900 2    60   ~ 0
DB2-3
Text Label 3950 2400 2    60   ~ 0
DB2-2
Text Label 3950 2500 2    60   ~ 0
DB2-1
Text Label 3950 2000 2    60   ~ 0
DA2-4
Text Label 3950 2100 2    60   ~ 0
DA2-3
Text Label 3950 2200 2    60   ~ 0
DA2-2
Text Label 3950 2300 2    60   ~ 0
DA2-1
Text Label 3950 2700 2    60   ~ 0
DC2-1
Text Label 3950 2600 2    60   ~ 0
DC2-2
Text Label 3950 1700 2    60   ~ 0
DC2-3
Text Label 3950 1600 2    60   ~ 0
DC2-4
Text Label 3950 2900 2    60   ~ 0
DD2-1
Text Label 3950 2800 2    60   ~ 0
DD2-2
Text Label 3950 1500 2    60   ~ 0
DD2-3
Text Label 3950 1400 2    60   ~ 0
DD2-4
$Comp
L CONN_01X16 P3
U 1 1 589E1ABE
P 1650 4500
F 0 "P3" H 1650 5350 50  0000 C CNN
F 1 "CONN_01X16" V 1750 4500 50  0000 C CNN
F 2 "Socket_Strips:Socket_Strip_Straight_2x08_Pitch2.54mm" H 1650 4500 50  0000 C CNN
F 3 "" H 1650 4500 50  0000 C CNN
	1    1650 4500
	-1   0    0    1   
$EndComp
$Comp
L CONN_01X16 P4
U 1 1 589E1AE4
P 3750 4500
F 0 "P4" H 3750 5350 50  0000 C CNN
F 1 "CONN_01X16" V 3850 4500 50  0000 C CNN
F 2 "Socket_Strips:Socket_Strip_Straight_2x08_Pitch2.54mm" H 3750 4500 50  0000 C CNN
F 3 "" H 3750 4500 50  0000 C CNN
	1    3750 4500
	-1   0    0    1   
$EndComp
$Comp
L CONN_01X16 P5
U 1 1 589E1CDE
P 1700 6600
F 0 "P5" H 1700 7450 50  0000 C CNN
F 1 "CONN_01X16" V 1800 6600 50  0000 C CNN
F 2 "Socket_Strips:Socket_Strip_Straight_2x08_Pitch2.54mm" H 1700 6600 50  0000 C CNN
F 3 "" H 1700 6600 50  0000 C CNN
	1    1700 6600
	-1   0    0    1   
$EndComp
$Comp
L CONN_01X16 P6
U 1 1 589E1D04
P 3450 6350
F 0 "P6" H 3450 7200 50  0000 C CNN
F 1 "CONN_01X16" V 3550 6350 50  0000 C CNN
F 2 "Socket_Strips:Socket_Strip_Straight_2x08_Pitch2.54mm" H 3450 6350 50  0000 C CNN
F 3 "" H 3450 6350 50  0000 C CNN
	1    3450 6350
	-1   0    0    1   
$EndComp
Text Label 2700 8050 0    60   ~ 0
V_LED
Text Label 2700 8150 0    60   ~ 0
V_LED
$Comp
L LED_QUAD_CCA DA1
U 1 1 58A177C4
P 6850 3050
F 0 "DA1" H 7200 3050 50  0000 C CNN
F 1 "LED_QUAD_CCA" H 6900 2500 50  0000 C CNN
F 2 "footprints:PLCC-2x4" H 6900 3050 50  0001 C CNN
F 3 "" H 6900 3050 50  0000 C CNN
	1    6850 3050
	1    0    0    -1  
$EndComp
$Comp
L LED_QUAD_CCA DB1
U 1 1 58A17819
P 6850 4200
F 0 "DB1" H 7200 4200 50  0000 C CNN
F 1 "LED_QUAD_CCA" H 6900 3650 50  0000 C CNN
F 2 "footprints:PLCC-2x4" H 6900 4200 50  0001 C CNN
F 3 "" H 6900 4200 50  0000 C CNN
	1    6850 4200
	1    0    0    -1  
$EndComp
$Comp
L LED_QUAD_CCA DC1
U 1 1 58A17863
P 6850 5350
F 0 "DC1" H 7200 5350 50  0000 C CNN
F 1 "LED_QUAD_CCA" H 6900 4800 50  0000 C CNN
F 2 "footprints:PLCC-2x4" H 6900 5350 50  0001 C CNN
F 3 "" H 6900 5350 50  0000 C CNN
	1    6850 5350
	1    0    0    -1  
$EndComp
$Comp
L LED_QUAD_CCA DD1
U 1 1 58A178D5
P 6850 6500
F 0 "DD1" H 7200 6500 50  0000 C CNN
F 1 "LED_QUAD_CCA" H 6900 5950 50  0000 C CNN
F 2 "footprints:PLCC-2x4" H 6900 6500 50  0001 C CNN
F 3 "" H 6900 6500 50  0000 C CNN
	1    6850 6500
	1    0    0    -1  
$EndComp
$Comp
L LED_QUAD_CCA DA2
U 1 1 58A17A37
P 8250 3050
F 0 "DA2" H 8600 3050 50  0000 C CNN
F 1 "LED_QUAD_CCA" H 8300 2500 50  0000 C CNN
F 2 "footprints:PLCC-2x4" H 8300 3050 50  0001 C CNN
F 3 "" H 8300 3050 50  0000 C CNN
	1    8250 3050
	1    0    0    -1  
$EndComp
$Comp
L LED_QUAD_CCA DB2
U 1 1 58A17A3D
P 8250 4200
F 0 "DB2" H 8600 4200 50  0000 C CNN
F 1 "LED_QUAD_CCA" H 8300 3650 50  0000 C CNN
F 2 "footprints:PLCC-2x4" H 8300 4200 50  0001 C CNN
F 3 "" H 8300 4200 50  0000 C CNN
	1    8250 4200
	1    0    0    -1  
$EndComp
$Comp
L LED_QUAD_CCA DC2
U 1 1 58A17A43
P 8250 5350
F 0 "DC2" H 8600 5350 50  0000 C CNN
F 1 "LED_QUAD_CCA" H 8300 4800 50  0000 C CNN
F 2 "footprints:PLCC-2x4" H 8300 5350 50  0001 C CNN
F 3 "" H 8300 5350 50  0000 C CNN
	1    8250 5350
	1    0    0    -1  
$EndComp
$Comp
L LED_QUAD_CCA DD2
U 1 1 58A17A49
P 8250 6500
F 0 "DD2" H 8600 6500 50  0000 C CNN
F 1 "LED_QUAD_CCA" H 8300 5950 50  0000 C CNN
F 2 "footprints:PLCC-2x4" H 8300 6500 50  0001 C CNN
F 3 "" H 8300 6500 50  0000 C CNN
	1    8250 6500
	1    0    0    -1  
$EndComp
$Comp
L LED_QUAD_CCA DA3
U 1 1 58A17C2D
P 9600 3050
F 0 "DA3" H 9950 3050 50  0000 C CNN
F 1 "LED_QUAD_CCA" H 9650 2500 50  0000 C CNN
F 2 "footprints:PLCC-2x4" H 9650 3050 50  0001 C CNN
F 3 "" H 9650 3050 50  0000 C CNN
	1    9600 3050
	1    0    0    -1  
$EndComp
$Comp
L LED_QUAD_CCA DB3
U 1 1 58A17C33
P 9600 4200
F 0 "DB3" H 9950 4200 50  0000 C CNN
F 1 "LED_QUAD_CCA" H 9650 3650 50  0000 C CNN
F 2 "footprints:PLCC-2x4" H 9650 4200 50  0001 C CNN
F 3 "" H 9650 4200 50  0000 C CNN
	1    9600 4200
	1    0    0    -1  
$EndComp
$Comp
L LED_QUAD_CCA DC3
U 1 1 58A17C39
P 9600 5350
F 0 "DC3" H 9950 5350 50  0000 C CNN
F 1 "LED_QUAD_CCA" H 9650 4800 50  0000 C CNN
F 2 "footprints:PLCC-2x4" H 9650 5350 50  0001 C CNN
F 3 "" H 9650 5350 50  0000 C CNN
	1    9600 5350
	1    0    0    -1  
$EndComp
$Comp
L LED_QUAD_CCA DD3
U 1 1 58A17C3F
P 9600 6500
F 0 "DD3" H 9950 6500 50  0000 C CNN
F 1 "LED_QUAD_CCA" H 9650 5950 50  0000 C CNN
F 2 "footprints:PLCC-2x4" H 9650 6500 50  0001 C CNN
F 3 "" H 9650 6500 50  0000 C CNN
	1    9600 6500
	1    0    0    -1  
$EndComp
$Comp
L LED_QUAD_CCA DA4
U 1 1 58A17C45
P 11100 3050
F 0 "DA4" H 11450 3050 50  0000 C CNN
F 1 "LED_QUAD_CCA" H 11150 2500 50  0000 C CNN
F 2 "footprints:PLCC-2x4" H 11150 3050 50  0001 C CNN
F 3 "" H 11150 3050 50  0000 C CNN
	1    11100 3050
	1    0    0    -1  
$EndComp
$Comp
L LED_QUAD_CCA DB4
U 1 1 58A17C4B
P 11100 4200
F 0 "DB4" H 11450 4200 50  0000 C CNN
F 1 "LED_QUAD_CCA" H 11150 3650 50  0000 C CNN
F 2 "footprints:PLCC-2x4" H 11150 4200 50  0001 C CNN
F 3 "" H 11150 4200 50  0000 C CNN
	1    11100 4200
	1    0    0    -1  
$EndComp
$Comp
L LED_QUAD_CCA DC4
U 1 1 58A17C51
P 11100 5350
F 0 "DC4" H 11450 5350 50  0000 C CNN
F 1 "LED_QUAD_CCA" H 11150 4800 50  0000 C CNN
F 2 "footprints:PLCC-2x4" H 11150 5350 50  0001 C CNN
F 3 "" H 11150 5350 50  0000 C CNN
	1    11100 5350
	1    0    0    -1  
$EndComp
$Comp
L LED_QUAD_CCA DD4
U 1 1 58A17C57
P 11100 6500
F 0 "DD4" H 11450 6500 50  0000 C CNN
F 1 "LED_QUAD_CCA" H 11150 5950 50  0000 C CNN
F 2 "footprints:PLCC-2x4" H 11150 6500 50  0001 C CNN
F 3 "" H 11150 6500 50  0000 C CNN
	1    11100 6500
	1    0    0    -1  
$EndComp
$Comp
L LED_QUAD_CCA DA5
U 1 1 58A17ED2
P 12550 3000
F 0 "DA5" H 12900 3000 50  0000 C CNN
F 1 "LED_QUAD_CCA" H 12600 2450 50  0000 C CNN
F 2 "footprints:PLCC-2x4" H 12600 3000 50  0001 C CNN
F 3 "" H 12600 3000 50  0000 C CNN
	1    12550 3000
	1    0    0    -1  
$EndComp
$Comp
L LED_QUAD_CCA DB5
U 1 1 58A17ED8
P 12550 4150
F 0 "DB5" H 12900 4150 50  0000 C CNN
F 1 "LED_QUAD_CCA" H 12600 3600 50  0000 C CNN
F 2 "footprints:PLCC-2x4" H 12600 4150 50  0001 C CNN
F 3 "" H 12600 4150 50  0000 C CNN
	1    12550 4150
	1    0    0    -1  
$EndComp
$Comp
L LED_QUAD_CCA DC5
U 1 1 58A17EDE
P 12550 5300
F 0 "DC5" H 12900 5300 50  0000 C CNN
F 1 "LED_QUAD_CCA" H 12600 4750 50  0000 C CNN
F 2 "footprints:PLCC-2x4" H 12600 5300 50  0001 C CNN
F 3 "" H 12600 5300 50  0000 C CNN
	1    12550 5300
	1    0    0    -1  
$EndComp
$Comp
L LED_QUAD_CCA DD5
U 1 1 58A17EE4
P 12550 6450
F 0 "DD5" H 12900 6450 50  0000 C CNN
F 1 "LED_QUAD_CCA" H 12600 5900 50  0000 C CNN
F 2 "footprints:PLCC-2x4" H 12600 6450 50  0001 C CNN
F 3 "" H 12600 6450 50  0000 C CNN
	1    12550 6450
	1    0    0    -1  
$EndComp
$Comp
L LED_QUAD_CCA DA6
U 1 1 58A17EEA
P 13950 3000
F 0 "DA6" H 14300 3000 50  0000 C CNN
F 1 "LED_QUAD_CCA" H 14000 2450 50  0000 C CNN
F 2 "footprints:PLCC-2x4" H 14000 3000 50  0001 C CNN
F 3 "" H 14000 3000 50  0000 C CNN
	1    13950 3000
	1    0    0    -1  
$EndComp
$Comp
L LED_QUAD_CCA DB6
U 1 1 58A17EF0
P 13950 4150
F 0 "DB6" H 14300 4150 50  0000 C CNN
F 1 "LED_QUAD_CCA" H 14000 3600 50  0000 C CNN
F 2 "footprints:PLCC-2x4" H 14000 4150 50  0001 C CNN
F 3 "" H 14000 4150 50  0000 C CNN
	1    13950 4150
	1    0    0    -1  
$EndComp
$Comp
L LED_QUAD_CCA DC6
U 1 1 58A17EF6
P 13950 5300
F 0 "DC6" H 14300 5300 50  0000 C CNN
F 1 "LED_QUAD_CCA" H 14000 4750 50  0000 C CNN
F 2 "footprints:PLCC-2x4" H 14000 5300 50  0001 C CNN
F 3 "" H 14000 5300 50  0000 C CNN
	1    13950 5300
	1    0    0    -1  
$EndComp
$Comp
L LED_QUAD_CCA DD6
U 1 1 58A17EFC
P 13950 6450
F 0 "DD6" H 14300 6450 50  0000 C CNN
F 1 "LED_QUAD_CCA" H 14000 5900 50  0000 C CNN
F 2 "footprints:PLCC-2x4" H 14000 6450 50  0001 C CNN
F 3 "" H 14000 6450 50  0000 C CNN
	1    13950 6450
	1    0    0    -1  
$EndComp
Text Label 7450 2750 2    60   ~ 0
DA1-1
Text Label 7450 2950 2    60   ~ 0
DA1-2
Text Label 7450 3150 2    60   ~ 0
DA1-3
Text Label 7450 3350 2    60   ~ 0
DA1-4
Text Label 7450 3900 2    60   ~ 0
DB1-1
Text Label 7450 4100 2    60   ~ 0
DB1-2
Text Label 7450 4300 2    60   ~ 0
DB1-3
Text Label 7450 4500 2    60   ~ 0
DB1-4
Text Label 7450 5050 2    60   ~ 0
DC1-1
Text Label 7450 5250 2    60   ~ 0
DC1-2
Text Label 7450 5450 2    60   ~ 0
DC1-3
Text Label 7450 5650 2    60   ~ 0
DC1-4
Text Label 7450 6200 2    60   ~ 0
DD1-1
Text Label 7450 6400 2    60   ~ 0
DD1-2
Text Label 7450 6600 2    60   ~ 0
DD1-3
Text Label 7450 6800 2    60   ~ 0
DD1-4
Text Label 10200 2750 2    60   ~ 0
DA3-1
Text Label 10200 2950 2    60   ~ 0
DA3-2
Text Label 10200 3150 2    60   ~ 0
DA3-3
Text Label 10200 3350 2    60   ~ 0
DA3-4
Text Label 10200 3900 2    60   ~ 0
DB3-1
Text Label 10200 4100 2    60   ~ 0
DB3-2
Text Label 10200 4300 2    60   ~ 0
DB3-3
Text Label 10200 4500 2    60   ~ 0
DB3-4
Text Label 10200 5050 2    60   ~ 0
DC3-1
Text Label 10200 5250 2    60   ~ 0
DC3-2
Text Label 10200 5450 2    60   ~ 0
DC3-3
Text Label 10200 5650 2    60   ~ 0
DC3-4
Text Label 10200 6200 2    60   ~ 0
DD3-1
Text Label 10200 6400 2    60   ~ 0
DD3-2
Text Label 10200 6600 2    60   ~ 0
DD3-3
Text Label 10200 6800 2    60   ~ 0
DD3-4
Text Label 11700 2750 2    60   ~ 0
DA4-1
Text Label 11700 2950 2    60   ~ 0
DA4-2
Text Label 11700 3150 2    60   ~ 0
DA4-3
Text Label 11700 3350 2    60   ~ 0
DA4-4
Text Label 11700 3900 2    60   ~ 0
DB4-1
Text Label 11700 4100 2    60   ~ 0
DB4-2
Text Label 11700 4300 2    60   ~ 0
DB4-3
Text Label 11700 4500 2    60   ~ 0
DB4-4
Text Label 11700 5050 2    60   ~ 0
DC4-1
Text Label 11700 5250 2    60   ~ 0
DC4-2
Text Label 11700 5450 2    60   ~ 0
DC4-3
Text Label 11700 5650 2    60   ~ 0
DC4-4
Text Label 11700 6200 2    60   ~ 0
DD4-1
Text Label 11700 6400 2    60   ~ 0
DD4-2
Text Label 11700 6600 2    60   ~ 0
DD4-3
Text Label 11700 6800 2    60   ~ 0
DD4-4
Text Label 13150 2700 2    60   ~ 0
DA5-1
Text Label 13150 2900 2    60   ~ 0
DA5-2
Text Label 13150 3100 2    60   ~ 0
DA5-3
Text Label 13150 3300 2    60   ~ 0
DA5-4
Text Label 13150 3850 2    60   ~ 0
DB5-1
Text Label 13150 4050 2    60   ~ 0
DB5-2
Text Label 13150 4250 2    60   ~ 0
DB5-3
Text Label 13150 4450 2    60   ~ 0
DB5-4
Text Label 13150 5000 2    60   ~ 0
DC5-1
Text Label 13150 5200 2    60   ~ 0
DC5-2
Text Label 13150 5400 2    60   ~ 0
DC5-3
Text Label 13150 5600 2    60   ~ 0
DC5-4
Text Label 13150 6150 2    60   ~ 0
DD5-1
Text Label 13150 6350 2    60   ~ 0
DD5-2
Text Label 13150 6550 2    60   ~ 0
DD5-3
Text Label 13150 6750 2    60   ~ 0
DD5-4
Text Label 14550 2700 2    60   ~ 0
DA6-1
Text Label 14550 2900 2    60   ~ 0
DA6-2
Text Label 14550 3100 2    60   ~ 0
DA6-3
Text Label 14550 3300 2    60   ~ 0
DA6-4
Text Label 14550 3850 2    60   ~ 0
DB6-1
Text Label 14550 4050 2    60   ~ 0
DB6-2
Text Label 14550 4250 2    60   ~ 0
DB6-3
Text Label 14550 4450 2    60   ~ 0
DB6-4
Text Label 14550 5000 2    60   ~ 0
DC6-1
Text Label 14550 5200 2    60   ~ 0
DC6-2
Text Label 14550 5400 2    60   ~ 0
DC6-3
Text Label 14550 5600 2    60   ~ 0
DC6-4
Text Label 14550 6150 2    60   ~ 0
DD6-1
Text Label 14550 6350 2    60   ~ 0
DD6-2
Text Label 14550 6550 2    60   ~ 0
DD6-3
Text Label 14550 6750 2    60   ~ 0
DD6-4
Wire Wire Line
	1850 2350 2200 2350
Wire Wire Line
	1850 2250 2200 2250
Wire Wire Line
	1850 2150 2200 2150
Wire Wire Line
	1850 2050 2200 2050
Wire Wire Line
	1850 2550 2200 2550
Wire Wire Line
	1850 2450 2200 2450
Wire Wire Line
	1850 1950 2200 1950
Wire Wire Line
	1850 1850 2200 1850
Wire Wire Line
	1850 2750 2200 2750
Wire Wire Line
	1850 2650 2200 2650
Wire Wire Line
	1850 1750 2200 1750
Wire Wire Line
	1850 1650 2200 1650
Wire Wire Line
	1850 2950 2200 2950
Wire Wire Line
	1850 1550 2200 1550
Wire Wire Line
	1850 1450 2200 1450
Wire Wire Line
	1850 2850 2200 2850
Wire Wire Line
	3600 2300 3950 2300
Wire Wire Line
	3600 2200 3950 2200
Wire Wire Line
	3600 2100 3950 2100
Wire Wire Line
	3600 2000 3950 2000
Wire Wire Line
	3600 2500 3950 2500
Wire Wire Line
	3600 2400 3950 2400
Wire Wire Line
	3600 1900 3950 1900
Wire Wire Line
	3600 1800 3950 1800
Wire Wire Line
	3600 2700 3950 2700
Wire Wire Line
	3600 2600 3950 2600
Wire Wire Line
	3600 1700 3950 1700
Wire Wire Line
	3600 1600 3950 1600
Wire Wire Line
	3600 2900 3950 2900
Wire Wire Line
	3600 1500 3950 1500
Wire Wire Line
	3600 1400 3950 1400
Wire Wire Line
	3600 2800 3950 2800
Wire Wire Line
	7150 2750 7450 2750
Wire Wire Line
	7150 2950 7450 2950
Wire Wire Line
	7150 3150 7450 3150
Wire Wire Line
	7150 3350 7450 3350
Wire Wire Line
	7150 3900 7450 3900
Wire Wire Line
	7150 4100 7450 4100
Wire Wire Line
	7150 4300 7450 4300
Wire Wire Line
	7150 4500 7450 4500
Wire Wire Line
	7150 5050 7450 5050
Wire Wire Line
	7150 5250 7450 5250
Wire Wire Line
	7150 5450 7450 5450
Wire Wire Line
	7150 5650 7450 5650
Wire Wire Line
	7150 6200 7450 6200
Wire Wire Line
	7150 6400 7450 6400
Wire Wire Line
	7150 6600 7450 6600
Wire Wire Line
	7150 6800 7450 6800
Wire Wire Line
	9900 2750 10200 2750
Wire Wire Line
	9900 2950 10200 2950
Wire Wire Line
	9900 3150 10200 3150
Wire Wire Line
	9900 3350 10200 3350
Wire Wire Line
	9900 3900 10200 3900
Wire Wire Line
	9900 4100 10200 4100
Wire Wire Line
	9900 4300 10200 4300
Wire Wire Line
	9900 4500 10200 4500
Wire Wire Line
	9900 5050 10200 5050
Wire Wire Line
	9900 5250 10200 5250
Wire Wire Line
	9900 5450 10200 5450
Wire Wire Line
	9900 5650 10200 5650
Wire Wire Line
	9900 6200 10200 6200
Wire Wire Line
	9900 6400 10200 6400
Wire Wire Line
	9900 6600 10200 6600
Wire Wire Line
	9900 6800 10200 6800
Wire Wire Line
	11400 2750 11700 2750
Wire Wire Line
	11400 2950 11700 2950
Wire Wire Line
	11400 3150 11700 3150
Wire Wire Line
	11400 3350 11700 3350
Wire Wire Line
	11400 3900 11700 3900
Wire Wire Line
	11400 4100 11700 4100
Wire Wire Line
	11400 4300 11700 4300
Wire Wire Line
	11400 4500 11700 4500
Wire Wire Line
	11400 5050 11700 5050
Wire Wire Line
	11400 5250 11700 5250
Wire Wire Line
	11400 5450 11700 5450
Wire Wire Line
	11400 5650 11700 5650
Wire Wire Line
	11400 6200 11700 6200
Wire Wire Line
	11400 6400 11700 6400
Wire Wire Line
	11400 6600 11700 6600
Wire Wire Line
	11400 6800 11700 6800
Wire Wire Line
	12850 2700 13150 2700
Wire Wire Line
	12850 2900 13150 2900
Wire Wire Line
	12850 3100 13150 3100
Wire Wire Line
	12850 3300 13150 3300
Wire Wire Line
	12850 3850 13150 3850
Wire Wire Line
	12850 4050 13150 4050
Wire Wire Line
	12850 4250 13150 4250
Wire Wire Line
	12850 4450 13150 4450
Wire Wire Line
	12850 5000 13150 5000
Wire Wire Line
	12850 5200 13150 5200
Wire Wire Line
	12850 5400 13150 5400
Wire Wire Line
	12850 5600 13150 5600
Wire Wire Line
	12850 6150 13150 6150
Wire Wire Line
	12850 6350 13150 6350
Wire Wire Line
	12850 6550 13150 6550
Wire Wire Line
	12850 6750 13150 6750
Wire Wire Line
	14250 2700 14550 2700
Wire Wire Line
	14250 2900 14550 2900
Wire Wire Line
	14250 3100 14550 3100
Wire Wire Line
	14250 3300 14550 3300
Wire Wire Line
	14250 3850 14550 3850
Wire Wire Line
	14250 4050 14550 4050
Wire Wire Line
	14250 4250 14550 4250
Wire Wire Line
	14250 4450 14550 4450
Wire Wire Line
	14250 5000 14550 5000
Wire Wire Line
	14250 5200 14550 5200
Wire Wire Line
	14250 5400 14550 5400
Wire Wire Line
	14250 5600 14550 5600
Wire Wire Line
	14250 6150 14550 6150
Wire Wire Line
	14250 6350 14550 6350
Wire Wire Line
	14250 6550 14550 6550
Wire Wire Line
	14250 6750 14550 6750
Wire Wire Line
	6200 5350 6550 5350
Wire Wire Line
	6200 4200 6550 4200
Wire Wire Line
	6550 3050 6200 3050
Wire Wire Line
	6200 2350 6200 6500
Connection ~ 6200 4200
Wire Wire Line
	6200 6500 6550 6500
Connection ~ 6200 5350
Wire Wire Line
	7650 2350 7650 6500
Connection ~ 7650 4200
Connection ~ 7650 5350
Wire Wire Line
	9000 2350 9000 6500
Connection ~ 9000 4200
Connection ~ 9000 5350
Wire Wire Line
	10450 5350 10800 5350
Wire Wire Line
	10450 4200 10800 4200
Wire Wire Line
	10800 3050 10450 3050
Wire Wire Line
	10450 2350 10450 6500
Connection ~ 10450 4200
Wire Wire Line
	10450 6500 10800 6500
Connection ~ 10450 5350
Wire Wire Line
	11900 5300 12250 5300
Wire Wire Line
	11900 4150 12250 4150
Wire Wire Line
	12250 3000 11900 3000
Wire Wire Line
	11900 2350 11900 6450
Connection ~ 11900 4150
Wire Wire Line
	11900 6450 12250 6450
Connection ~ 11900 5300
Wire Wire Line
	13350 2350 13350 6450
Connection ~ 13350 4150
Connection ~ 13350 5300
Connection ~ 6200 3050
Connection ~ 7650 3050
Connection ~ 9000 3050
Connection ~ 10450 3050
Connection ~ 11900 3000
Connection ~ 13350 3000
Connection ~ 11900 2350
Connection ~ 10450 2350
Connection ~ 9000 2350
Connection ~ 7650 2350
Wire Wire Line
	5900 2350 13350 2350
Text Label 5900 2350 0    60   ~ 0
V_LED
Text Label 8850 2750 2    60   ~ 0
DA2-1
Text Label 8850 2950 2    60   ~ 0
DA2-2
Text Label 8850 3150 2    60   ~ 0
DA2-3
Text Label 8850 3350 2    60   ~ 0
DA2-4
Text Label 8850 3900 2    60   ~ 0
DB2-1
Text Label 8850 4100 2    60   ~ 0
DB2-2
Text Label 8850 4300 2    60   ~ 0
DB2-3
Text Label 8850 4500 2    60   ~ 0
DB2-4
Text Label 8850 5050 2    60   ~ 0
DC2-1
Text Label 8850 5250 2    60   ~ 0
DC2-2
Text Label 8850 5450 2    60   ~ 0
DC2-3
Text Label 8850 5650 2    60   ~ 0
DC2-4
Text Label 8850 6200 2    60   ~ 0
DD2-1
Text Label 8850 6400 2    60   ~ 0
DD2-2
Text Label 8850 6600 2    60   ~ 0
DD2-3
Text Label 8850 6800 2    60   ~ 0
DD2-4
Wire Wire Line
	8550 2750 8850 2750
Wire Wire Line
	8550 2950 8850 2950
Wire Wire Line
	8550 3150 8850 3150
Wire Wire Line
	8550 3350 8850 3350
Wire Wire Line
	8550 3900 8850 3900
Wire Wire Line
	8550 4100 8850 4100
Wire Wire Line
	8550 4300 8850 4300
Wire Wire Line
	8550 4500 8850 4500
Wire Wire Line
	8550 5050 8850 5050
Wire Wire Line
	8550 5250 8850 5250
Wire Wire Line
	8550 5450 8850 5450
Wire Wire Line
	8550 5650 8850 5650
Wire Wire Line
	8550 6200 8850 6200
Wire Wire Line
	8550 6400 8850 6400
Wire Wire Line
	8550 6600 8850 6600
Wire Wire Line
	8550 6800 8850 6800
Connection ~ 6200 2350
Wire Wire Line
	7950 3050 7650 3050
Wire Wire Line
	9000 3050 9300 3050
Wire Wire Line
	7650 4200 7950 4200
Wire Wire Line
	7650 5350 7950 5350
Wire Wire Line
	7650 6500 7950 6500
Wire Wire Line
	9000 4200 9300 4200
Wire Wire Line
	9000 5350 9300 5350
Wire Wire Line
	9000 6500 9300 6500
Wire Wire Line
	13350 6450 13650 6450
Wire Wire Line
	13350 5300 13650 5300
Wire Wire Line
	13350 4150 13650 4150
Wire Wire Line
	13350 3000 13650 3000
Text Label 2200 4150 2    60   ~ 0
DB3-4
Text Label 2200 4250 2    60   ~ 0
DB3-3
Text Label 2200 4750 2    60   ~ 0
DB3-2
Text Label 2200 4850 2    60   ~ 0
DB3-1
Text Label 2200 4350 2    60   ~ 0
DA3-4
Text Label 2200 4450 2    60   ~ 0
DA3-3
Text Label 2200 4550 2    60   ~ 0
DA3-2
Text Label 2200 4650 2    60   ~ 0
DA3-1
Text Label 2200 5050 2    60   ~ 0
DC3-1
Text Label 2200 4950 2    60   ~ 0
DC3-2
Text Label 2200 4050 2    60   ~ 0
DC3-3
Text Label 2200 3950 2    60   ~ 0
DC3-4
Text Label 2200 5250 2    60   ~ 0
DD3-1
Text Label 2200 5150 2    60   ~ 0
DD3-2
Text Label 2200 3850 2    60   ~ 0
DD3-3
Text Label 2200 3750 2    60   ~ 0
DD3-4
Wire Wire Line
	1850 4650 2200 4650
Wire Wire Line
	1850 4550 2200 4550
Wire Wire Line
	1850 4450 2200 4450
Wire Wire Line
	1850 4350 2200 4350
Wire Wire Line
	1850 4850 2200 4850
Wire Wire Line
	1850 4750 2200 4750
Wire Wire Line
	1850 4250 2200 4250
Wire Wire Line
	1850 4150 2200 4150
Wire Wire Line
	1850 5050 2200 5050
Wire Wire Line
	1850 4950 2200 4950
Wire Wire Line
	1850 4050 2200 4050
Wire Wire Line
	1850 3950 2200 3950
Wire Wire Line
	1850 5250 2200 5250
Wire Wire Line
	1850 3850 2200 3850
Wire Wire Line
	1850 3750 2200 3750
Wire Wire Line
	1850 5150 2200 5150
Text Label 4300 4150 2    60   ~ 0
DB4-4
Text Label 4300 4250 2    60   ~ 0
DB4-3
Text Label 4300 4750 2    60   ~ 0
DB4-2
Text Label 4300 4850 2    60   ~ 0
DB4-1
Text Label 4300 4350 2    60   ~ 0
DA4-4
Text Label 4300 4450 2    60   ~ 0
DA4-3
Text Label 4300 4550 2    60   ~ 0
DA4-2
Text Label 4300 4650 2    60   ~ 0
DA4-1
Text Label 4300 5050 2    60   ~ 0
DC4-1
Text Label 4300 4950 2    60   ~ 0
DC4-2
Text Label 4300 4050 2    60   ~ 0
DC4-3
Text Label 4300 3950 2    60   ~ 0
DC4-4
Text Label 4300 5250 2    60   ~ 0
DD4-1
Text Label 4300 5150 2    60   ~ 0
DD4-2
Text Label 4300 3850 2    60   ~ 0
DD4-3
Text Label 4300 3750 2    60   ~ 0
DD4-4
Wire Wire Line
	3950 4650 4300 4650
Wire Wire Line
	3950 4550 4300 4550
Wire Wire Line
	3950 4450 4300 4450
Wire Wire Line
	3950 4350 4300 4350
Wire Wire Line
	3950 4850 4300 4850
Wire Wire Line
	3950 4750 4300 4750
Wire Wire Line
	3950 4250 4300 4250
Wire Wire Line
	3950 4150 4300 4150
Wire Wire Line
	3950 5050 4300 5050
Wire Wire Line
	3950 4950 4300 4950
Wire Wire Line
	3950 4050 4300 4050
Wire Wire Line
	3950 3950 4300 3950
Wire Wire Line
	3950 5250 4300 5250
Wire Wire Line
	3950 3850 4300 3850
Wire Wire Line
	3950 3750 4300 3750
Wire Wire Line
	3950 5150 4300 5150
Text Label 4000 6000 2    60   ~ 0
DB6-4
Text Label 4000 6100 2    60   ~ 0
DB6-3
Text Label 4000 6600 2    60   ~ 0
DB6-2
Text Label 4000 6700 2    60   ~ 0
DB6-1
Text Label 4000 6200 2    60   ~ 0
DA6-4
Text Label 4000 6300 2    60   ~ 0
DA6-3
Text Label 4000 6400 2    60   ~ 0
DA6-2
Text Label 4000 6500 2    60   ~ 0
DA6-1
Text Label 4000 6900 2    60   ~ 0
DC6-1
Text Label 4000 6800 2    60   ~ 0
DC6-2
Text Label 4000 5900 2    60   ~ 0
DC6-3
Text Label 4000 5800 2    60   ~ 0
DC6-4
Text Label 4000 7100 2    60   ~ 0
DD6-1
Text Label 4000 7000 2    60   ~ 0
DD6-2
Text Label 4000 5700 2    60   ~ 0
DD6-3
Text Label 4000 5600 2    60   ~ 0
DD6-4
Wire Wire Line
	3650 6500 4000 6500
Wire Wire Line
	3650 6400 4000 6400
Wire Wire Line
	3650 6300 4000 6300
Wire Wire Line
	3650 6200 4000 6200
Wire Wire Line
	3650 6700 4000 6700
Wire Wire Line
	3650 6600 4000 6600
Wire Wire Line
	3650 6100 4000 6100
Wire Wire Line
	3650 6000 4000 6000
Wire Wire Line
	3650 6900 4000 6900
Wire Wire Line
	3650 6800 4000 6800
Wire Wire Line
	3650 5900 4000 5900
Wire Wire Line
	3650 5800 4000 5800
Wire Wire Line
	3650 7100 4000 7100
Wire Wire Line
	3650 5700 4000 5700
Wire Wire Line
	3650 5600 4000 5600
Wire Wire Line
	3650 7000 4000 7000
Text Label 2250 6250 2    60   ~ 0
DB5-4
Text Label 2250 6350 2    60   ~ 0
DB5-3
Text Label 2250 6850 2    60   ~ 0
DB5-2
Text Label 2250 6950 2    60   ~ 0
DB5-1
Text Label 2250 6450 2    60   ~ 0
DA5-4
Text Label 2250 6550 2    60   ~ 0
DA5-3
Text Label 2250 6650 2    60   ~ 0
DA5-2
Text Label 2250 6750 2    60   ~ 0
DA5-1
Text Label 2250 7150 2    60   ~ 0
DC5-1
Text Label 2250 7050 2    60   ~ 0
DC5-2
Text Label 2250 6150 2    60   ~ 0
DC5-3
Text Label 2250 6050 2    60   ~ 0
DC5-4
Text Label 2250 7350 2    60   ~ 0
DD5-1
Text Label 2250 7250 2    60   ~ 0
DD5-2
Text Label 2250 5950 2    60   ~ 0
DD5-3
Text Label 2250 5850 2    60   ~ 0
DD5-4
Wire Wire Line
	1900 6750 2250 6750
Wire Wire Line
	1900 6650 2250 6650
Wire Wire Line
	1900 6550 2250 6550
Wire Wire Line
	1900 6450 2250 6450
Wire Wire Line
	1900 6950 2250 6950
Wire Wire Line
	1900 6850 2250 6850
Wire Wire Line
	1900 6350 2250 6350
Wire Wire Line
	1900 6250 2250 6250
Wire Wire Line
	1900 7150 2250 7150
Wire Wire Line
	1900 7050 2250 7050
Wire Wire Line
	1900 6150 2250 6150
Wire Wire Line
	1900 6050 2250 6050
Wire Wire Line
	1900 7350 2250 7350
Wire Wire Line
	1900 5950 2250 5950
Wire Wire Line
	1900 5850 2250 5850
Wire Wire Line
	1900 7250 2250 7250
$Comp
L CONN_01X16 B2
U 1 1 58A28D2D
P 4150 2150
F 0 "B2" H 4150 3000 50  0000 C CNN
F 1 "CONN_01X16" V 4250 2150 50  0000 C CNN
F 2 "footprints:VIA_BRIDGE-2x8" H 4150 2150 50  0000 C CNN
F 3 "" H 4150 2150 50  0000 C CNN
	1    4150 2150
	1    0    0    1   
$EndComp
$Comp
L CONN_01X16 B1
U 1 1 58A2A1B2
P 2400 2200
F 0 "B1" H 2400 3050 50  0000 C CNN
F 1 "CONN_01X16" V 2500 2200 50  0000 C CNN
F 2 "footprints:VIA_BRIDGE-2x8" H 2400 2200 50  0000 C CNN
F 3 "" H 2400 2200 50  0000 C CNN
	1    2400 2200
	1    0    0    1   
$EndComp
$Comp
L CONN_01X16 B5
U 1 1 58A2B126
P 2450 6600
F 0 "B5" H 2450 7450 50  0000 C CNN
F 1 "CONN_01X16" V 2550 6600 50  0000 C CNN
F 2 "footprints:VIA_BRIDGE-2x8" H 2450 6600 50  0000 C CNN
F 3 "" H 2450 6600 50  0000 C CNN
	1    2450 6600
	1    0    0    1   
$EndComp
$Comp
L CONN_01X16 B3
U 1 1 58A2B83E
P 2400 4500
F 0 "B3" H 2400 5350 50  0000 C CNN
F 1 "CONN_01X16" V 2500 4500 50  0000 C CNN
F 2 "footprints:VIA_BRIDGE-2x8" H 2400 4500 50  0000 C CNN
F 3 "" H 2400 4500 50  0000 C CNN
	1    2400 4500
	1    0    0    1   
$EndComp
$Comp
L CONN_01X16 B6
U 1 1 58A2C167
P 4200 6350
F 0 "B6" H 4200 7200 50  0000 C CNN
F 1 "CONN_01X16" V 4300 6350 50  0000 C CNN
F 2 "footprints:VIA_BRIDGE-2x8" H 4200 6350 50  0000 C CNN
F 3 "" H 4200 6350 50  0000 C CNN
	1    4200 6350
	1    0    0    1   
$EndComp
$Comp
L CONN_01X16 B4
U 1 1 58A2C697
P 4500 4500
F 0 "B4" H 4500 5350 50  0000 C CNN
F 1 "CONN_01X16" V 4600 4500 50  0000 C CNN
F 2 "footprints:VIA_BRIDGE-2x8" H 4500 4500 50  0000 C CNN
F 3 "" H 4500 4500 50  0000 C CNN
	1    4500 4500
	1    0    0    1   
$EndComp
$Comp
L Conn_02x02_Top_Bottom J1
U 1 1 5B10A811
P 3200 8050
F 0 "J1" H 3250 8150 50  0000 C CNN
F 1 "Conn_02x02_Top_Bottom" H 3250 7850 50  0000 C CNN
F 2 "Socket_Strips:Socket_Strip_Straight_2x02_Pitch2.54mm" H 3200 8050 50  0001 C CNN
F 3 "" H 3200 8050 50  0001 C CNN
	1    3200 8050
	1    0    0    -1  
$EndComp
Wire Wire Line
	2700 8050 3000 8050
Wire Wire Line
	2700 8150 3000 8150
Wire Wire Line
	3500 8050 3800 8050
Wire Wire Line
	3500 8150 3800 8150
Text Label 3800 8050 2    60   ~ 0
V_LED
Text Label 3800 8150 2    60   ~ 0
V_LED
Text Label 4400 8050 0    60   ~ 0
V_LED
Text Label 4400 8150 0    60   ~ 0
V_LED
$Comp
L Conn_02x02_Top_Bottom J2
U 1 1 5B10B371
P 4900 8050
F 0 "J2" H 4950 8150 50  0000 C CNN
F 1 "Conn_02x02_Top_Bottom" H 4950 7850 50  0000 C CNN
F 2 "Socket_Strips:Socket_Strip_Straight_2x02_Pitch2.54mm" H 4900 8050 50  0001 C CNN
F 3 "" H 4900 8050 50  0001 C CNN
	1    4900 8050
	1    0    0    -1  
$EndComp
Wire Wire Line
	4400 8050 4700 8050
Wire Wire Line
	4400 8150 4700 8150
Wire Wire Line
	5200 8050 5500 8050
Wire Wire Line
	5200 8150 5500 8150
Text Label 5500 8050 2    60   ~ 0
V_LED
Text Label 5500 8150 2    60   ~ 0
V_LED
$EndSCHEMATC
