EESchema Schematic File Version 2
LIBS:power
LIBS:device
LIBS:transistors
LIBS:conn
LIBS:linear
LIBS:regul
LIBS:74xx
LIBS:cmos4000
LIBS:adc-dac
LIBS:memory
LIBS:xilinx
LIBS:microcontrollers
LIBS:dsp
LIBS:microchip
LIBS:analog_switches
LIBS:motorola
LIBS:texas
LIBS:intel
LIBS:audio
LIBS:interface
LIBS:digital-audio
LIBS:philips
LIBS:display
LIBS:cypress
LIBS:siliconi
LIBS:opto
LIBS:atmel
LIBS:contrib
LIBS:valves
LIBS:MPS-Control_Board-v2.1-cache
EELAYER 25 0
EELAYER END
$Descr A4 11693 8268
encoding utf-8
Sheet 1 1
Title ""
Date ""
Rev ""
Comp ""
Comment1 ""
Comment2 ""
Comment3 ""
Comment4 ""
$EndDescr
$Comp
L Teensy2.0 XA1
U 1 1 5892BB1D
P 8600 1550
F 0 "XA1" H 8600 2500 60  0000 C CNN
F 1 "Teensy2.0" H 8600 600 60  0000 C CNN
F 2 "Teensy:Teensy2.0" H 8700 500 60  0000 C CNN
F 3 "" H 8700 500 60  0000 C CNN
	1    8600 1550
	1    0    0    -1  
$EndComp
Text Label 7650 1100 0    60   ~ 0
SIN1
Text Label 700  1350 0    60   ~ 0
SIN1
Text Label 7650 1000 0    60   ~ 0
SCLK
Text Label 7650 1800 0    60   ~ 0
GSCLK
Text Label 9600 1800 2    60   ~ 0
BLANK
Text Label 9600 1900 2    60   ~ 0
XLAT
Text Label 7650 1500 0    60   ~ 0
XERR
Text Label 700  1250 0    60   ~ 0
SCLK
Text Label 700  1150 0    60   ~ 0
XLAT
Text Label 700  1050 0    60   ~ 0
BLANK
Text Label 2250 1350 2    60   ~ 0
SIN2
Text Label 2250 1450 2    60   ~ 0
XERR
Text Label 2250 1250 2    60   ~ 0
GSCLK
$Comp
L GND #PWR01
U 1 1 5893B005
P 10750 3550
F 0 "#PWR01" H 10750 3300 50  0001 C CNN
F 1 "GND" H 10750 3400 50  0000 C CNN
F 2 "" H 10750 3550 50  0000 C CNN
F 3 "" H 10750 3550 50  0000 C CNN
	1    10750 3550
	1    0    0    -1  
$EndComp
Text Label 10550 3550 0    60   ~ 0
GND
$Comp
L +5V #PWR02
U 1 1 5893B090
P 10700 3250
F 0 "#PWR02" H 10700 3100 50  0001 C CNN
F 1 "+5V" H 10700 3390 50  0000 C CNN
F 2 "" H 10700 3250 50  0000 C CNN
F 3 "" H 10700 3250 50  0000 C CNN
	1    10700 3250
	1    0    0    -1  
$EndComp
Text Label 10500 3250 0    60   ~ 0
+5V
Text Label 9600 1100 2    60   ~ 0
+5Vcc
$Comp
L AdafruitHuzza-ESP8266 XA2
U 1 1 5893B56D
P 8550 4200
F 0 "XA2" H 8550 5550 60  0000 C CNN
F 1 "AdafruitHuzza-ESP8266" H 8600 4350 60  0000 C CNN
F 2 "ESP8266:ADAFRUIT_HUZZAH" H 8550 4200 60  0001 C CNN
F 3 "" H 8550 4200 60  0001 C CNN
	1    8550 4200
	1    0    0    -1  
$EndComp
Text Label 7700 3000 0    60   ~ 0
ESP_RST
Text Label 7750 3700 0    60   ~ 0
+5V
Text Label 9350 3000 2    60   ~ 0
RXD
Text Label 9350 3100 2    60   ~ 0
TXD
Text Label 9500 3400 2    60   ~ 0
ESP_GP0
Text Label 9500 3500 2    60   ~ 0
ESP_GP2
Text Label 9500 3900 2    60   ~ 0
GND
Text Label 700  1450 0    60   ~ 0
MODE
Text Label 9600 2100 2    60   ~ 0
MODE
Text Label 7650 1200 0    60   ~ 0
SIN7
Text Label 700  950  0    60   ~ 0
GND
Text Label 2250 950  2    60   ~ 0
+5V
Text Label 2250 1050 2    60   ~ 0
IREF1
Text Label 2250 1150 2    60   ~ 0
+5V
Text Label 2800 1350 0    60   ~ 0
SIN2
Text Label 2800 1250 0    60   ~ 0
SCLK
Text Label 2800 1150 0    60   ~ 0
XLAT
Text Label 2800 1050 0    60   ~ 0
BLANK
Text Label 4350 1350 2    60   ~ 0
SIN3
Text Label 4350 1450 2    60   ~ 0
XERR
Text Label 4350 1250 2    60   ~ 0
GSCLK
Text Label 2800 1450 0    60   ~ 0
MODE
Text Label 2800 950  0    60   ~ 0
GND
Text Label 4350 950  2    60   ~ 0
+5V
Text Label 4350 1050 2    60   ~ 0
IREF2
Text Label 4350 1150 2    60   ~ 0
+5V
$Comp
L Conn_02x08_Counter_Clockwise P2
U 1 1 58995B30
P 3550 3000
F 0 "P2" H 3550 3850 50  0000 C CNN
F 1 "CONN_02x08" V 3650 3000 50  0000 C CNN
F 2 "Pin_Headers:Pin_Header_Straight_2x08_Pitch2.54mm" V 3550 3000 50  0000 C CNN
F 3 "" H 3550 3000 50  0000 C CNN
	1    3550 3000
	1    0    0    -1  
$EndComp
Text Label 4850 1450 0    60   ~ 0
SIN3
Text Label 4850 1350 0    60   ~ 0
SCLK
Text Label 4850 1250 0    60   ~ 0
XLAT
Text Label 4850 1150 0    60   ~ 0
BLANK
Text Label 6400 1450 2    60   ~ 0
SIN4
Text Label 6400 1350 2    60   ~ 0
GSCLK
Text Label 4850 1550 0    60   ~ 0
MODE
Text Label 4850 1050 0    60   ~ 0
GND
Text Label 6400 1050 2    60   ~ 0
+5V
Text Label 6400 1150 2    60   ~ 0
IREF3
Text Label 6400 1250 2    60   ~ 0
+5V
Text Label 7750 3900 0    60   ~ 0
GND
Text Label 7650 1600 0    60   ~ 0
RXD
Text Label 7650 1700 0    60   ~ 0
TXD
Text Label 11000 4700 2    60   ~ 0
V_LED
Text Label 11000 4800 2    60   ~ 0
GND
Text Label 11000 4900 2    60   ~ 0
+5V
Text Label 10900 5300 2    60   ~ 0
V_LED
Text Label 10900 5400 2    60   ~ 0
V_LED
$Comp
L R R3
U 1 1 589AA8F5
P 7150 5650
F 0 "R3" V 7230 5650 50  0000 C CNN
F 1 "R" V 7150 5650 50  0000 C CNN
F 2 "Resistors_SMD:R_0805_HandSoldering" V 7080 5650 50  0001 C CNN
F 3 "" H 7150 5650 50  0000 C CNN
	1    7150 5650
	0    1    1    0   
$EndComp
$Comp
L R R4
U 1 1 589AAA34
P 7150 5850
F 0 "R4" V 7230 5850 50  0000 C CNN
F 1 "R" V 7150 5850 50  0000 C CNN
F 2 "Resistors_SMD:R_0805_HandSoldering" V 7080 5850 50  0001 C CNN
F 3 "" H 7150 5850 50  0000 C CNN
	1    7150 5850
	0    1    1    0   
$EndComp
$Comp
L R R5
U 1 1 589AAAB5
P 7150 6050
F 0 "R5" V 7230 6050 50  0000 C CNN
F 1 "R" V 7150 6050 50  0000 C CNN
F 2 "Resistors_SMD:R_0805_HandSoldering" V 7080 6050 50  0001 C CNN
F 3 "" H 7150 6050 50  0000 C CNN
	1    7150 6050
	0    1    1    0   
$EndComp
$Comp
L R R2
U 1 1 589AAB39
P 7150 5450
F 0 "R2" V 7230 5450 50  0000 C CNN
F 1 "R" V 7150 5450 50  0000 C CNN
F 2 "Resistors_SMD:R_0805_HandSoldering" V 7080 5450 50  0001 C CNN
F 3 "" H 7150 5450 50  0000 C CNN
	1    7150 5450
	0    1    1    0   
$EndComp
$Comp
L R R6
U 1 1 589AABC2
P 7150 6250
F 0 "R6" V 7230 6250 50  0000 C CNN
F 1 "R" V 7150 6250 50  0000 C CNN
F 2 "Resistors_SMD:R_0805_HandSoldering" V 7080 6250 50  0001 C CNN
F 3 "" H 7150 6250 50  0000 C CNN
	1    7150 6250
	0    1    1    0   
$EndComp
$Comp
L R R1
U 1 1 589AAC49
P 7150 5250
F 0 "R1" V 7230 5250 50  0000 C CNN
F 1 "R" V 7150 5250 50  0000 C CNN
F 2 "Resistors_SMD:R_0805_HandSoldering" V 7080 5250 50  0001 C CNN
F 3 "" H 7150 5250 50  0000 C CNN
	1    7150 5250
	0    1    1    0   
$EndComp
$Comp
L GND #PWR03
U 1 1 589AB008
P 6950 6250
F 0 "#PWR03" H 6950 6000 50  0001 C CNN
F 1 "GND" H 6950 6100 50  0000 C CNN
F 2 "" H 6950 6250 50  0000 C CNN
F 3 "" H 6950 6250 50  0000 C CNN
	1    6950 6250
	1    0    0    -1  
$EndComp
Text Label 7550 5250 2    60   ~ 0
IREF1
Text Label 7550 5450 2    60   ~ 0
IREF2
Text Label 7550 5650 2    60   ~ 0
IREF3
Text Label 7550 5850 2    60   ~ 0
IREF4
Text Label 7550 6050 2    60   ~ 0
IREF5
Text Label 7550 6250 2    60   ~ 0
IREF6
Text Label 7650 2000 0    60   ~ 0
ESP_GP2
Text Label 7650 1300 0    60   ~ 0
ESP_GP0
Text Label 7650 2200 0    60   ~ 0
GND
Text Label 7650 2300 0    60   ~ 0
RST
Text Label 7650 3300 0    60   ~ 0
RST
Text Label 7650 800  0    60   ~ 0
GND
$Comp
L CP C1
U 1 1 589B027C
P 10150 3400
F 0 "C1" H 10175 3500 50  0000 L CNN
F 1 "330uF" H 10175 3300 50  0000 L CNN
F 2 "Capacitors_ThroughHole:CP_Radial_D6.3mm_P2.50mm" H 10188 3250 50  0001 C CNN
F 3 "" H 10150 3400 50  0000 C CNN
	1    10150 3400
	1    0    0    -1  
$EndComp
$Comp
L GND #PWR04
U 1 1 589B0E51
P 8750 5800
F 0 "#PWR04" H 8750 5550 50  0001 C CNN
F 1 "GND" H 8750 5650 50  0000 C CNN
F 2 "" H 8750 5800 50  0000 C CNN
F 3 "" H 8750 5800 50  0000 C CNN
	1    8750 5800
	1    0    0    -1  
$EndComp
Text Label 8750 5500 0    60   ~ 0
V_LED
$Comp
L CP C2
U 1 1 589B0E61
P 8150 5650
F 0 "C2" H 8175 5750 50  0000 L CNN
F 1 "680uF" H 8175 5550 50  0000 L CNN
F 2 "Capacitors_ThroughHole:CP_Radial_D12.5mm_P5.00mm" H 8188 5500 50  0001 C CNN
F 3 "" H 8150 5650 50  0000 C CNN
	1    8150 5650
	1    0    0    -1  
$EndComp
Text Label 9500 3700 2    60   ~ 0
+3V3
$Comp
L R R7
U 1 1 589B3ADC
P 9250 5650
F 0 "R7" V 9330 5650 50  0000 C CNN
F 1 "100K" V 9250 5650 50  0000 C CNN
F 2 "Resistors_SMD:R_0805_HandSoldering" V 9180 5650 50  0001 C CNN
F 3 "" H 9250 5650 50  0000 C CNN
	1    9250 5650
	1    0    0    -1  
$EndComp
$Comp
L R R8
U 1 1 589B3ECE
P 9250 6100
F 0 "R8" V 9330 6100 50  0000 C CNN
F 1 "20K" V 9250 6100 50  0000 C CNN
F 2 "Resistors_SMD:R_0805_HandSoldering" V 9180 6100 50  0001 C CNN
F 3 "" H 9250 6100 50  0000 C CNN
	1    9250 6100
	1    0    0    -1  
$EndComp
$Comp
L GND #PWR05
U 1 1 589B418A
P 9250 6350
F 0 "#PWR05" H 9250 6100 50  0001 C CNN
F 1 "GND" H 9250 6200 50  0000 C CNN
F 2 "" H 9250 6350 50  0000 C CNN
F 3 "" H 9250 6350 50  0000 C CNN
	1    9250 6350
	1    0    0    -1  
$EndComp
$Comp
L C C3
U 1 1 589B4746
P 9500 6100
F 0 "C3" H 9525 6200 50  0000 L CNN
F 1 "100nF" H 9525 6000 50  0000 L CNN
F 2 "Capacitors_SMD:C_0805_HandSoldering" H 9538 5950 50  0001 C CNN
F 3 "" H 9500 6100 50  0000 C CNN
	1    9500 6100
	1    0    0    -1  
$EndComp
Text Label 9600 5900 2    60   ~ 0
VLED_SENSE
Text Label 9750 1300 2    60   ~ 0
VLED_SENSE
$Comp
L Jumper JP1
U 1 1 589B7A13
P 9950 1000
F 0 "JP1" H 9950 1150 50  0000 C CNN
F 1 "CONN_01X02" V 10050 1000 50  0000 C CNN
F 2 "Pin_Headers:Pin_Header_Straight_1x02_Pitch2.54mm" H 9950 1000 50  0001 C CNN
F 3 "" H 9950 1000 50  0000 C CNN
	1    9950 1000
	0    -1   -1   0   
$EndComp
Text Label 10200 700  2    60   ~ 0
+5V
Text Label 10200 1300 2    60   ~ 0
+5Vcc
$Comp
L C_Small C4
U 1 1 589B86CC
P 9900 3400
F 0 "C4" H 9910 3470 50  0000 L CNN
F 1 "4.7uF" H 9910 3320 50  0000 L CNN
F 2 "Capacitors_SMD:C_0805_HandSoldering" H 9900 3400 50  0001 C CNN
F 3 "" H 9900 3400 50  0000 C CNN
	1    9900 3400
	1    0    0    -1  
$EndComp
$Comp
L C_Small C5
U 1 1 589B8EFA
P 7850 5650
F 0 "C5" H 7860 5720 50  0000 L CNN
F 1 "4.7uF" H 7860 5570 50  0000 L CNN
F 2 "Capacitors_SMD:C_0805_HandSoldering" H 7850 5650 50  0001 C CNN
F 3 "" H 7850 5650 50  0000 C CNN
	1    7850 5650
	1    0    0    -1  
$EndComp
Text Notes 12200 10950 0    60   ~ 0
MPS LED Control Board
Text Notes 13000 11050 0    60   ~ 0
February 10, 2017
Text Notes 10550 7650 0    60   ~ 0
B\n
$Comp
L V_LED #PWR06
U 1 1 589D29A9
P 8750 5400
F 0 "#PWR06" H 8750 5250 50  0001 C CNN
F 1 "V_LED" H 8750 5550 50  0000 C CNN
F 2 "" H 8750 5400 50  0000 C CNN
F 3 "" H 8750 5400 50  0000 C CNN
	1    8750 5400
	1    0    0    -1  
$EndComp
Text Label 7650 3400 0    60   ~ 0
ESPSCLK
Text Label 7650 3500 0    60   ~ 0
MISO
Text Label 7650 3600 0    60   ~ 0
MOSI
Text Label 9500 3600 2    60   ~ 0
CS
Text Label 9500 3200 2    60   ~ 0
I2CSDA
Text Label 9500 3300 2    60   ~ 0
I2CSCL
$Comp
L Conn_01x14 P8
U 1 1 589D53C9
P 10900 1600
F 0 "P8" H 10900 2250 50  0000 C CNN
F 1 "Expansion Header" V 11000 1600 50  0000 C CNN
F 2 "Pin_Headers:Pin_Header_Angled_1x14_Pitch2.54mm" H 10900 1600 50  0001 C CNN
F 3 "" H 10900 1600 50  0000 C CNN
	1    10900 1600
	1    0    0    -1  
$EndComp
Text Label 10350 1200 0    60   ~ 0
+5V
Text Label 10350 1300 0    60   ~ 0
+5V
Text Label 10350 1400 0    60   ~ 0
GND
Text Label 10350 1500 0    60   ~ 0
GND
Text Label 10350 1600 0    60   ~ 0
+3V3
Text Label 10350 1700 0    60   ~ 0
+3V3
Text Label 10350 1800 0    60   ~ 0
I2CSCL
Text Label 10350 1900 0    60   ~ 0
I2CSDA
Text Label 10350 2000 0    60   ~ 0
MISO
Text Label 10350 2100 0    60   ~ 0
MOSI
Text Label 10350 2200 0    60   ~ 0
ESPSCLK
Text Label 10350 2300 0    60   ~ 0
CS
Text Label 7650 1900 0    60   ~ 0
STATUS
$Comp
L LED D1
U 1 1 589DA681
P 10400 2700
F 0 "D1" H 10400 2800 50  0000 C CNN
F 1 "LED" H 10400 2600 50  0000 C CNN
F 2 "LEDs:LED_0603" H 10400 2700 50  0001 C CNN
F 3 "" H 10400 2700 50  0000 C CNN
	1    10400 2700
	-1   0    0    1   
$EndComp
$Comp
L R R9
U 1 1 589DA81B
P 9950 2700
F 0 "R9" V 10030 2700 50  0000 C CNN
F 1 "100" V 9950 2700 50  0000 C CNN
F 2 "Resistors_SMD:R_0805_HandSoldering" V 9880 2700 50  0001 C CNN
F 3 "" H 9950 2700 50  0000 C CNN
	1    9950 2700
	0    1    1    0   
$EndComp
Text Label 9500 2700 0    60   ~ 0
STATUS
$Comp
L GND #PWR07
U 1 1 589DAFCC
P 11050 2800
F 0 "#PWR07" H 11050 2550 50  0001 C CNN
F 1 "GND" H 11050 2650 50  0000 C CNN
F 2 "" H 11050 2800 50  0000 C CNN
F 3 "" H 11050 2800 50  0000 C CNN
	1    11050 2800
	1    0    0    -1  
$EndComp
$Comp
L SW_PUSH SW1
U 1 1 58A0DC3E
P 8550 4850
F 0 "SW1" H 8700 4960 50  0000 C CNN
F 1 "SW_PUSH" H 8550 4770 50  0000 C CNN
F 2 "Buttons_Switches_ThroughHole:SW_PUSH_6mm_h7.3mm" H 8500 4700 50  0000 C CNN
F 3 "" H 8550 4850 50  0000 C CNN
	1    8550 4850
	1    0    0    -1  
$EndComp
$Comp
L GND #PWR08
U 1 1 58A0DF87
P 9400 4850
F 0 "#PWR08" H 9400 4600 50  0001 C CNN
F 1 "GND" H 9400 4700 50  0000 C CNN
F 2 "" H 9400 4850 50  0000 C CNN
F 3 "" H 9400 4850 50  0000 C CNN
	1    9400 4850
	1    0    0    -1  
$EndComp
$Comp
L R R11
U 1 1 58A0E211
P 9100 4850
F 0 "R11" V 9180 4850 50  0000 C CNN
F 1 "R" V 9100 4850 50  0000 C CNN
F 2 "Resistors_SMD:R_0805_HandSoldering" V 9030 4850 50  0001 C CNN
F 3 "" H 9100 4850 50  0000 C CNN
	1    9100 4850
	0    1    1    0   
$EndComp
$Comp
L R R10
U 1 1 58A0E32E
P 8100 4550
F 0 "R10" V 8180 4550 50  0000 C CNN
F 1 "47K" V 8100 4550 50  0000 C CNN
F 2 "Resistors_SMD:R_0805_HandSoldering" V 8030 4550 50  0001 C CNN
F 3 "" H 8100 4550 50  0000 C CNN
	1    8100 4550
	1    0    0    -1  
$EndComp
Text Label 8300 4250 0    60   ~ 0
+5V
Text Label 7650 4850 0    60   ~ 0
START
Text Label 9600 2300 2    60   ~ 0
START
$Comp
L Screw_Terminal_01x03 J1
U 1 1 5B09C933
P 10500 4800
F 0 "J1" H 10500 5000 50  0000 C CNN
F 1 "Screw_Terminal_01x03" H 10500 4600 50  0000 C CNN
F 2 "MPS:OnShore-3pin-OSTOQ037151" H 10500 4800 50  0001 C CNN
F 3 "" H 10500 4800 50  0001 C CNN
	1    10500 4800
	-1   0    0    -1  
$EndComp
$Comp
L GND #PWR09
U 1 1 5B0A7391
P 1450 2450
F 0 "#PWR09" H 1450 2200 50  0001 C CNN
F 1 "GND" H 1450 2300 50  0000 C CNN
F 2 "" H 1450 2450 50  0001 C CNN
F 3 "" H 1450 2450 50  0001 C CNN
	1    1450 2450
	1    0    0    -1  
$EndComp
$Comp
L Conn_02x08_Counter_Clockwise P1
U 1 1 58993D71
P 1400 3000
F 0 "P1" H 1400 3850 50  0000 C CNN
F 1 "CONN_02X8" V 1500 3000 50  0000 C CNN
F 2 "Pin_Headers:Pin_Header_Straight_2x08_Pitch2.54mm" V 1400 3000 50  0000 C CNN
F 3 "" H 1400 3000 50  0000 C CNN
	1    1400 3000
	1    0    0    -1  
$EndComp
$Comp
L TLC59401_Breakout TLC1
U 1 1 5892948E
P 1450 1600
F 0 "TLC1" H 1450 2650 118 0000 C CNN
F 1 "TLC59401_Breakout" H 1450 2450 118 0000 C CNN
F 2 "MPS:TLC_BREAKOUT_v2" H 1450 2900 118 0000 C CNN
F 3 "" H 1450 1600 118 0000 C CNN
	1    1450 1600
	1    0    0    -1  
$EndComp
$Comp
L TLC59401_Breakout TLC2
U 1 1 58995B14
P 3550 1600
F 0 "TLC2" H 3550 2650 118 0000 C CNN
F 1 "TLC59401_Breakout" H 3550 2450 118 0000 C CNN
F 2 "MPS:TLC_BREAKOUT_v2" H 3550 2900 118 0000 C CNN
F 3 "" H 3550 1600 118 0000 C CNN
	1    3550 1600
	1    0    0    -1  
$EndComp
$Comp
L GND #PWR010
U 1 1 5B0D32F7
P 3550 2450
F 0 "#PWR010" H 3550 2200 50  0001 C CNN
F 1 "GND" H 3550 2300 50  0000 C CNN
F 2 "" H 3550 2450 50  0001 C CNN
F 3 "" H 3550 2450 50  0001 C CNN
	1    3550 2450
	1    0    0    -1  
$EndComp
$Comp
L TLC59401_Breakout TLC3
U 1 1 58995BB8
P 5600 1700
F 0 "TLC3" H 5600 2750 118 0000 C CNN
F 1 "TLC59401_Breakout" H 5600 2550 118 0000 C CNN
F 2 "MPS:TLC_BREAKOUT_v2" H 5600 3000 118 0000 C CNN
F 3 "" H 5600 1700 118 0000 C CNN
	1    5600 1700
	1    0    0    -1  
$EndComp
$Comp
L GND #PWR011
U 1 1 5B0D7806
P 5600 2550
F 0 "#PWR011" H 5600 2300 50  0001 C CNN
F 1 "GND" H 5600 2400 50  0000 C CNN
F 2 "" H 5600 2550 50  0001 C CNN
F 3 "" H 5600 2550 50  0001 C CNN
	1    5600 2550
	1    0    0    -1  
$EndComp
$Comp
L Conn_02x08_Counter_Clockwise P3
U 1 1 5B0D79CD
P 5550 3100
F 0 "P3" H 5550 3950 50  0000 C CNN
F 1 "CONN_02x08" V 5650 3100 50  0000 C CNN
F 2 "Pin_Headers:Pin_Header_Straight_2x08_Pitch2.54mm" V 5550 3100 50  0000 C CNN
F 3 "" H 5550 3100 50  0000 C CNN
	1    5550 3100
	1    0    0    -1  
$EndComp
Wire Wire Line
	7900 1100 7650 1100
Wire Wire Line
	950  1350 700  1350
Wire Wire Line
	7900 1000 7650 1000
Wire Wire Line
	7900 1800 7650 1800
Wire Wire Line
	9300 1800 9600 1800
Wire Wire Line
	9300 1900 9600 1900
Wire Wire Line
	7900 1500 7650 1500
Wire Wire Line
	950  1250 700  1250
Wire Wire Line
	950  1150 700  1150
Wire Wire Line
	950  1050 700  1050
Wire Wire Line
	1950 1350 2250 1350
Wire Wire Line
	1950 1450 2250 1450
Wire Wire Line
	1950 1250 2250 1250
Wire Wire Line
	9900 3550 10750 3550
Wire Wire Line
	9900 3250 10700 3250
Wire Wire Line
	9300 1100 9600 1100
Wire Wire Line
	7700 3000 8000 3000
Wire Wire Line
	8000 3700 7750 3700
Wire Wire Line
	9100 3000 9350 3000
Wire Wire Line
	9100 3100 9350 3100
Wire Wire Line
	9100 3400 9500 3400
Wire Wire Line
	9100 3500 9500 3500
Wire Wire Line
	8000 3900 7750 3900
Wire Wire Line
	9100 3900 9500 3900
Wire Wire Line
	950  1450 700  1450
Wire Wire Line
	9300 2100 9600 2100
Wire Wire Line
	7900 1200 7650 1200
Wire Wire Line
	950  950  700  950 
Wire Wire Line
	1950 950  2250 950 
Wire Wire Line
	1950 1050 2250 1050
Wire Wire Line
	1950 1150 2250 1150
Wire Wire Line
	3050 1350 2800 1350
Wire Wire Line
	3050 1250 2800 1250
Wire Wire Line
	3050 1150 2800 1150
Wire Wire Line
	3050 1050 2800 1050
Wire Wire Line
	4050 1350 4350 1350
Wire Wire Line
	4050 1450 4350 1450
Wire Wire Line
	4050 1250 4350 1250
Wire Wire Line
	3050 1450 2800 1450
Wire Wire Line
	3050 950  2800 950 
Wire Wire Line
	4050 950  4350 950 
Wire Wire Line
	4050 1050 4350 1050
Wire Wire Line
	4050 1150 4350 1150
Wire Wire Line
	5100 1450 4850 1450
Wire Wire Line
	5100 1350 4850 1350
Wire Wire Line
	5100 1250 4850 1250
Wire Wire Line
	5100 1150 4850 1150
Wire Wire Line
	6100 1450 6400 1450
Wire Wire Line
	6100 1350 6400 1350
Wire Wire Line
	5100 1550 4850 1550
Wire Wire Line
	5100 1050 4850 1050
Wire Wire Line
	6100 1050 6400 1050
Wire Wire Line
	6100 1150 6400 1150
Wire Wire Line
	6100 1250 6400 1250
Wire Wire Line
	7900 1600 7650 1600
Wire Wire Line
	7900 1700 7650 1700
Wire Wire Line
	10650 5300 10900 5300
Wire Wire Line
	10650 5400 10900 5400
Wire Wire Line
	6950 5250 6950 6250
Wire Wire Line
	6950 6250 7000 6250
Wire Wire Line
	7300 5250 7550 5250
Wire Wire Line
	7300 5450 7550 5450
Wire Wire Line
	7300 5650 7550 5650
Wire Wire Line
	7300 5850 7550 5850
Wire Wire Line
	7300 6050 7550 6050
Wire Wire Line
	7300 6250 7550 6250
Wire Wire Line
	7900 2000 7650 2000
Wire Wire Line
	7900 1300 7650 1300
Wire Wire Line
	7900 2200 7650 2200
Wire Wire Line
	7900 2300 7650 2300
Wire Wire Line
	7900 800  7650 800 
Wire Wire Line
	7850 5800 8750 5800
Wire Wire Line
	7850 5500 9250 5500
Wire Wire Line
	9100 3700 9500 3700
Connection ~ 8750 5500
Wire Wire Line
	9250 5800 9250 5950
Wire Wire Line
	9250 5900 9600 5900
Connection ~ 9250 5900
Wire Wire Line
	9250 6250 9250 6350
Connection ~ 9500 5900
Wire Wire Line
	9500 5900 9500 5950
Wire Wire Line
	9500 6250 9500 6300
Wire Wire Line
	9500 6300 9250 6300
Connection ~ 9250 6300
Wire Wire Line
	9300 1300 9750 1300
Wire Wire Line
	9950 1300 10200 1300
Wire Wire Line
	9950 700  10200 700 
Wire Wire Line
	9900 3300 9900 3250
Connection ~ 10150 3250
Wire Wire Line
	9900 3550 9900 3500
Connection ~ 10150 3550
Wire Wire Line
	7850 5550 7850 5500
Wire Wire Line
	7850 5800 7850 5750
Connection ~ 8150 5500
Connection ~ 8150 5800
Wire Wire Line
	8750 5400 8750 5500
Wire Wire Line
	7000 5250 6950 5250
Wire Wire Line
	7000 5450 6950 5450
Connection ~ 6950 5450
Wire Wire Line
	7000 5650 6950 5650
Connection ~ 6950 5650
Wire Wire Line
	7000 5850 6950 5850
Connection ~ 6950 5850
Wire Wire Line
	7000 6050 6950 6050
Connection ~ 6950 6050
Wire Wire Line
	8000 3400 7650 3400
Wire Wire Line
	8000 3500 7650 3500
Wire Wire Line
	8000 3600 7650 3600
Wire Wire Line
	8000 3300 7650 3300
Wire Wire Line
	9500 3600 9100 3600
Wire Wire Line
	9100 3200 9500 3200
Wire Wire Line
	9100 3300 9500 3300
Wire Wire Line
	10700 1200 10350 1200
Wire Wire Line
	10700 1300 10350 1300
Wire Wire Line
	10700 1400 10350 1400
Wire Wire Line
	10700 1500 10350 1500
Wire Wire Line
	10700 1600 10350 1600
Wire Wire Line
	10700 1700 10350 1700
Wire Wire Line
	10700 1800 10350 1800
Wire Wire Line
	10700 1900 10350 1900
Wire Wire Line
	10700 2000 10350 2000
Wire Wire Line
	10700 2100 10350 2100
Wire Wire Line
	10700 2200 10350 2200
Wire Wire Line
	10700 2300 10350 2300
Wire Wire Line
	7900 1900 7650 1900
Wire Wire Line
	10100 2700 10250 2700
Wire Wire Line
	9800 2700 9500 2700
Wire Wire Line
	10550 2700 11050 2700
Wire Wire Line
	11050 2700 11050 2800
Wire Wire Line
	8850 4850 8950 4850
Wire Wire Line
	7650 4850 8250 4850
Wire Wire Line
	8100 4700 8100 4850
Connection ~ 8100 4850
Wire Wire Line
	8100 4400 8100 4250
Wire Wire Line
	8100 4250 8300 4250
Wire Wire Line
	9250 4850 9400 4850
Wire Wire Line
	9300 2300 9600 2300
Wire Wire Line
	11000 4700 10700 4700
Wire Wire Line
	10700 4800 11000 4800
Wire Wire Line
	10700 4900 11000 4900
Wire Wire Line
	1250 2350 1650 2350
Wire Wire Line
	1450 2350 1450 2450
Connection ~ 1450 2350
Wire Wire Line
	3350 2350 3750 2350
Wire Wire Line
	3550 2450 3550 2350
Connection ~ 3550 2350
Wire Wire Line
	5400 2450 5800 2450
Wire Wire Line
	5600 2450 5600 2550
Connection ~ 5600 2450
Wire Wire Line
	1950 2250 2000 2250
Wire Wire Line
	1950 2150 2050 2150
Wire Wire Line
	2100 2050 1950 2050
Wire Wire Line
	2150 1950 1950 1950
Wire Wire Line
	2200 1850 1950 1850
Wire Wire Line
	2250 1750 1950 1750
Wire Wire Line
	2300 1650 1950 1650
Wire Wire Line
	2350 1550 1950 1550
Wire Wire Line
	900  2250 950  2250
Wire Wire Line
	900  2250 900  2700
Wire Wire Line
	900  2700 1200 2700
Wire Wire Line
	950  2150 850  2150
Wire Wire Line
	850  2150 850  2800
Wire Wire Line
	850  2800 1200 2800
Wire Wire Line
	750  1950 950  1950
Wire Wire Line
	800  2900 1200 2900
Wire Wire Line
	950  2050 800  2050
Wire Wire Line
	800  2050 800  2900
Wire Wire Line
	750  1950 750  3000
Wire Wire Line
	750  3000 1200 3000
Wire Wire Line
	950  1850 700  1850
Wire Wire Line
	700  1850 700  3100
Wire Wire Line
	700  3100 1200 3100
Wire Wire Line
	650  1750 950  1750
Wire Wire Line
	650  1750 650  3200
Wire Wire Line
	650  3200 1200 3200
Wire Wire Line
	950  1650 600  1650
Wire Wire Line
	600  1650 600  3300
Wire Wire Line
	600  3300 1200 3300
Wire Wire Line
	950  1550 550  1550
Wire Wire Line
	550  1550 550  3400
Wire Wire Line
	550  3400 1200 3400
Wire Wire Line
	2000 2250 2000 2700
Wire Wire Line
	2000 2700 1700 2700
Wire Wire Line
	2050 2150 2050 2800
Wire Wire Line
	2050 2800 1700 2800
Wire Wire Line
	2100 2050 2100 2900
Wire Wire Line
	2100 2900 1700 2900
Wire Wire Line
	2150 1950 2150 3000
Wire Wire Line
	2150 3000 1700 3000
Wire Wire Line
	2200 1850 2200 3100
Wire Wire Line
	2200 3100 1700 3100
Wire Wire Line
	2250 1750 2250 3200
Wire Wire Line
	2250 3200 1700 3200
Wire Wire Line
	2300 1650 2300 3300
Wire Wire Line
	2300 3300 1700 3300
Wire Wire Line
	2350 1550 2350 3400
Wire Wire Line
	2350 3400 1700 3400
Wire Wire Line
	3050 2250 3000 2250
Wire Wire Line
	3000 2250 3000 2700
Wire Wire Line
	3000 2700 3350 2700
Wire Wire Line
	3050 2150 2950 2150
Wire Wire Line
	2950 2150 2950 2800
Wire Wire Line
	2950 2800 3350 2800
Wire Wire Line
	3050 2050 2900 2050
Wire Wire Line
	2900 2050 2900 2900
Wire Wire Line
	2900 2900 3350 2900
Wire Wire Line
	3050 1950 2850 1950
Wire Wire Line
	2850 1950 2850 3000
Wire Wire Line
	2850 3000 3350 3000
Wire Wire Line
	3050 1850 2800 1850
Wire Wire Line
	2800 1850 2800 3100
Wire Wire Line
	2800 3100 3350 3100
Wire Wire Line
	3050 1750 2750 1750
Wire Wire Line
	2750 1750 2750 3200
Wire Wire Line
	2750 3200 3350 3200
Wire Wire Line
	3050 1650 2700 1650
Wire Wire Line
	2700 1650 2700 3300
Wire Wire Line
	2700 3300 3350 3300
Wire Wire Line
	3050 1550 2650 1550
Wire Wire Line
	2650 1550 2650 3400
Wire Wire Line
	2650 3400 3350 3400
Wire Wire Line
	4050 2250 4100 2250
Wire Wire Line
	4100 2250 4100 2700
Wire Wire Line
	4100 2700 3850 2700
Wire Wire Line
	4050 2150 4150 2150
Wire Wire Line
	4150 2150 4150 2800
Wire Wire Line
	4150 2800 3850 2800
Wire Wire Line
	4050 2050 4200 2050
Wire Wire Line
	4200 2050 4200 2900
Wire Wire Line
	4200 2900 3850 2900
Wire Wire Line
	3850 3000 4250 3000
Wire Wire Line
	4050 1950 4250 1950
Wire Wire Line
	4250 1950 4250 3000
Wire Wire Line
	4050 1850 4300 1850
Wire Wire Line
	4300 1850 4300 3100
Wire Wire Line
	4300 3100 3850 3100
Wire Wire Line
	4050 1750 4350 1750
Wire Wire Line
	4350 1750 4350 3200
Wire Wire Line
	4350 3200 3850 3200
Wire Wire Line
	4050 1650 4400 1650
Wire Wire Line
	4400 1650 4400 3300
Wire Wire Line
	4400 3300 3850 3300
Wire Wire Line
	3850 3400 4450 3400
Wire Wire Line
	4450 3400 4450 1550
Wire Wire Line
	4450 1550 4050 1550
Wire Wire Line
	5100 2350 5050 2350
Wire Wire Line
	5050 2350 5050 2800
Wire Wire Line
	5050 2800 5350 2800
Wire Wire Line
	5100 2250 5000 2250
Wire Wire Line
	5000 2250 5000 2900
Wire Wire Line
	5000 2900 5350 2900
Wire Wire Line
	5100 2150 4950 2150
Wire Wire Line
	4950 2150 4950 3000
Wire Wire Line
	4950 3000 5350 3000
Wire Wire Line
	5100 2050 4900 2050
Wire Wire Line
	4900 2050 4900 3100
Wire Wire Line
	4900 3100 5350 3100
Wire Wire Line
	5100 1950 4850 1950
Wire Wire Line
	4850 1950 4850 3200
Wire Wire Line
	4850 3200 5350 3200
Wire Wire Line
	5100 1850 4800 1850
Wire Wire Line
	4800 1850 4800 3300
Wire Wire Line
	4800 3300 5350 3300
Wire Wire Line
	5350 3400 4750 3400
Wire Wire Line
	4750 3400 4750 1750
Wire Wire Line
	4750 1750 5100 1750
Wire Wire Line
	5100 1650 4700 1650
Wire Wire Line
	4700 1650 4700 3500
Wire Wire Line
	4700 3500 5350 3500
Wire Wire Line
	6100 2350 6150 2350
Wire Wire Line
	6150 2350 6150 2800
Wire Wire Line
	6150 2800 5850 2800
Wire Wire Line
	6100 2250 6200 2250
Wire Wire Line
	6200 2250 6200 2900
Wire Wire Line
	6200 2900 5850 2900
Wire Wire Line
	6100 2150 6250 2150
Wire Wire Line
	6250 2150 6250 3000
Wire Wire Line
	6250 3000 5850 3000
Wire Wire Line
	6100 2050 6300 2050
Wire Wire Line
	6300 2050 6300 3100
Wire Wire Line
	6300 3100 5850 3100
Wire Wire Line
	6100 1950 6350 1950
Wire Wire Line
	6350 1950 6350 3200
Wire Wire Line
	6350 3200 5850 3200
Wire Wire Line
	6100 1850 6400 1850
Wire Wire Line
	6400 1850 6400 3300
Wire Wire Line
	6400 3300 5850 3300
Wire Wire Line
	6100 1750 6450 1750
Wire Wire Line
	6450 1750 6450 3400
Wire Wire Line
	6450 3400 5850 3400
Wire Wire Line
	6100 1650 6500 1650
Wire Wire Line
	6500 1650 6500 3500
Wire Wire Line
	6500 3500 5850 3500
Wire Wire Line
	6100 1550 6400 1550
Text Label 6400 1550 2    60   ~ 0
XERR
Text Label 750  4900 0    60   ~ 0
SIN4
Text Label 750  4800 0    60   ~ 0
SCLK
Text Label 750  4700 0    60   ~ 0
XLAT
Text Label 750  4600 0    60   ~ 0
BLANK
Text Label 2300 4900 2    60   ~ 0
SIN5
Text Label 2300 4800 2    60   ~ 0
GSCLK
Text Label 750  5000 0    60   ~ 0
MODE
Text Label 750  4500 0    60   ~ 0
GND
Text Label 2300 4500 2    60   ~ 0
+5V
Text Label 2300 4600 2    60   ~ 0
IREF4
Text Label 2300 4700 2    60   ~ 0
+5V
$Comp
L TLC59401_Breakout TLC4
U 1 1 5B0DAF9C
P 1500 5150
F 0 "TLC4" H 1500 6200 118 0000 C CNN
F 1 "TLC59401_Breakout" H 1500 6000 118 0000 C CNN
F 2 "MPS:TLC_BREAKOUT_v2" H 1500 6450 118 0000 C CNN
F 3 "" H 1500 5150 118 0000 C CNN
	1    1500 5150
	1    0    0    -1  
$EndComp
$Comp
L GND #PWR012
U 1 1 5B0DAFA2
P 1500 6000
F 0 "#PWR012" H 1500 5750 50  0001 C CNN
F 1 "GND" H 1500 5850 50  0000 C CNN
F 2 "" H 1500 6000 50  0001 C CNN
F 3 "" H 1500 6000 50  0001 C CNN
	1    1500 6000
	1    0    0    -1  
$EndComp
$Comp
L Conn_02x08_Counter_Clockwise P4
U 1 1 5B0DAFA8
P 1450 6550
F 0 "P4" H 1450 7400 50  0000 C CNN
F 1 "CONN_02x08" V 1550 6550 50  0000 C CNN
F 2 "Pin_Headers:Pin_Header_Straight_2x08_Pitch2.54mm" V 1450 6550 50  0000 C CNN
F 3 "" H 1450 6550 50  0000 C CNN
	1    1450 6550
	1    0    0    -1  
$EndComp
Wire Wire Line
	1000 4900 750  4900
Wire Wire Line
	1000 4800 750  4800
Wire Wire Line
	1000 4700 750  4700
Wire Wire Line
	1000 4600 750  4600
Wire Wire Line
	2000 4900 2300 4900
Wire Wire Line
	2000 4800 2300 4800
Wire Wire Line
	1000 5000 750  5000
Wire Wire Line
	1000 4500 750  4500
Wire Wire Line
	2000 4500 2300 4500
Wire Wire Line
	2000 4600 2300 4600
Wire Wire Line
	2000 4700 2300 4700
Wire Wire Line
	1300 5900 1700 5900
Wire Wire Line
	1500 5900 1500 6000
Connection ~ 1500 5900
Wire Wire Line
	1000 5800 950  5800
Wire Wire Line
	950  5800 950  6250
Wire Wire Line
	950  6250 1250 6250
Wire Wire Line
	1000 5700 900  5700
Wire Wire Line
	900  5700 900  6350
Wire Wire Line
	900  6350 1250 6350
Wire Wire Line
	1000 5600 850  5600
Wire Wire Line
	850  5600 850  6450
Wire Wire Line
	850  6450 1250 6450
Wire Wire Line
	1000 5500 800  5500
Wire Wire Line
	800  5500 800  6550
Wire Wire Line
	800  6550 1250 6550
Wire Wire Line
	1000 5400 750  5400
Wire Wire Line
	750  5400 750  6650
Wire Wire Line
	750  6650 1250 6650
Wire Wire Line
	1000 5300 700  5300
Wire Wire Line
	700  5300 700  6750
Wire Wire Line
	700  6750 1250 6750
Wire Wire Line
	1250 6850 650  6850
Wire Wire Line
	650  6850 650  5200
Wire Wire Line
	650  5200 1000 5200
Wire Wire Line
	1000 5100 600  5100
Wire Wire Line
	600  5100 600  6950
Wire Wire Line
	600  6950 1250 6950
Wire Wire Line
	2000 5800 2050 5800
Wire Wire Line
	2050 5800 2050 6250
Wire Wire Line
	2050 6250 1750 6250
Wire Wire Line
	2000 5700 2100 5700
Wire Wire Line
	2100 5700 2100 6350
Wire Wire Line
	2100 6350 1750 6350
Wire Wire Line
	2000 5600 2150 5600
Wire Wire Line
	2150 5600 2150 6450
Wire Wire Line
	2150 6450 1750 6450
Wire Wire Line
	2000 5500 2200 5500
Wire Wire Line
	2200 5500 2200 6550
Wire Wire Line
	2200 6550 1750 6550
Wire Wire Line
	2000 5400 2250 5400
Wire Wire Line
	2250 5400 2250 6650
Wire Wire Line
	2250 6650 1750 6650
Wire Wire Line
	2000 5300 2300 5300
Wire Wire Line
	2300 5300 2300 6750
Wire Wire Line
	2300 6750 1750 6750
Wire Wire Line
	2000 5200 2350 5200
Wire Wire Line
	2350 5200 2350 6850
Wire Wire Line
	2350 6850 1750 6850
Wire Wire Line
	2000 5100 2400 5100
Wire Wire Line
	2400 5100 2400 6950
Wire Wire Line
	2400 6950 1750 6950
Wire Wire Line
	2000 5000 2300 5000
Text Label 2300 5000 2    60   ~ 0
XERR
Text Label 2750 4900 0    60   ~ 0
SIN5
Text Label 2750 4800 0    60   ~ 0
SCLK
Text Label 2750 4700 0    60   ~ 0
XLAT
Text Label 2750 4600 0    60   ~ 0
BLANK
Text Label 4300 4900 2    60   ~ 0
SIN6
Text Label 4300 4800 2    60   ~ 0
GSCLK
Text Label 2750 5000 0    60   ~ 0
MODE
Text Label 2750 4500 0    60   ~ 0
GND
Text Label 4300 4500 2    60   ~ 0
+5V
Text Label 4300 4600 2    60   ~ 0
IREF5
Text Label 4300 4700 2    60   ~ 0
+5V
$Comp
L TLC59401_Breakout TLC5
U 1 1 5B0DB2C5
P 3500 5150
F 0 "TLC5" H 3500 6200 118 0000 C CNN
F 1 "TLC59401_Breakout" H 3500 6000 118 0000 C CNN
F 2 "MPS:TLC_BREAKOUT_v2" H 3500 6450 118 0000 C CNN
F 3 "" H 3500 5150 118 0000 C CNN
	1    3500 5150
	1    0    0    -1  
$EndComp
$Comp
L GND #PWR013
U 1 1 5B0DB2CB
P 3500 6000
F 0 "#PWR013" H 3500 5750 50  0001 C CNN
F 1 "GND" H 3500 5850 50  0000 C CNN
F 2 "" H 3500 6000 50  0001 C CNN
F 3 "" H 3500 6000 50  0001 C CNN
	1    3500 6000
	1    0    0    -1  
$EndComp
$Comp
L Conn_02x08_Counter_Clockwise P5
U 1 1 5B0DB2D1
P 3450 6550
F 0 "P5" H 3450 7400 50  0000 C CNN
F 1 "CONN_02x08" V 3550 6550 50  0000 C CNN
F 2 "Pin_Headers:Pin_Header_Straight_2x08_Pitch2.54mm" V 3450 6550 50  0000 C CNN
F 3 "" H 3450 6550 50  0000 C CNN
	1    3450 6550
	1    0    0    -1  
$EndComp
Wire Wire Line
	3000 4900 2750 4900
Wire Wire Line
	3000 4800 2750 4800
Wire Wire Line
	3000 4700 2750 4700
Wire Wire Line
	3000 4600 2750 4600
Wire Wire Line
	4000 4900 4300 4900
Wire Wire Line
	4000 4800 4300 4800
Wire Wire Line
	3000 5000 2750 5000
Wire Wire Line
	3000 4500 2750 4500
Wire Wire Line
	4000 4500 4300 4500
Wire Wire Line
	4000 4600 4300 4600
Wire Wire Line
	4000 4700 4300 4700
Wire Wire Line
	3300 5900 3700 5900
Wire Wire Line
	3500 5900 3500 6000
Connection ~ 3500 5900
Wire Wire Line
	3000 5800 2950 5800
Wire Wire Line
	2950 5800 2950 6250
Wire Wire Line
	2950 6250 3250 6250
Wire Wire Line
	3000 5700 2900 5700
Wire Wire Line
	2900 5700 2900 6350
Wire Wire Line
	2900 6350 3250 6350
Wire Wire Line
	3000 5600 2850 5600
Wire Wire Line
	2850 5600 2850 6450
Wire Wire Line
	2850 6450 3250 6450
Wire Wire Line
	3000 5500 2800 5500
Wire Wire Line
	2800 5500 2800 6550
Wire Wire Line
	2800 6550 3250 6550
Wire Wire Line
	3000 5400 2750 5400
Wire Wire Line
	2750 5400 2750 6650
Wire Wire Line
	2750 6650 3250 6650
Wire Wire Line
	3000 5300 2700 5300
Wire Wire Line
	2700 5300 2700 6750
Wire Wire Line
	2700 6750 3250 6750
Wire Wire Line
	3250 6850 2650 6850
Wire Wire Line
	2650 6850 2650 5200
Wire Wire Line
	2650 5200 3000 5200
Wire Wire Line
	3000 5100 2600 5100
Wire Wire Line
	2600 5100 2600 6950
Wire Wire Line
	2600 6950 3250 6950
Wire Wire Line
	4000 5800 4050 5800
Wire Wire Line
	4050 5800 4050 6250
Wire Wire Line
	4050 6250 3750 6250
Wire Wire Line
	4000 5700 4100 5700
Wire Wire Line
	4100 5700 4100 6350
Wire Wire Line
	4100 6350 3750 6350
Wire Wire Line
	4000 5600 4150 5600
Wire Wire Line
	4150 5600 4150 6450
Wire Wire Line
	4150 6450 3750 6450
Wire Wire Line
	4000 5500 4200 5500
Wire Wire Line
	4200 5500 4200 6550
Wire Wire Line
	4200 6550 3750 6550
Wire Wire Line
	4000 5400 4250 5400
Wire Wire Line
	4250 5400 4250 6650
Wire Wire Line
	4250 6650 3750 6650
Wire Wire Line
	4000 5300 4300 5300
Wire Wire Line
	4300 5300 4300 6750
Wire Wire Line
	4300 6750 3750 6750
Wire Wire Line
	4000 5200 4350 5200
Wire Wire Line
	4350 5200 4350 6850
Wire Wire Line
	4350 6850 3750 6850
Wire Wire Line
	4000 5100 4400 5100
Wire Wire Line
	4400 5100 4400 6950
Wire Wire Line
	4400 6950 3750 6950
Wire Wire Line
	4000 5000 4300 5000
Text Label 4300 5000 2    60   ~ 0
XERR
Text Label 4850 4950 0    60   ~ 0
SIN6
Text Label 4850 4850 0    60   ~ 0
SCLK
Text Label 4850 4750 0    60   ~ 0
XLAT
Text Label 4850 4650 0    60   ~ 0
BLANK
Text Label 6400 4950 2    60   ~ 0
SIN7
Text Label 6400 4850 2    60   ~ 0
GSCLK
Text Label 4850 5050 0    60   ~ 0
MODE
Text Label 4850 4550 0    60   ~ 0
GND
Text Label 6400 4550 2    60   ~ 0
+5V
Text Label 6400 4650 2    60   ~ 0
IREF6
Text Label 6400 4750 2    60   ~ 0
+5V
$Comp
L TLC59401_Breakout TLC6
U 1 1 5B0DB450
P 5600 5200
F 0 "TLC6" H 5600 6250 118 0000 C CNN
F 1 "TLC59401_Breakout" H 5600 6050 118 0000 C CNN
F 2 "MPS:TLC_BREAKOUT_v2" H 5600 6500 118 0000 C CNN
F 3 "" H 5600 5200 118 0000 C CNN
	1    5600 5200
	1    0    0    -1  
$EndComp
$Comp
L GND #PWR014
U 1 1 5B0DB456
P 5600 6050
F 0 "#PWR014" H 5600 5800 50  0001 C CNN
F 1 "GND" H 5600 5900 50  0000 C CNN
F 2 "" H 5600 6050 50  0001 C CNN
F 3 "" H 5600 6050 50  0001 C CNN
	1    5600 6050
	1    0    0    -1  
$EndComp
$Comp
L Conn_02x08_Counter_Clockwise P6
U 1 1 5B0DB45C
P 5550 6600
F 0 "P6" H 5550 7450 50  0000 C CNN
F 1 "CONN_02x08" V 5650 6600 50  0000 C CNN
F 2 "Pin_Headers:Pin_Header_Straight_2x08_Pitch2.54mm" V 5550 6600 50  0000 C CNN
F 3 "" H 5550 6600 50  0000 C CNN
	1    5550 6600
	1    0    0    -1  
$EndComp
Wire Wire Line
	5100 4950 4850 4950
Wire Wire Line
	5100 4850 4850 4850
Wire Wire Line
	5100 4750 4850 4750
Wire Wire Line
	5100 4650 4850 4650
Wire Wire Line
	6100 4950 6400 4950
Wire Wire Line
	6100 4850 6400 4850
Wire Wire Line
	5100 5050 4850 5050
Wire Wire Line
	5100 4550 4850 4550
Wire Wire Line
	6100 4550 6400 4550
Wire Wire Line
	6100 4650 6400 4650
Wire Wire Line
	6100 4750 6400 4750
Wire Wire Line
	5400 5950 5800 5950
Wire Wire Line
	5600 5950 5600 6050
Connection ~ 5600 5950
Wire Wire Line
	5100 5850 5050 5850
Wire Wire Line
	5050 5850 5050 6300
Wire Wire Line
	5050 6300 5350 6300
Wire Wire Line
	5100 5750 5000 5750
Wire Wire Line
	5000 5750 5000 6400
Wire Wire Line
	5000 6400 5350 6400
Wire Wire Line
	5100 5650 4950 5650
Wire Wire Line
	4950 5650 4950 6500
Wire Wire Line
	4950 6500 5350 6500
Wire Wire Line
	5100 5550 4900 5550
Wire Wire Line
	4900 5550 4900 6600
Wire Wire Line
	4900 6600 5350 6600
Wire Wire Line
	5100 5450 4850 5450
Wire Wire Line
	4850 5450 4850 6700
Wire Wire Line
	4850 6700 5350 6700
Wire Wire Line
	5100 5350 4800 5350
Wire Wire Line
	4800 5350 4800 6800
Wire Wire Line
	4800 6800 5350 6800
Wire Wire Line
	5350 6900 4750 6900
Wire Wire Line
	4750 6900 4750 5250
Wire Wire Line
	4750 5250 5100 5250
Wire Wire Line
	5100 5150 4700 5150
Wire Wire Line
	4700 5150 4700 7000
Wire Wire Line
	4700 7000 5350 7000
Wire Wire Line
	6100 5850 6150 5850
Wire Wire Line
	6150 5850 6150 6300
Wire Wire Line
	6150 6300 5850 6300
Wire Wire Line
	6100 5750 6200 5750
Wire Wire Line
	6200 5750 6200 6400
Wire Wire Line
	6200 6400 5850 6400
Wire Wire Line
	6100 5650 6250 5650
Wire Wire Line
	6250 5650 6250 6500
Wire Wire Line
	6250 6500 5850 6500
Wire Wire Line
	6100 5550 6300 5550
Wire Wire Line
	6300 5550 6300 6600
Wire Wire Line
	6300 6600 5850 6600
Wire Wire Line
	6100 5450 6350 5450
Wire Wire Line
	6350 5450 6350 6700
Wire Wire Line
	6350 6700 5850 6700
Wire Wire Line
	6100 5350 6400 5350
Wire Wire Line
	6400 5350 6400 6800
Wire Wire Line
	6400 6800 5850 6800
Wire Wire Line
	6100 5250 6450 5250
Wire Wire Line
	6450 5250 6450 6900
Wire Wire Line
	6450 6900 5850 6900
Wire Wire Line
	6100 5150 6500 5150
Wire Wire Line
	6500 5150 6500 7000
Wire Wire Line
	6500 7000 5850 7000
Wire Wire Line
	6100 5050 6400 5050
Text Label 6400 5050 2    60   ~ 0
XERR
Wire Wire Line
	10700 1100 10350 1100
Wire Wire Line
	10700 1000 10350 1000
Text Label 10350 1100 0    60   ~ 0
GND
Text Label 10350 1000 0    60   ~ 0
V_LED
$Comp
L Conn_02x02_Top_Bottom J2
U 1 1 5B0DC8CA
P 10350 5300
F 0 "J2" H 10400 5400 50  0000 C CNN
F 1 "Conn_02x02_Top_Bottom" H 10400 5100 50  0000 C CNN
F 2 "Socket_Strips:Socket_Strip_Straight_2x02_Pitch2.54mm" H 10350 5300 50  0001 C CNN
F 3 "" H 10350 5300 50  0001 C CNN
	1    10350 5300
	1    0    0    -1  
$EndComp
Wire Wire Line
	9900 5300 10150 5300
Wire Wire Line
	9900 5400 10150 5400
Text Label 9900 5300 0    60   ~ 0
V_LED
Text Label 9900 5400 0    60   ~ 0
V_LED
Text Label 10950 5900 2    60   ~ 0
V_LED
Text Label 10950 6000 2    60   ~ 0
V_LED
Wire Wire Line
	10700 5900 10950 5900
Wire Wire Line
	10700 6000 10950 6000
$Comp
L Conn_02x02_Top_Bottom J3
U 1 1 5B0DD722
P 10400 5900
F 0 "J3" H 10450 6000 50  0000 C CNN
F 1 "Conn_02x02_Top_Bottom" H 10450 5700 50  0000 C CNN
F 2 "Socket_Strips:Socket_Strip_Straight_2x02_Pitch2.54mm" H 10400 5900 50  0001 C CNN
F 3 "" H 10400 5900 50  0001 C CNN
	1    10400 5900
	1    0    0    -1  
$EndComp
Wire Wire Line
	9950 5900 10200 5900
Wire Wire Line
	9950 6000 10200 6000
Text Label 9950 5900 0    60   ~ 0
V_LED
Text Label 9950 6000 0    60   ~ 0
V_LED
$EndSCHEMATC
