M48
;DRILL file {KiCad 4.0.7} date Monday, June 04, 2018 'PMt' 07:31:27 PM
;FORMAT={3:3/ absolute / metric / suppress leading zeros}
FMAT,2
METRIC,TZ
T1C0.300
T2C0.400
T3C0.750
T4C0.800
T5C1.000
T6C1.100
T7C1.200
T8C1.600
%
G90
G05
M71
T1
X241755Y-109412
X241755Y-119412
X242755Y-100412
X245455Y-168029
X245455Y-169299
X245755Y-73412
X245755Y-82412
X245755Y-92412
X245755Y-127412
X245755Y-136412
X245755Y-145412
X246725Y-168029
X246725Y-169299
X247995Y-168029
X247995Y-169299
X249265Y-168029
X249265Y-169299
X249771Y-131554
X249900Y-183664
X249900Y-201664
X249900Y-219664
X249900Y-237664
X250508Y-122283
X250535Y-168029
X250535Y-169299
X250546Y-104364
X250546Y-113470
X250673Y-140292
X251181Y-95398
X251192Y-166313
X251805Y-168029
X251805Y-169299
X253075Y-168029
X253075Y-169299
X253627Y-166960
X254280Y-228176
X254345Y-168029
X254345Y-169299
X254755Y-145412
X255804Y-228049
X258750Y-92057
X258979Y-131224
X259652Y-139911
X259855Y-122080
X259957Y-113406
X263455Y-168029
X263455Y-169299
X263755Y-145412
X264725Y-168029
X264725Y-169299
X265995Y-168029
X265995Y-169299
X267265Y-168029
X267265Y-169299
X267900Y-183664
X267900Y-201664
X267900Y-219664
X267900Y-237664
X268110Y-113444
X268199Y-131237
X268212Y-104300
X268402Y-140241
X268535Y-168029
X268535Y-169299
X268592Y-122194
X269240Y-94636
X269805Y-168029
X269805Y-169299
X271075Y-168029
X271075Y-169299
X272314Y-228176
X272345Y-168029
X272345Y-169299
X272755Y-145412
X273838Y-228049
X277127Y-122271
X277127Y-140330
X277660Y-131872
X278029Y-113457
X278968Y-100719
X280213Y-92070
X280988Y-83523
X281455Y-168029
X281455Y-169299
X281755Y-145412
X282725Y-168029
X282725Y-169299
X283995Y-168029
X283995Y-169299
X285265Y-168029
X285265Y-169299
X285900Y-183664
X285900Y-201664
X285900Y-219664
X285900Y-237664
X286411Y-131021
X286535Y-168029
X286535Y-169299
X286982Y-122144
X286982Y-140165
X287805Y-168029
X287805Y-169299
X287846Y-113228
X289075Y-168029
X289075Y-169299
X289332Y-101354
X290106Y-91676
X290345Y-168029
X290345Y-169299
X290348Y-228176
X290755Y-145412
X291872Y-228049
X295047Y-130970
X295796Y-113076
X296748Y-117737
X297358Y-137879
X297841Y-101595
X297891Y-91702
X298105Y-104412
X299455Y-168029
X299455Y-169299
X299755Y-145412
X300725Y-168029
X300725Y-169299
X301995Y-168029
X301995Y-169299
X303265Y-168029
X303265Y-169299
X303900Y-183664
X303900Y-201664
X303900Y-219664
X303900Y-237664
X304076Y-139670
X304535Y-168029
X304535Y-169299
X304851Y-130754
X305805Y-168029
X305805Y-169299
X306718Y-119794
X306858Y-110447
X307075Y-168029
X307075Y-169299
X308128Y-91346
X308331Y-228176
X308345Y-168029
X308345Y-169299
X308755Y-145412
X309855Y-228049
X311505Y-82162
X313335Y-131237
X313487Y-138705
X314005Y-74912
X314351Y-122055
X315087Y-109850
X315786Y-91753
X316755Y-83412
X317455Y-168029
X317455Y-169299
X317755Y-145412
X318725Y-168029
X318725Y-169299
X319995Y-168029
X319995Y-169299
X321265Y-168029
X321265Y-169299
X321615Y-130437
X321900Y-183664
X321900Y-201664
X321900Y-219664
X321900Y-237664
X322187Y-121915
X322504Y-110930
X322535Y-168029
X322535Y-169299
X323241Y-140101
X323805Y-168029
X323805Y-169299
X324727Y-101214
X324777Y-82977
X325075Y-168029
X325075Y-169299
X326289Y-228176
X326345Y-168029
X326345Y-169299
X326755Y-145412
X327813Y-228049
X327978Y-66200
X330403Y-113127
X331038Y-95385
X331546Y-131313
X331826Y-103487
X332042Y-122334
X333705Y-136965
X334734Y-83929
X335455Y-168029
X335455Y-169299
X335755Y-145412
X336725Y-168029
X336725Y-169299
X337995Y-168029
X337995Y-169299
X339265Y-168029
X339265Y-169299
X339687Y-130957
X339900Y-183664
X339900Y-201664
X339900Y-219664
X339900Y-237664
X340525Y-95817
X340535Y-168029
X340535Y-169299
X341021Y-113279
X341389Y-140114
X341805Y-168029
X341805Y-169299
X343075Y-168029
X343075Y-169299
X344323Y-228176
X344345Y-168029
X344345Y-169299
X344755Y-91412
X344755Y-100412
X344755Y-109412
X344755Y-118412
X344755Y-127412
X344755Y-136412
X344755Y-145412
X345847Y-228049
X386118Y-72733
X386118Y-95085
X386321Y-116827
X386321Y-139179
X387134Y-162751
X387134Y-185103
X387337Y-206845
X387693Y-229527
X387896Y-251269
X389118Y-72733
X389118Y-95085
X389321Y-116827
X389321Y-139179
X389327Y-61480
X389327Y-62780
X389327Y-64080
X389327Y-65380
X389327Y-66680
X389327Y-67980
X389327Y-69280
X389327Y-83832
X389327Y-85132
X389327Y-86432
X389327Y-87732
X389327Y-89032
X389327Y-90332
X389327Y-91632
X389530Y-105574
X389530Y-106874
X389530Y-108174
X389530Y-109474
X389530Y-110774
X389530Y-112074
X389530Y-113374
X389530Y-127926
X389530Y-129226
X389530Y-130526
X389530Y-131826
X389530Y-133126
X389530Y-134426
X389530Y-135726
X390134Y-162751
X390134Y-185103
X390337Y-206845
X390343Y-151497
X390343Y-152797
X390343Y-154097
X390343Y-155397
X390343Y-156697
X390343Y-157997
X390343Y-159297
X390343Y-173849
X390343Y-175149
X390343Y-176449
X390343Y-177749
X390343Y-179049
X390343Y-180349
X390343Y-181649
X390546Y-195592
X390546Y-196892
X390546Y-198192
X390546Y-199492
X390546Y-200792
X390546Y-202092
X390546Y-203392
X390627Y-61480
X390627Y-62780
X390627Y-64080
X390627Y-65380
X390627Y-66680
X390627Y-67980
X390627Y-69280
X390627Y-83832
X390627Y-85132
X390627Y-86432
X390627Y-87732
X390627Y-89032
X390627Y-90332
X390627Y-91632
X390693Y-229527
X390830Y-105574
X390830Y-106874
X390830Y-108174
X390830Y-109474
X390830Y-110774
X390830Y-112074
X390830Y-113374
X390830Y-127926
X390830Y-129226
X390830Y-130526
X390830Y-131826
X390830Y-133126
X390830Y-134426
X390830Y-135726
X390896Y-251269
X390901Y-218274
X390901Y-219574
X390901Y-220874
X390901Y-222174
X390901Y-223474
X390901Y-224774
X390901Y-226074
X391105Y-240016
X391105Y-241316
X391105Y-242616
X391105Y-243916
X391105Y-245216
X391105Y-246516
X391105Y-247816
X391643Y-151497
X391643Y-152797
X391643Y-154097
X391643Y-155397
X391643Y-156697
X391643Y-157997
X391643Y-159297
X391643Y-173849
X391643Y-175149
X391643Y-176449
X391643Y-177749
X391643Y-179049
X391643Y-180349
X391643Y-181649
X391846Y-195592
X391846Y-196892
X391846Y-198192
X391846Y-199492
X391846Y-200792
X391846Y-202092
X391846Y-203392
X391927Y-61480
X391927Y-62780
X391927Y-64080
X391927Y-65380
X391927Y-66680
X391927Y-67980
X391927Y-69280
X391927Y-83832
X391927Y-85132
X391927Y-86432
X391927Y-87732
X391927Y-89032
X391927Y-90332
X391927Y-91632
X392118Y-72733
X392118Y-95085
X392130Y-105574
X392130Y-106874
X392130Y-108174
X392130Y-109474
X392130Y-110774
X392130Y-112074
X392130Y-113374
X392130Y-127926
X392130Y-129226
X392130Y-130526
X392130Y-131826
X392130Y-133126
X392130Y-134426
X392130Y-135726
X392201Y-218274
X392201Y-219574
X392201Y-220874
X392201Y-222174
X392201Y-223474
X392201Y-224774
X392201Y-226074
X392321Y-116827
X392321Y-139179
X392405Y-240016
X392405Y-241316
X392405Y-242616
X392405Y-243916
X392405Y-245216
X392405Y-246516
X392405Y-247816
X392943Y-151497
X392943Y-152797
X392943Y-154097
X392943Y-155397
X392943Y-156697
X392943Y-157997
X392943Y-159297
X392943Y-173849
X392943Y-175149
X392943Y-176449
X392943Y-177749
X392943Y-179049
X392943Y-180349
X392943Y-181649
X393134Y-162751
X393134Y-185103
X393146Y-195592
X393146Y-196892
X393146Y-198192
X393146Y-199492
X393146Y-200792
X393146Y-202092
X393146Y-203392
X393337Y-206845
X393501Y-218274
X393501Y-219574
X393501Y-220874
X393501Y-222174
X393501Y-223474
X393501Y-224774
X393501Y-226074
X393693Y-229527
X393705Y-240016
X393705Y-241316
X393705Y-242616
X393705Y-243916
X393705Y-245216
X393705Y-246516
X393705Y-247816
X393896Y-251269
X395118Y-72733
X395118Y-95085
X395321Y-116827
X395321Y-139179
X396134Y-162751
X396134Y-185103
X396337Y-206845
X396693Y-229527
X396896Y-251269
X409054Y-72733
X409054Y-95085
X409258Y-116827
X409258Y-139179
X410070Y-162751
X410070Y-185103
X410274Y-206845
X410629Y-229527
X410832Y-251269
X412054Y-72733
X412054Y-95085
X412258Y-116827
X412258Y-139179
X412263Y-61480
X412263Y-62780
X412263Y-64080
X412263Y-65380
X412263Y-66680
X412263Y-67980
X412263Y-69280
X412263Y-83832
X412263Y-85132
X412263Y-86432
X412263Y-87732
X412263Y-89032
X412263Y-90332
X412263Y-91632
X412466Y-105574
X412466Y-106874
X412466Y-108174
X412466Y-109474
X412466Y-110774
X412466Y-112074
X412466Y-113374
X412466Y-127926
X412466Y-129226
X412466Y-130526
X412466Y-131826
X412466Y-133126
X412466Y-134426
X412466Y-135726
X413070Y-162751
X413070Y-185103
X413274Y-206845
X413279Y-151497
X413279Y-152797
X413279Y-154097
X413279Y-155397
X413279Y-156697
X413279Y-157997
X413279Y-159297
X413279Y-173849
X413279Y-175149
X413279Y-176449
X413279Y-177749
X413279Y-179049
X413279Y-180349
X413279Y-181649
X413482Y-195592
X413482Y-196892
X413482Y-198192
X413482Y-199492
X413482Y-200792
X413482Y-202092
X413482Y-203392
X413563Y-61480
X413563Y-62780
X413563Y-64080
X413563Y-65380
X413563Y-66680
X413563Y-67980
X413563Y-69280
X413563Y-83832
X413563Y-85132
X413563Y-86432
X413563Y-87732
X413563Y-89032
X413563Y-90332
X413563Y-91632
X413629Y-229527
X413766Y-105574
X413766Y-106874
X413766Y-108174
X413766Y-109474
X413766Y-110774
X413766Y-112074
X413766Y-113374
X413766Y-127926
X413766Y-129226
X413766Y-130526
X413766Y-131826
X413766Y-133126
X413766Y-134426
X413766Y-135726
X413832Y-251269
X413838Y-218274
X413838Y-219574
X413838Y-220874
X413838Y-222174
X413838Y-223474
X413838Y-224774
X413838Y-226074
X414041Y-240016
X414041Y-241316
X414041Y-242616
X414041Y-243916
X414041Y-245216
X414041Y-246516
X414041Y-247816
X414579Y-151497
X414579Y-152797
X414579Y-154097
X414579Y-155397
X414579Y-156697
X414579Y-157997
X414579Y-159297
X414579Y-173849
X414579Y-175149
X414579Y-176449
X414579Y-177749
X414579Y-179049
X414579Y-180349
X414579Y-181649
X414782Y-195592
X414782Y-196892
X414782Y-198192
X414782Y-199492
X414782Y-200792
X414782Y-202092
X414782Y-203392
X414863Y-61480
X414863Y-62780
X414863Y-64080
X414863Y-65380
X414863Y-66680
X414863Y-67980
X414863Y-69280
X414863Y-83832
X414863Y-85132
X414863Y-86432
X414863Y-87732
X414863Y-89032
X414863Y-90332
X414863Y-91632
X415054Y-72733
X415054Y-95085
X415066Y-105574
X415066Y-106874
X415066Y-108174
X415066Y-109474
X415066Y-110774
X415066Y-112074
X415066Y-113374
X415066Y-127926
X415066Y-129226
X415066Y-130526
X415066Y-131826
X415066Y-133126
X415066Y-134426
X415066Y-135726
X415138Y-218274
X415138Y-219574
X415138Y-220874
X415138Y-222174
X415138Y-223474
X415138Y-224774
X415138Y-226074
X415258Y-116827
X415258Y-139179
X415341Y-240016
X415341Y-241316
X415341Y-242616
X415341Y-243916
X415341Y-245216
X415341Y-246516
X415341Y-247816
X415879Y-151497
X415879Y-152797
X415879Y-154097
X415879Y-155397
X415879Y-156697
X415879Y-157997
X415879Y-159297
X415879Y-173849
X415879Y-175149
X415879Y-176449
X415879Y-177749
X415879Y-179049
X415879Y-180349
X415879Y-181649
X416070Y-162751
X416070Y-185103
X416082Y-195592
X416082Y-196892
X416082Y-198192
X416082Y-199492
X416082Y-200792
X416082Y-202092
X416082Y-203392
X416274Y-206845
X416438Y-218274
X416438Y-219574
X416438Y-220874
X416438Y-222174
X416438Y-223474
X416438Y-224774
X416438Y-226074
X416629Y-229527
X416641Y-240016
X416641Y-241316
X416641Y-242616
X416641Y-243916
X416641Y-245216
X416641Y-246516
X416641Y-247816
X416832Y-251269
X418054Y-72733
X418054Y-95085
X418258Y-116827
X418258Y-139179
X419070Y-162751
X419070Y-185103
X419274Y-206845
X419629Y-229527
X419832Y-251269
X432041Y-72784
X432041Y-95136
X432245Y-116878
X432245Y-139230
X433057Y-162801
X433057Y-185153
X433260Y-206896
X433616Y-229578
X433819Y-251320
X435041Y-72784
X435041Y-95136
X435245Y-116878
X435245Y-139230
X435250Y-61530
X435250Y-62830
X435250Y-64130
X435250Y-65430
X435250Y-66730
X435250Y-68030
X435250Y-69330
X435250Y-83882
X435250Y-85182
X435250Y-86482
X435250Y-87782
X435250Y-89082
X435250Y-90382
X435250Y-91682
X435453Y-105625
X435453Y-106925
X435453Y-108225
X435453Y-109525
X435453Y-110825
X435453Y-112125
X435453Y-113425
X435453Y-127977
X435453Y-129277
X435453Y-130577
X435453Y-131877
X435453Y-133177
X435453Y-134477
X435453Y-135777
X436057Y-162801
X436057Y-185153
X436260Y-206896
X436266Y-151548
X436266Y-152848
X436266Y-154148
X436266Y-155448
X436266Y-156748
X436266Y-158048
X436266Y-159348
X436266Y-173900
X436266Y-175200
X436266Y-176500
X436266Y-177800
X436266Y-179100
X436266Y-180400
X436266Y-181700
X436469Y-195642
X436469Y-196942
X436469Y-198242
X436469Y-199542
X436469Y-200842
X436469Y-202142
X436469Y-203442
X436550Y-61530
X436550Y-62830
X436550Y-64130
X436550Y-65430
X436550Y-66730
X436550Y-68030
X436550Y-69330
X436550Y-83882
X436550Y-85182
X436550Y-86482
X436550Y-87782
X436550Y-89082
X436550Y-90382
X436550Y-91682
X436616Y-229578
X436753Y-105625
X436753Y-106925
X436753Y-108225
X436753Y-109525
X436753Y-110825
X436753Y-112125
X436753Y-113425
X436753Y-127977
X436753Y-129277
X436753Y-130577
X436753Y-131877
X436753Y-133177
X436753Y-134477
X436753Y-135777
X436819Y-251320
X436825Y-218325
X436825Y-219625
X436825Y-220925
X436825Y-222225
X436825Y-223525
X436825Y-224825
X436825Y-226125
X437028Y-240067
X437028Y-241367
X437028Y-242667
X437028Y-243967
X437028Y-245267
X437028Y-246567
X437028Y-247867
X437566Y-151548
X437566Y-152848
X437566Y-154148
X437566Y-155448
X437566Y-156748
X437566Y-158048
X437566Y-159348
X437566Y-173900
X437566Y-175200
X437566Y-176500
X437566Y-177800
X437566Y-179100
X437566Y-180400
X437566Y-181700
X437769Y-195642
X437769Y-196942
X437769Y-198242
X437769Y-199542
X437769Y-200842
X437769Y-202142
X437769Y-203442
X437850Y-61530
X437850Y-62830
X437850Y-64130
X437850Y-65430
X437850Y-66730
X437850Y-68030
X437850Y-69330
X437850Y-83882
X437850Y-85182
X437850Y-86482
X437850Y-87782
X437850Y-89082
X437850Y-90382
X437850Y-91682
X438041Y-72784
X438041Y-95136
X438053Y-105625
X438053Y-106925
X438053Y-108225
X438053Y-109525
X438053Y-110825
X438053Y-112125
X438053Y-113425
X438053Y-127977
X438053Y-129277
X438053Y-130577
X438053Y-131877
X438053Y-133177
X438053Y-134477
X438053Y-135777
X438125Y-218325
X438125Y-219625
X438125Y-220925
X438125Y-222225
X438125Y-223525
X438125Y-224825
X438125Y-226125
X438245Y-116878
X438245Y-139230
X438328Y-240067
X438328Y-241367
X438328Y-242667
X438328Y-243967
X438328Y-245267
X438328Y-246567
X438328Y-247867
X438866Y-151548
X438866Y-152848
X438866Y-154148
X438866Y-155448
X438866Y-156748
X438866Y-158048
X438866Y-159348
X438866Y-173900
X438866Y-175200
X438866Y-176500
X438866Y-177800
X438866Y-179100
X438866Y-180400
X438866Y-181700
X439057Y-162801
X439057Y-185153
X439069Y-195642
X439069Y-196942
X439069Y-198242
X439069Y-199542
X439069Y-200842
X439069Y-202142
X439069Y-203442
X439260Y-206896
X439425Y-218325
X439425Y-219625
X439425Y-220925
X439425Y-222225
X439425Y-223525
X439425Y-224825
X439425Y-226125
X439616Y-229578
X439628Y-240067
X439628Y-241367
X439628Y-242667
X439628Y-243967
X439628Y-245267
X439628Y-246567
X439628Y-247867
X439819Y-251320
X441041Y-72784
X441041Y-95136
X441245Y-116878
X441245Y-139230
X442057Y-162801
X442057Y-185153
X442260Y-206896
X442616Y-229578
X442819Y-251320
T2
X44469Y-116295
X44621Y-218352
X46514Y-118340
X46666Y-220397
X51526Y-118764
X51679Y-220821
X53086Y-124164
X53239Y-226221
X60186Y-112164
X60339Y-214221
X61017Y-71781
X61169Y-173839
X61239Y-114174
X61391Y-216232
X61880Y-66854
X62033Y-168911
X62086Y-119564
X62239Y-221621
X63986Y-116264
X64139Y-218321
X65286Y-119464
X65439Y-221521
X69932Y-72010
X70085Y-174067
X70982Y-117593
X71135Y-219651
X71786Y-99464
X71939Y-201521
X74159Y-92944
X74311Y-195002
X75520Y-108281
X75673Y-210338
X75876Y-88317
X76028Y-190374
X79229Y-94718
X79330Y-85980
X79330Y-92584
X79330Y-104166
X79381Y-196775
X79483Y-188037
X79483Y-194641
X79483Y-206224
X79788Y-82424
X79940Y-184481
X81159Y-91974
X81312Y-194032
X82139Y-112274
X82291Y-214332
X83140Y-106614
X83293Y-208671
X83439Y-114174
X83591Y-216232
X85039Y-118674
X85191Y-220732
X86087Y-119474
X86239Y-221532
X89739Y-116574
X89808Y-83961
X89891Y-218632
X89960Y-186018
X93386Y-91864
X93539Y-193921
X94541Y-117593
X94693Y-219651
X100700Y-120070
X100853Y-222127
X101386Y-91864
X101539Y-193921
X103308Y-82779
X103386Y-88864
X103460Y-184837
X103539Y-190921
X107114Y-112196
X107266Y-214253
X109082Y-114482
X109235Y-216539
X110797Y-118609
X110949Y-220667
X116986Y-84464
X117139Y-186521
X117486Y-89864
X117639Y-191921
X118480Y-116577
X118599Y-91873
X118633Y-218635
X118751Y-193930
X119496Y-117593
X119586Y-63264
X119649Y-219651
X119739Y-165321
X119986Y-69064
X120139Y-171121
X125586Y-73064
X125739Y-175121
X126086Y-75264
X126164Y-119562
X126239Y-177321
X126316Y-221619
X128911Y-105690
X129064Y-207748
X132641Y-112132
X132793Y-214190
X134800Y-114545
X134952Y-216603
X136578Y-118800
X136730Y-220857
X143386Y-116577
X143539Y-218635
X144386Y-118038
X144539Y-220095
X150992Y-119625
X151145Y-221683
X153386Y-75064
X153448Y-106859
X153539Y-177121
X153600Y-208916
X157152Y-112259
X157304Y-214317
X158739Y-114672
X158892Y-216730
X160708Y-118736
X160860Y-220794
X165886Y-69964
X166039Y-172021
X167386Y-116577
X167539Y-218635
X168386Y-117979
X168539Y-220036
X175122Y-119625
X175275Y-221683
X177933Y-106401
X178086Y-208459
X178886Y-100864
X179039Y-202921
X182107Y-112450
X182260Y-214507
X183314Y-114926
X183466Y-216984
X184457Y-118736
X184609Y-220794
X187280Y-109703
X187433Y-211761
X191386Y-116664
X191539Y-218721
X192486Y-117964
X192639Y-220021
X393992Y-57950
X393992Y-60109
X393992Y-80302
X393992Y-82461
X394195Y-102044
X394195Y-104203
X394195Y-124397
X394195Y-126556
X395008Y-147968
X395008Y-150127
X395008Y-170320
X395008Y-172479
X395211Y-192062
X395211Y-194221
X395567Y-214744
X395567Y-216903
X395770Y-236487
X395770Y-238646
X399754Y-55791
X399754Y-78143
X399957Y-99886
X399957Y-122238
X400770Y-145809
X400770Y-168161
X400973Y-189903
X401328Y-212585
X401532Y-234328
X416928Y-57950
X416928Y-60109
X416928Y-80302
X416928Y-82461
X417131Y-102044
X417131Y-104203
X417131Y-124397
X417131Y-126556
X417944Y-147968
X417944Y-150127
X417944Y-170320
X417944Y-172479
X418147Y-192062
X418147Y-194221
X418503Y-214744
X418503Y-216903
X418706Y-236487
X418706Y-238646
X422690Y-55791
X422690Y-78143
X422893Y-99886
X422893Y-122238
X423706Y-145809
X423706Y-168161
X423909Y-189903
X424265Y-212585
X424468Y-234328
X439915Y-58001
X439915Y-60160
X439915Y-80353
X439915Y-82512
X440118Y-102095
X440118Y-104254
X440118Y-124447
X440118Y-126606
X440931Y-148019
X440931Y-150177
X440931Y-170371
X440931Y-172529
X441135Y-192113
X441135Y-194272
X441490Y-214795
X441490Y-216954
X441693Y-236538
X441693Y-238696
X445677Y-55842
X445677Y-78194
X445880Y-99936
X445880Y-122288
X446693Y-145860
X446693Y-168212
X446896Y-189954
X447252Y-212636
X447455Y-234379
T3
X55439Y-122069
X55439Y-123339
X55439Y-124609
X55439Y-125879
X55439Y-127149
X55439Y-128419
X55439Y-129689
X55439Y-130959
X55439Y-132229
X55439Y-133499
X55439Y-134769
X55439Y-136039
X55439Y-137309
X55439Y-138579
X55439Y-139849
X55591Y-224127
X55591Y-225397
X55591Y-226667
X55591Y-227937
X55591Y-229207
X55591Y-230477
X55591Y-231747
X55591Y-233017
X55591Y-234287
X55591Y-235557
X55591Y-236827
X55591Y-238097
X55591Y-239367
X55591Y-240637
X55591Y-241907
X73439Y-122069
X73439Y-123339
X73439Y-124609
X73439Y-125879
X73439Y-127149
X73439Y-128419
X73439Y-129689
X73439Y-130959
X73439Y-132229
X73439Y-133499
X73439Y-134769
X73439Y-136039
X73439Y-137309
X73439Y-138579
X73439Y-139849
X73591Y-224127
X73591Y-225397
X73591Y-226667
X73591Y-227937
X73591Y-229207
X73591Y-230477
X73591Y-231747
X73591Y-233017
X73591Y-234287
X73591Y-235557
X73591Y-236827
X73591Y-238097
X73591Y-239367
X73591Y-240637
X73591Y-241907
X79939Y-122069
X79939Y-123339
X79939Y-124609
X79939Y-125879
X79939Y-127149
X79939Y-128419
X79939Y-129689
X79939Y-130959
X79939Y-132229
X79939Y-133499
X79939Y-134769
X79939Y-136039
X79939Y-137309
X79939Y-138579
X79939Y-139849
X80091Y-224127
X80091Y-225397
X80091Y-226667
X80091Y-227937
X80091Y-229207
X80091Y-230477
X80091Y-231747
X80091Y-233017
X80091Y-234287
X80091Y-235557
X80091Y-236827
X80091Y-238097
X80091Y-239367
X80091Y-240637
X80091Y-241907
X97939Y-122069
X97939Y-123339
X97939Y-124609
X97939Y-125879
X97939Y-127149
X97939Y-128419
X97939Y-129689
X97939Y-130959
X97939Y-132229
X97939Y-133499
X97939Y-134769
X97939Y-136039
X97939Y-137309
X97939Y-138579
X97939Y-139849
X98091Y-224127
X98091Y-225397
X98091Y-226667
X98091Y-227937
X98091Y-229207
X98091Y-230477
X98091Y-231747
X98091Y-233017
X98091Y-234287
X98091Y-235557
X98091Y-236827
X98091Y-238097
X98091Y-239367
X98091Y-240637
X98091Y-241907
X104439Y-122069
X104439Y-123339
X104439Y-124609
X104439Y-125879
X104439Y-127149
X104439Y-128419
X104439Y-129689
X104439Y-130959
X104439Y-132229
X104439Y-133499
X104439Y-134769
X104439Y-136039
X104439Y-137309
X104439Y-138579
X104439Y-139849
X104591Y-224127
X104591Y-225397
X104591Y-226667
X104591Y-227937
X104591Y-229207
X104591Y-230477
X104591Y-231747
X104591Y-233017
X104591Y-234287
X104591Y-235557
X104591Y-236827
X104591Y-238097
X104591Y-239367
X104591Y-240637
X104591Y-241907
X122439Y-122069
X122439Y-123339
X122439Y-124609
X122439Y-125879
X122439Y-127149
X122439Y-128419
X122439Y-129689
X122439Y-130959
X122439Y-132229
X122439Y-133499
X122439Y-134769
X122439Y-136039
X122439Y-137309
X122439Y-138579
X122439Y-139849
X122591Y-224127
X122591Y-225397
X122591Y-226667
X122591Y-227937
X122591Y-229207
X122591Y-230477
X122591Y-231747
X122591Y-233017
X122591Y-234287
X122591Y-235557
X122591Y-236827
X122591Y-238097
X122591Y-239367
X122591Y-240637
X122591Y-241907
X128939Y-122069
X128939Y-123339
X128939Y-124609
X128939Y-125879
X128939Y-127149
X128939Y-128419
X128939Y-129689
X128939Y-130959
X128939Y-132229
X128939Y-133499
X128939Y-134769
X128939Y-136039
X128939Y-137309
X128939Y-138579
X128939Y-139849
X129091Y-224127
X129091Y-225397
X129091Y-226667
X129091Y-227937
X129091Y-229207
X129091Y-230477
X129091Y-231747
X129091Y-233017
X129091Y-234287
X129091Y-235557
X129091Y-236827
X129091Y-238097
X129091Y-239367
X129091Y-240637
X129091Y-241907
X146939Y-122069
X146939Y-123339
X146939Y-124609
X146939Y-125879
X146939Y-127149
X146939Y-128419
X146939Y-129689
X146939Y-130959
X146939Y-132229
X146939Y-133499
X146939Y-134769
X146939Y-136039
X146939Y-137309
X146939Y-138579
X146939Y-139849
X147091Y-224127
X147091Y-225397
X147091Y-226667
X147091Y-227937
X147091Y-229207
X147091Y-230477
X147091Y-231747
X147091Y-233017
X147091Y-234287
X147091Y-235557
X147091Y-236827
X147091Y-238097
X147091Y-239367
X147091Y-240637
X147091Y-241907
X153439Y-122069
X153439Y-123339
X153439Y-124609
X153439Y-125879
X153439Y-127149
X153439Y-128419
X153439Y-129689
X153439Y-130959
X153439Y-132229
X153439Y-133499
X153439Y-134769
X153439Y-136039
X153439Y-137309
X153439Y-138579
X153439Y-139849
X153591Y-224127
X153591Y-225397
X153591Y-226667
X153591Y-227937
X153591Y-229207
X153591Y-230477
X153591Y-231747
X153591Y-233017
X153591Y-234287
X153591Y-235557
X153591Y-236827
X153591Y-238097
X153591Y-239367
X153591Y-240637
X153591Y-241907
X171439Y-122069
X171439Y-123339
X171439Y-124609
X171439Y-125879
X171439Y-127149
X171439Y-128419
X171439Y-129689
X171439Y-130959
X171439Y-132229
X171439Y-133499
X171439Y-134769
X171439Y-136039
X171439Y-137309
X171439Y-138579
X171439Y-139849
X171591Y-224127
X171591Y-225397
X171591Y-226667
X171591Y-227937
X171591Y-229207
X171591Y-230477
X171591Y-231747
X171591Y-233017
X171591Y-234287
X171591Y-235557
X171591Y-236827
X171591Y-238097
X171591Y-239367
X171591Y-240637
X171591Y-241907
X177939Y-122010
X177939Y-123280
X177939Y-124550
X177939Y-125820
X177939Y-127090
X177939Y-128360
X177939Y-129630
X177939Y-130900
X177939Y-132170
X177939Y-133440
X177939Y-134710
X177939Y-135980
X177939Y-137250
X177939Y-138520
X177939Y-139790
X178091Y-224067
X178091Y-225337
X178091Y-226607
X178091Y-227877
X178091Y-229147
X178091Y-230417
X178091Y-231687
X178091Y-232957
X178091Y-234227
X178091Y-235497
X178091Y-236767
X178091Y-238037
X178091Y-239307
X178091Y-240577
X178091Y-241847
X195939Y-122010
X195939Y-123280
X195939Y-124550
X195939Y-125820
X195939Y-127090
X195939Y-128360
X195939Y-129630
X195939Y-130900
X195939Y-132170
X195939Y-133440
X195939Y-134710
X195939Y-135980
X195939Y-137250
X195939Y-138520
X195939Y-139790
X196091Y-224067
X196091Y-225337
X196091Y-226607
X196091Y-227877
X196091Y-229147
X196091Y-230417
X196091Y-231687
X196091Y-232957
X196091Y-234227
X196091Y-235497
X196091Y-236767
X196091Y-238037
X196091Y-239307
X196091Y-240577
X196091Y-241847
X381764Y-55786
X381764Y-57056
X381764Y-58326
X381764Y-59596
X381764Y-60866
X381764Y-62136
X381764Y-63406
X381764Y-64676
X381764Y-65946
X381764Y-67216
X381764Y-68486
X381764Y-69756
X381764Y-71026
X381764Y-72296
X381764Y-73566
X381764Y-78138
X381764Y-79408
X381764Y-80678
X381764Y-81948
X381764Y-83218
X381764Y-84488
X381764Y-85758
X381764Y-87028
X381764Y-88298
X381764Y-89568
X381764Y-90838
X381764Y-92108
X381764Y-93378
X381764Y-94648
X381764Y-95918
X381967Y-99881
X381967Y-101151
X381967Y-102421
X381967Y-103691
X381967Y-104961
X381967Y-106231
X381967Y-107501
X381967Y-108771
X381967Y-110041
X381967Y-111311
X381967Y-112581
X381967Y-113851
X381967Y-115121
X381967Y-116391
X381967Y-117661
X381967Y-122232
X381967Y-123503
X381967Y-124773
X381967Y-126043
X381967Y-127313
X381967Y-128582
X381967Y-129852
X381967Y-131123
X381967Y-132392
X381967Y-133663
X381967Y-134933
X381967Y-136202
X381967Y-137473
X381967Y-138743
X381967Y-140013
X382780Y-145804
X382780Y-147074
X382780Y-148344
X382780Y-149614
X382780Y-150884
X382780Y-152154
X382780Y-153424
X382780Y-154694
X382780Y-155964
X382780Y-157234
X382780Y-158504
X382780Y-159774
X382780Y-161044
X382780Y-162314
X382780Y-163584
X382780Y-168156
X382780Y-169426
X382780Y-170696
X382780Y-171966
X382780Y-173236
X382780Y-174506
X382780Y-175776
X382780Y-177046
X382780Y-178316
X382780Y-179586
X382780Y-180856
X382780Y-182126
X382780Y-183396
X382780Y-184666
X382780Y-185936
X382983Y-189898
X382983Y-191168
X382983Y-192438
X382983Y-193708
X382983Y-194978
X382983Y-196248
X382983Y-197518
X382983Y-198788
X382983Y-200058
X382983Y-201328
X382983Y-202598
X382983Y-203868
X382983Y-205138
X382983Y-206408
X382983Y-207678
X383338Y-212580
X383338Y-213850
X383338Y-215120
X383338Y-216390
X383338Y-217660
X383338Y-218930
X383338Y-220200
X383338Y-221470
X383338Y-222740
X383338Y-224010
X383338Y-225280
X383338Y-226550
X383338Y-227820
X383338Y-229090
X383338Y-230360
X383542Y-234323
X383542Y-235593
X383542Y-236863
X383542Y-238133
X383542Y-239403
X383542Y-240673
X383542Y-241943
X383542Y-243213
X383542Y-244483
X383542Y-245753
X383542Y-247023
X383542Y-248293
X383542Y-249563
X383542Y-250833
X383542Y-252103
X399764Y-55786
X399764Y-57056
X399764Y-58326
X399764Y-59596
X399764Y-60866
X399764Y-62136
X399764Y-63406
X399764Y-64676
X399764Y-65946
X399764Y-67216
X399764Y-68486
X399764Y-69756
X399764Y-71026
X399764Y-72296
X399764Y-73566
X399764Y-78138
X399764Y-79408
X399764Y-80678
X399764Y-81948
X399764Y-83218
X399764Y-84488
X399764Y-85758
X399764Y-87028
X399764Y-88298
X399764Y-89568
X399764Y-90838
X399764Y-92108
X399764Y-93378
X399764Y-94648
X399764Y-95918
X399967Y-99881
X399967Y-101151
X399967Y-102421
X399967Y-103691
X399967Y-104961
X399967Y-106231
X399967Y-107501
X399967Y-108771
X399967Y-110041
X399967Y-111311
X399967Y-112581
X399967Y-113851
X399967Y-115121
X399967Y-116391
X399967Y-117661
X399967Y-122232
X399967Y-123503
X399967Y-124773
X399967Y-126043
X399967Y-127313
X399967Y-128582
X399967Y-129852
X399967Y-131123
X399967Y-132392
X399967Y-133663
X399967Y-134933
X399967Y-136202
X399967Y-137473
X399967Y-138743
X399967Y-140013
X400780Y-145804
X400780Y-147074
X400780Y-148344
X400780Y-149614
X400780Y-150884
X400780Y-152154
X400780Y-153424
X400780Y-154694
X400780Y-155964
X400780Y-157234
X400780Y-158504
X400780Y-159774
X400780Y-161044
X400780Y-162314
X400780Y-163584
X400780Y-168156
X400780Y-169426
X400780Y-170696
X400780Y-171966
X400780Y-173236
X400780Y-174506
X400780Y-175776
X400780Y-177046
X400780Y-178316
X400780Y-179586
X400780Y-180856
X400780Y-182126
X400780Y-183396
X400780Y-184666
X400780Y-185936
X400983Y-189898
X400983Y-191168
X400983Y-192438
X400983Y-193708
X400983Y-194978
X400983Y-196248
X400983Y-197518
X400983Y-198788
X400983Y-200058
X400983Y-201328
X400983Y-202598
X400983Y-203868
X400983Y-205138
X400983Y-206408
X400983Y-207678
X401338Y-212580
X401338Y-213850
X401338Y-215120
X401338Y-216390
X401338Y-217660
X401338Y-218930
X401338Y-220200
X401338Y-221470
X401338Y-222740
X401338Y-224010
X401338Y-225280
X401338Y-226550
X401338Y-227820
X401338Y-229090
X401338Y-230360
X401542Y-234323
X401542Y-235593
X401542Y-236863
X401542Y-238133
X401542Y-239403
X401542Y-240673
X401542Y-241943
X401542Y-243213
X401542Y-244483
X401542Y-245753
X401542Y-247023
X401542Y-248293
X401542Y-249563
X401542Y-250833
X401542Y-252103
X404700Y-55786
X404700Y-57056
X404700Y-58326
X404700Y-59596
X404700Y-60866
X404700Y-62136
X404700Y-63406
X404700Y-64676
X404700Y-65946
X404700Y-67216
X404700Y-68486
X404700Y-69756
X404700Y-71026
X404700Y-72296
X404700Y-73566
X404700Y-78138
X404700Y-79408
X404700Y-80678
X404700Y-81948
X404700Y-83218
X404700Y-84488
X404700Y-85758
X404700Y-87028
X404700Y-88298
X404700Y-89568
X404700Y-90838
X404700Y-92108
X404700Y-93378
X404700Y-94648
X404700Y-95918
X404903Y-99881
X404903Y-101151
X404903Y-102421
X404903Y-103691
X404903Y-104961
X404903Y-106231
X404903Y-107501
X404903Y-108771
X404903Y-110041
X404903Y-111311
X404903Y-112581
X404903Y-113851
X404903Y-115121
X404903Y-116391
X404903Y-117661
X404903Y-122232
X404903Y-123503
X404903Y-124773
X404903Y-126043
X404903Y-127313
X404903Y-128582
X404903Y-129852
X404903Y-131123
X404903Y-132392
X404903Y-133663
X404903Y-134933
X404903Y-136202
X404903Y-137473
X404903Y-138743
X404903Y-140013
X405716Y-145804
X405716Y-147074
X405716Y-148344
X405716Y-149614
X405716Y-150884
X405716Y-152154
X405716Y-153424
X405716Y-154694
X405716Y-155964
X405716Y-157234
X405716Y-158504
X405716Y-159774
X405716Y-161044
X405716Y-162314
X405716Y-163584
X405716Y-168156
X405716Y-169426
X405716Y-170696
X405716Y-171966
X405716Y-173236
X405716Y-174506
X405716Y-175776
X405716Y-177046
X405716Y-178316
X405716Y-179586
X405716Y-180856
X405716Y-182126
X405716Y-183396
X405716Y-184666
X405716Y-185936
X405919Y-189898
X405919Y-191168
X405919Y-192438
X405919Y-193708
X405919Y-194978
X405919Y-196248
X405919Y-197518
X405919Y-198788
X405919Y-200058
X405919Y-201328
X405919Y-202598
X405919Y-203868
X405919Y-205138
X405919Y-206408
X405919Y-207678
X406275Y-212580
X406275Y-213850
X406275Y-215120
X406275Y-216390
X406275Y-217660
X406275Y-218930
X406275Y-220200
X406275Y-221470
X406275Y-222740
X406275Y-224010
X406275Y-225280
X406275Y-226550
X406275Y-227820
X406275Y-229090
X406275Y-230360
X406478Y-234323
X406478Y-235593
X406478Y-236863
X406478Y-238133
X406478Y-239403
X406478Y-240673
X406478Y-241943
X406478Y-243213
X406478Y-244483
X406478Y-245753
X406478Y-247023
X406478Y-248293
X406478Y-249563
X406478Y-250833
X406478Y-252103
X422700Y-55786
X422700Y-57056
X422700Y-58326
X422700Y-59596
X422700Y-60866
X422700Y-62136
X422700Y-63406
X422700Y-64676
X422700Y-65946
X422700Y-67216
X422700Y-68486
X422700Y-69756
X422700Y-71026
X422700Y-72296
X422700Y-73566
X422700Y-78138
X422700Y-79408
X422700Y-80678
X422700Y-81948
X422700Y-83218
X422700Y-84488
X422700Y-85758
X422700Y-87028
X422700Y-88298
X422700Y-89568
X422700Y-90838
X422700Y-92108
X422700Y-93378
X422700Y-94648
X422700Y-95918
X422903Y-99881
X422903Y-101151
X422903Y-102421
X422903Y-103691
X422903Y-104961
X422903Y-106231
X422903Y-107501
X422903Y-108771
X422903Y-110041
X422903Y-111311
X422903Y-112581
X422903Y-113851
X422903Y-115121
X422903Y-116391
X422903Y-117661
X422903Y-122232
X422903Y-123503
X422903Y-124773
X422903Y-126043
X422903Y-127313
X422903Y-128582
X422903Y-129852
X422903Y-131123
X422903Y-132392
X422903Y-133663
X422903Y-134933
X422903Y-136202
X422903Y-137473
X422903Y-138743
X422903Y-140013
X423716Y-145804
X423716Y-147074
X423716Y-148344
X423716Y-149614
X423716Y-150884
X423716Y-152154
X423716Y-153424
X423716Y-154694
X423716Y-155964
X423716Y-157234
X423716Y-158504
X423716Y-159774
X423716Y-161044
X423716Y-162314
X423716Y-163584
X423716Y-168156
X423716Y-169426
X423716Y-170696
X423716Y-171966
X423716Y-173236
X423716Y-174506
X423716Y-175776
X423716Y-177046
X423716Y-178316
X423716Y-179586
X423716Y-180856
X423716Y-182126
X423716Y-183396
X423716Y-184666
X423716Y-185936
X423919Y-189898
X423919Y-191168
X423919Y-192438
X423919Y-193708
X423919Y-194978
X423919Y-196248
X423919Y-197518
X423919Y-198788
X423919Y-200058
X423919Y-201328
X423919Y-202598
X423919Y-203868
X423919Y-205138
X423919Y-206408
X423919Y-207678
X424275Y-212580
X424275Y-213850
X424275Y-215120
X424275Y-216390
X424275Y-217660
X424275Y-218930
X424275Y-220200
X424275Y-221470
X424275Y-222740
X424275Y-224010
X424275Y-225280
X424275Y-226550
X424275Y-227820
X424275Y-229090
X424275Y-230360
X424478Y-234323
X424478Y-235593
X424478Y-236863
X424478Y-238133
X424478Y-239403
X424478Y-240673
X424478Y-241943
X424478Y-243213
X424478Y-244483
X424478Y-245753
X424478Y-247023
X424478Y-248293
X424478Y-249563
X424478Y-250833
X424478Y-252103
X427687Y-55837
X427687Y-57107
X427687Y-58377
X427687Y-59647
X427687Y-60917
X427687Y-62187
X427687Y-63457
X427687Y-64727
X427687Y-65997
X427687Y-67267
X427687Y-68537
X427687Y-69807
X427687Y-71077
X427687Y-72347
X427687Y-73617
X427687Y-78189
X427687Y-79459
X427687Y-80729
X427687Y-81999
X427687Y-83269
X427687Y-84539
X427687Y-85809
X427687Y-87079
X427687Y-88349
X427687Y-89619
X427687Y-90889
X427687Y-92159
X427687Y-93429
X427687Y-94699
X427687Y-95969
X427890Y-99931
X427890Y-101201
X427890Y-102471
X427890Y-103741
X427890Y-105011
X427890Y-106281
X427890Y-107551
X427890Y-108821
X427890Y-110091
X427890Y-111361
X427890Y-112631
X427890Y-113901
X427890Y-115171
X427890Y-116441
X427890Y-117711
X427890Y-122283
X427890Y-123553
X427890Y-124823
X427890Y-126093
X427890Y-127363
X427890Y-128633
X427890Y-129903
X427890Y-131173
X427890Y-132443
X427890Y-133713
X427890Y-134983
X427890Y-136253
X427890Y-137523
X427890Y-138793
X427890Y-140063
X428703Y-145855
X428703Y-147125
X428703Y-148395
X428703Y-149665
X428703Y-150934
X428703Y-152205
X428703Y-153475
X428703Y-154745
X428703Y-156015
X428703Y-157284
X428703Y-158555
X428703Y-159825
X428703Y-161094
X428703Y-162365
X428703Y-163635
X428703Y-168207
X428703Y-169476
X428703Y-170746
X428703Y-172016
X428703Y-173286
X428703Y-174557
X428703Y-175826
X428703Y-177096
X428703Y-178367
X428703Y-179636
X428703Y-180907
X428703Y-182177
X428703Y-183446
X428703Y-184717
X428703Y-185986
X428906Y-189949
X428906Y-191219
X428906Y-192489
X428906Y-193759
X428906Y-195029
X428906Y-196299
X428906Y-197569
X428906Y-198839
X428906Y-200109
X428906Y-201379
X428906Y-202649
X428906Y-203919
X428906Y-205189
X428906Y-206459
X428906Y-207729
X429262Y-212631
X429262Y-213901
X429262Y-215171
X429262Y-216441
X429262Y-217711
X429262Y-218981
X429262Y-220251
X429262Y-221521
X429262Y-222791
X429262Y-224061
X429262Y-225331
X429262Y-226601
X429262Y-227871
X429262Y-229141
X429262Y-230411
X429465Y-234374
X429465Y-235644
X429465Y-236914
X429465Y-238184
X429465Y-239454
X429465Y-240724
X429465Y-241994
X429465Y-243264
X429465Y-244533
X429465Y-245804
X429465Y-247074
X429465Y-248344
X429465Y-249614
X429465Y-250884
X429465Y-252154
X445687Y-55837
X445687Y-57107
X445687Y-58377
X445687Y-59647
X445687Y-60917
X445687Y-62187
X445687Y-63457
X445687Y-64727
X445687Y-65997
X445687Y-67267
X445687Y-68537
X445687Y-69807
X445687Y-71077
X445687Y-72347
X445687Y-73617
X445687Y-78189
X445687Y-79459
X445687Y-80729
X445687Y-81999
X445687Y-83269
X445687Y-84539
X445687Y-85809
X445687Y-87079
X445687Y-88349
X445687Y-89619
X445687Y-90889
X445687Y-92159
X445687Y-93429
X445687Y-94699
X445687Y-95969
X445890Y-99931
X445890Y-101201
X445890Y-102471
X445890Y-103741
X445890Y-105011
X445890Y-106281
X445890Y-107551
X445890Y-108821
X445890Y-110091
X445890Y-111361
X445890Y-112631
X445890Y-113901
X445890Y-115171
X445890Y-116441
X445890Y-117711
X445890Y-122283
X445890Y-123553
X445890Y-124823
X445890Y-126093
X445890Y-127363
X445890Y-128633
X445890Y-129903
X445890Y-131173
X445890Y-132443
X445890Y-133713
X445890Y-134983
X445890Y-136253
X445890Y-137523
X445890Y-138793
X445890Y-140063
X446703Y-145855
X446703Y-147125
X446703Y-148395
X446703Y-149665
X446703Y-150934
X446703Y-152205
X446703Y-153475
X446703Y-154745
X446703Y-156015
X446703Y-157284
X446703Y-158555
X446703Y-159825
X446703Y-161094
X446703Y-162365
X446703Y-163635
X446703Y-168207
X446703Y-169476
X446703Y-170746
X446703Y-172016
X446703Y-173286
X446703Y-174557
X446703Y-175826
X446703Y-177096
X446703Y-178367
X446703Y-179636
X446703Y-180907
X446703Y-182177
X446703Y-183446
X446703Y-184717
X446703Y-185986
X446906Y-189949
X446906Y-191219
X446906Y-192489
X446906Y-193759
X446906Y-195029
X446906Y-196299
X446906Y-197569
X446906Y-198839
X446906Y-200109
X446906Y-201379
X446906Y-202649
X446906Y-203919
X446906Y-205189
X446906Y-206459
X446906Y-207729
X447262Y-212631
X447262Y-213901
X447262Y-215171
X447262Y-216441
X447262Y-217711
X447262Y-218981
X447262Y-220251
X447262Y-221521
X447262Y-222791
X447262Y-224061
X447262Y-225331
X447262Y-226601
X447262Y-227871
X447262Y-229141
X447262Y-230411
X447465Y-234374
X447465Y-235644
X447465Y-236914
X447465Y-238184
X447465Y-239454
X447465Y-240724
X447465Y-241994
X447465Y-243264
X447465Y-244533
X447465Y-245804
X447465Y-247074
X447465Y-248344
X447465Y-249614
X447465Y-250884
X447465Y-252154
T4
X99886Y-104364
X100039Y-206421
X102386Y-104364
X102539Y-206421
X112326Y-62294
X112326Y-62294
X112326Y-64834
X112326Y-64834
X112326Y-67374
X112326Y-67374
X112326Y-69914
X112326Y-69914
X112326Y-72454
X112326Y-72454
X112326Y-74994
X112326Y-74994
X112326Y-77534
X112326Y-77534
X112326Y-80074
X112326Y-80074
X112326Y-82614
X112326Y-82614
X112326Y-85154
X112326Y-85154
X112479Y-164351
X112479Y-164351
X112479Y-166891
X112479Y-166891
X112479Y-169431
X112479Y-169431
X112479Y-171971
X112479Y-171971
X112479Y-174511
X112479Y-174511
X112479Y-177051
X112479Y-177051
X112479Y-179591
X112479Y-179591
X112479Y-182131
X112479Y-182131
X112479Y-184671
X112479Y-184671
X112479Y-187211
X112479Y-187211
X132646Y-62294
X132646Y-62294
X132646Y-64834
X132646Y-64834
X132646Y-67374
X132646Y-67374
X132646Y-69914
X132646Y-69914
X132646Y-72454
X132646Y-72454
X132646Y-74994
X132646Y-74994
X132646Y-77534
X132646Y-77534
X132646Y-80074
X132646Y-80074
X132646Y-82614
X132646Y-82614
X132646Y-85154
X132646Y-85154
X132799Y-164351
X132799Y-164351
X132799Y-166891
X132799Y-166891
X132799Y-169431
X132799Y-169431
X132799Y-171971
X132799Y-171971
X132799Y-174511
X132799Y-174511
X132799Y-177051
X132799Y-177051
X132799Y-179591
X132799Y-179591
X132799Y-182131
X132799Y-182131
X132799Y-184671
X132799Y-184671
X132799Y-187211
X132799Y-187211
T5
X46869Y-83592
X46869Y-86132
X47022Y-185649
X47022Y-188189
X55561Y-149314
X55563Y-146774
X55713Y-251372
X55716Y-248832
X58101Y-146774
X58101Y-149314
X58253Y-248832
X58253Y-251372
X58846Y-58324
X58846Y-60864
X58999Y-160381
X58999Y-162921
X60641Y-146774
X60641Y-149314
X60793Y-248832
X60793Y-251372
X61386Y-58324
X61386Y-60864
X61539Y-160381
X61539Y-162921
X63181Y-146774
X63181Y-149314
X63333Y-248832
X63333Y-251372
X65721Y-146774
X65721Y-149314
X65873Y-248832
X65873Y-251372
X68261Y-146774
X68261Y-149314
X68413Y-248832
X68413Y-251372
X70801Y-146774
X70801Y-149314
X70953Y-248832
X70953Y-251372
X73341Y-146774
X73341Y-149314
X73493Y-248832
X73493Y-251372
X80061Y-149314
X80063Y-146774
X80213Y-251372
X80216Y-248832
X82601Y-146774
X82601Y-149314
X82753Y-248832
X82753Y-251372
X85141Y-146774
X85141Y-149314
X85293Y-248832
X85293Y-251372
X87681Y-146774
X87681Y-149314
X87833Y-248832
X87833Y-251372
X90221Y-146774
X90221Y-149314
X90373Y-248832
X90373Y-251372
X92761Y-146774
X92761Y-149314
X92913Y-248832
X92913Y-251372
X95301Y-146774
X95301Y-149314
X95453Y-248832
X95453Y-251372
X97841Y-146774
X97841Y-149314
X97993Y-248832
X97993Y-251372
X104561Y-149314
X104563Y-146774
X104713Y-251372
X104716Y-248832
X107101Y-146774
X107101Y-149314
X107253Y-248832
X107253Y-251372
X109641Y-146774
X109641Y-149314
X109793Y-248832
X109793Y-251372
X112181Y-146774
X112181Y-149314
X112333Y-248832
X112333Y-251372
X114721Y-146774
X114721Y-149314
X114873Y-248832
X114873Y-251372
X117261Y-146774
X117261Y-149314
X117413Y-248832
X117413Y-251372
X119801Y-146774
X119801Y-149314
X119953Y-248832
X119953Y-251372
X122341Y-146774
X122341Y-149314
X122493Y-248832
X122493Y-251372
X129061Y-149314
X129063Y-146774
X129213Y-251372
X129216Y-248832
X131601Y-146774
X131601Y-149314
X131753Y-248832
X131753Y-251372
X134141Y-146774
X134141Y-149314
X134293Y-248832
X134293Y-251372
X136681Y-146774
X136681Y-149314
X136833Y-248832
X136833Y-251372
X139221Y-146774
X139221Y-149314
X139373Y-248832
X139373Y-251372
X141761Y-146774
X141761Y-149314
X141913Y-248832
X141913Y-251372
X144301Y-146774
X144301Y-149314
X144453Y-248832
X144453Y-251372
X146841Y-146774
X146841Y-149314
X146993Y-248832
X146993Y-251372
X153366Y-63864
X153519Y-165921
X153561Y-149314
X153563Y-146774
X153713Y-251372
X153716Y-248832
X155906Y-63864
X156059Y-165921
X156101Y-146774
X156101Y-149314
X156253Y-248832
X156253Y-251372
X158446Y-63864
X158599Y-165921
X158641Y-146774
X158641Y-149314
X158793Y-248832
X158793Y-251372
X160986Y-63864
X161139Y-165921
X161181Y-146774
X161181Y-149314
X161333Y-248832
X161333Y-251372
X163526Y-63864
X163679Y-165921
X163721Y-146774
X163721Y-149314
X163873Y-248832
X163873Y-251372
X166066Y-63864
X166219Y-165921
X166261Y-146774
X166261Y-149314
X166413Y-248832
X166413Y-251372
X168606Y-63864
X168759Y-165921
X168801Y-146774
X168801Y-149314
X168953Y-248832
X168953Y-251372
X171146Y-63864
X171299Y-165921
X171341Y-146774
X171341Y-149314
X171493Y-248832
X171493Y-251372
X173686Y-63864
X173839Y-165921
X176226Y-63864
X176379Y-165921
X178061Y-149314
X178063Y-146774
X178213Y-251372
X178216Y-248832
X178766Y-63864
X178919Y-165921
X180601Y-146774
X180601Y-149314
X180753Y-248832
X180753Y-251372
X181306Y-63864
X181459Y-165921
X183141Y-146774
X183141Y-149314
X183293Y-248832
X183293Y-251372
X183846Y-63864
X183999Y-165921
X185681Y-146774
X185681Y-149314
X185833Y-248832
X185833Y-251372
X186386Y-63864
X186539Y-165921
X188221Y-146774
X188221Y-149314
X188373Y-248832
X188373Y-251372
X190761Y-146774
X190761Y-149314
X190913Y-248832
X190913Y-251372
X192846Y-58324
X192846Y-60864
X192999Y-160381
X192999Y-162921
X193301Y-146774
X193301Y-149314
X193453Y-248832
X193453Y-251372
X195386Y-58324
X195386Y-60864
X195539Y-160381
X195539Y-162921
X195841Y-146774
X195841Y-149314
X195993Y-248832
X195993Y-251372
X224522Y-160124
X224522Y-162664
X224877Y-58372
X224877Y-60912
X227062Y-160124
X227062Y-162664
X227417Y-58372
X227417Y-60912
X227807Y-248574
X227807Y-251115
X228163Y-146822
X228163Y-149362
X229602Y-160124
X229602Y-162664
X229957Y-58372
X229957Y-60912
X230347Y-248574
X230347Y-251115
X230703Y-146822
X230703Y-149362
X232142Y-160124
X232142Y-162664
X232497Y-58372
X232497Y-60912
X234682Y-160124
X234682Y-162664
X235037Y-58372
X235037Y-60912
X237222Y-160124
X237222Y-162664
X237577Y-58372
X237577Y-60912
X239762Y-160124
X239762Y-162664
X240117Y-58372
X240117Y-60912
X242302Y-160124
X242302Y-162664
X242657Y-58372
X242657Y-60912
X249022Y-160124
X249022Y-162664
X249377Y-58372
X249377Y-60912
X251562Y-160124
X251562Y-162664
X251917Y-58372
X251917Y-60912
X254102Y-160124
X254102Y-162664
X254457Y-58372
X254457Y-60912
X256642Y-160124
X256642Y-162664
X256997Y-58372
X256997Y-60912
X259182Y-160124
X259182Y-162664
X259537Y-58372
X259537Y-60912
X261722Y-160124
X261722Y-162664
X262077Y-58372
X262077Y-60912
X264262Y-160124
X264262Y-162664
X264617Y-58372
X264617Y-60912
X266802Y-160124
X266802Y-162664
X267157Y-58372
X267157Y-60912
X273522Y-160124
X273522Y-162664
X273877Y-58372
X273877Y-60912
X276062Y-160124
X276062Y-162664
X276417Y-58372
X276417Y-60912
X278602Y-160124
X278602Y-162664
X278957Y-58372
X278957Y-60912
X281142Y-160124
X281142Y-162664
X281497Y-58372
X281497Y-60912
X283682Y-160124
X283682Y-162664
X284037Y-58372
X284037Y-60912
X286222Y-160124
X286222Y-162664
X286577Y-58372
X286577Y-60912
X288762Y-160124
X288762Y-162664
X289117Y-58372
X289117Y-60912
X291302Y-160124
X291302Y-162664
X291657Y-58372
X291657Y-60912
X298022Y-160124
X298022Y-162664
X298377Y-58372
X298377Y-60912
X300562Y-160124
X300562Y-162664
X300917Y-58372
X300917Y-60912
X303102Y-160124
X303102Y-162664
X303457Y-58372
X303457Y-60912
X305642Y-160124
X305642Y-162664
X305997Y-58372
X305997Y-60912
X308182Y-160124
X308182Y-162664
X308537Y-58372
X308537Y-60912
X310722Y-160124
X310722Y-162664
X311077Y-58372
X311077Y-60912
X313262Y-160124
X313262Y-162664
X313617Y-58372
X313617Y-60912
X315802Y-160124
X315802Y-162664
X316157Y-58372
X316157Y-60912
X322522Y-160124
X322522Y-162664
X322877Y-58372
X322877Y-60912
X325062Y-160124
X325062Y-162664
X325417Y-58372
X325417Y-60912
X327602Y-160124
X327602Y-162664
X327957Y-58372
X327957Y-60912
X330142Y-160124
X330142Y-162664
X330497Y-58372
X330497Y-60912
X332682Y-160124
X332682Y-162664
X333037Y-58372
X333037Y-60912
X335222Y-160124
X335222Y-162664
X335577Y-58372
X335577Y-60912
X337762Y-160124
X337762Y-162664
X338117Y-58372
X338117Y-60912
X340302Y-160124
X340302Y-162664
X340657Y-58372
X340657Y-60912
X347022Y-160124
X347022Y-162664
X347377Y-58372
X347377Y-60912
X349562Y-160124
X349562Y-162664
X349917Y-58372
X349917Y-60912
X352102Y-160124
X352102Y-162664
X352457Y-58372
X352457Y-60912
X354642Y-160124
X354642Y-162664
X354997Y-58372
X354997Y-60912
X357182Y-160124
X357182Y-162664
X357537Y-58372
X357537Y-60912
X359722Y-160124
X359722Y-162664
X360077Y-58372
X360077Y-60912
X361807Y-248574
X361807Y-251115
X362163Y-146822
X362163Y-149362
X362262Y-160124
X362262Y-162664
X362617Y-58372
X362617Y-60912
X364347Y-248574
X364347Y-251115
X364703Y-146822
X364703Y-149362
X364802Y-160124
X364802Y-162664
X365157Y-58372
X365157Y-60912
T6
X46219Y-90404
X46219Y-105644
X46371Y-192462
X46371Y-207702
X48759Y-90404
X48759Y-105644
X48911Y-192462
X48911Y-207702
X51299Y-90404
X51299Y-105644
X51451Y-192462
X51451Y-207702
X53839Y-90404
X53839Y-105644
X53991Y-192462
X53991Y-207702
X56379Y-90404
X56379Y-92944
X56379Y-103104
X56379Y-105644
X56531Y-192462
X56531Y-195002
X56531Y-205162
X56531Y-207702
X58919Y-90404
X58919Y-105644
X59071Y-192462
X59071Y-207702
X61459Y-90404
X61459Y-105644
X61611Y-192462
X61611Y-207702
X63999Y-90404
X63999Y-105644
X64151Y-192462
X64151Y-207702
X66539Y-90404
X66539Y-105644
X66691Y-192462
X66691Y-207702
X69079Y-90404
X69079Y-105644
X69231Y-192462
X69231Y-207702
X71619Y-90404
X71619Y-105644
X71771Y-192462
X71771Y-207702
X74159Y-90404
X74159Y-92944
X74159Y-95484
X74159Y-98024
X74159Y-100564
X74159Y-103104
X74159Y-105644
X74311Y-192462
X74311Y-195002
X74311Y-197542
X74311Y-200082
X74311Y-202622
X74311Y-205162
X74311Y-207702
X99346Y-60379
X99346Y-66879
X99498Y-162436
X99498Y-168936
X103846Y-60379
X103846Y-66879
X103998Y-162436
X103998Y-168936
T7
X89808Y-72454
X89808Y-77454
X89960Y-174512
X89960Y-179512
T8
X53740Y-66845
X53740Y-71845
X53740Y-76845
X53892Y-168902
X53892Y-173902
X53892Y-178902
T0
M30
